<?xml version="1.0" encoding="UTF-8"?>
<svg xmlns="http://www.w3.org/2000/svg" xmlns:xlink="http://www.w3.org/1999/xlink" width="80pt" height="60pt" viewBox="0 0 80 60" version="1.1">
<g id="surface1">
<path style=" stroke:none;fill-rule:evenodd;fill:rgb(100%,0%,0%);fill-opacity:1;" d="M 0 0 L 80 0 L 80 30.445312 L 0 30.445312 Z M 0 0 "/>
<path style=" stroke:none;fill-rule:evenodd;fill:rgb(0%,0%,0%);fill-opacity:1;" d="M 0 29.554688 L 80 29.554688 L 80 60 L 0 60 Z M 0 29.554688 "/>
<path style=" stroke:none;fill-rule:evenodd;fill:rgb(100%,92.54902%,0%);fill-opacity:1;" d="M 28.582031 18.523438 C 49.234375 23.933594 35.957031 50.476562 19.683594 39.429688 C 19.3125 39.992188 18.945312 40.558594 18.578125 41.121094 C 28.15625 47.953125 37.652344 42.453125 40.316406 35.328125 C 43.105469 27.980469 39.378906 17.640625 28.753906 16.574219 C 28.695312 17.222656 28.640625 17.871094 28.582031 18.519531 Z M 28.582031 18.523438 "/>
<path style=" stroke:none;fill-rule:evenodd;fill:rgb(100%,92.54902%,0%);fill-opacity:1;" d="M 21.246094 41.351562 L 23.960938 42.617188 L 22.691406 45.332031 L 19.976562 44.066406 Z M 21.246094 41.351562 "/>
<path style=" stroke:none;fill-rule:evenodd;fill:rgb(100%,92.54902%,0%);fill-opacity:1;" d="M 39.867188 28.917969 L 42.863281 28.917969 L 42.863281 31.910156 L 39.867188 31.910156 Z M 39.867188 28.917969 "/>
<path style=" stroke:none;fill-rule:evenodd;fill:rgb(100%,92.54902%,0%);fill-opacity:1;" d="M 38.40625 24.058594 L 41.199219 22.96875 L 42.289062 25.757812 L 39.496094 26.84375 Z M 38.40625 24.058594 "/>
<path style=" stroke:none;fill-rule:evenodd;fill:rgb(100%,92.54902%,0%);fill-opacity:1;" d="M 35.171875 20.410156 L 37.300781 18.300781 L 39.410156 20.429688 L 37.28125 22.535156 Z M 35.171875 20.410156 "/>
<path style=" stroke:none;fill-rule:evenodd;fill:rgb(100%,92.54902%,0%);fill-opacity:1;" d="M 31.886719 15.433594 L 34.6875 16.492188 L 33.628906 19.292969 L 30.828125 18.234375 Z M 31.886719 15.433594 "/>
<path style=" stroke:none;fill-rule:evenodd;fill:rgb(100%,92.54902%,0%);fill-opacity:1;" d="M 39.511719 33.75 L 42.296875 34.863281 L 41.183594 37.640625 L 38.398438 36.53125 Z M 39.511719 33.75 "/>
<path style=" stroke:none;fill-rule:evenodd;fill:rgb(100%,92.54902%,0%);fill-opacity:1;" d="M 30.777344 42.507812 L 33.535156 41.335938 L 34.710938 44.085938 L 31.953125 45.261719 Z M 30.777344 42.507812 "/>
<path style=" stroke:none;fill-rule:evenodd;fill:rgb(100%,92.54902%,0%);fill-opacity:1;" d="M 25.839844 42.855469 L 28.835938 42.855469 L 28.835938 45.847656 L 25.839844 45.847656 Z M 25.839844 42.855469 "/>
<path style=" stroke:none;fill-rule:evenodd;fill:rgb(100%,92.54902%,0%);fill-opacity:1;" d="M 31 28.363281 L 28.457031 26.484375 L 25.925781 28.292969 L 26.929688 25.429688 L 24.386719 23.558594 L 27.445312 23.539062 L 28.515625 20.71875 L 29.488281 23.558594 L 32.574219 23.527344 L 30.125 25.429688 Z M 31 28.363281 "/>
<path style=" stroke:none;fill-rule:evenodd;fill:rgb(100%,93.333333%,0%);fill-opacity:1;" d="M 42.003906 43.296875 C 41.851562 43.347656 41.226562 44.84375 40.792969 45.578125 C 41.019531 45.640625 41.113281 45.652344 41.246094 45.707031 C 42.953125 46.304688 43.796875 46.855469 44.519531 47.894531 C 44.882812 48.242188 45.398438 48.261719 45.796875 47.980469 C 45.796875 47.980469 46.144531 47.84375 46.597656 47.355469 C 46.96875 46.789062 46.875 46.339844 46.425781 45.957031 C 45.058594 44.964844 43.5625 44.222656 42.003906 43.296875 Z M 42.003906 43.296875 "/>
<path style=" stroke:none;fill-rule:evenodd;fill:rgb(0%,0%,0%);fill-opacity:1;" d="M 45.65625 46.605469 C 45.65625 46.902344 45.414062 47.144531 45.113281 47.144531 C 44.816406 47.144531 44.574219 46.902344 44.574219 46.605469 C 44.574219 46.308594 44.816406 46.066406 45.113281 46.066406 C 45.414062 46.066406 45.65625 46.308594 45.65625 46.605469 Z M 45.65625 46.605469 "/>
<path style=" stroke:none;fill-rule:evenodd;fill:rgb(0%,0%,0%);fill-opacity:1;" d="M 42.984375 44.894531 C 42.984375 45.195312 42.742188 45.4375 42.441406 45.4375 C 42.144531 45.4375 41.902344 45.195312 41.902344 44.894531 C 41.902344 44.597656 42.144531 44.355469 42.441406 44.355469 C 42.742188 44.355469 42.984375 44.597656 42.984375 44.894531 Z M 42.984375 44.894531 "/>
<path style=" stroke:none;fill-rule:evenodd;fill:rgb(0%,0%,0%);fill-opacity:1;" d="M 44.347656 45.769531 C 44.347656 46.066406 44.105469 46.308594 43.804688 46.308594 C 43.503906 46.308594 43.261719 46.066406 43.261719 45.769531 C 43.261719 45.46875 43.503906 45.226562 43.804688 45.226562 C 44.105469 45.226562 44.347656 45.46875 44.347656 45.769531 Z M 44.347656 45.769531 "/>
<path style=" stroke:none;fill-rule:evenodd;fill:rgb(100%,93.333333%,0%);fill-opacity:1;" d="M 40.558594 45.457031 C 35.238281 42.425781 29.644531 39.144531 24.324219 36.109375 C 21.980469 34.65625 21.863281 31.9375 23.425781 29.875 C 23.589844 29.582031 23.78125 29.65625 23.867188 29.808594 C 24.050781 30.8125 24.613281 31.847656 25.289062 32.496094 C 30.875 36.042969 36.253906 39.472656 41.75 43.199219 C 41.320312 43.917969 40.988281 44.738281 40.558594 45.457031 Z M 40.558594 45.457031 "/>
<path style=" stroke:none;fill-rule:evenodd;fill:rgb(100%,92.54902%,0%);fill-opacity:1;" d="M 37.148438 38.183594 L 39.378906 40.179688 L 37.375 42.410156 L 35.144531 40.410156 Z M 37.148438 38.183594 "/>
<path style="fill:none;stroke-width:2.85975;stroke-linecap:butt;stroke-linejoin:miter;stroke:rgb(0%,0%,0%);stroke-opacity:1;stroke-miterlimit:4;" d="M 444.69125 64.8898 L 319.75375 -10.6102 " transform="matrix(0.125,0,0,0.125,-14.145,35.490338)"/>
<path style="fill:none;stroke-width:2.85975;stroke-linecap:butt;stroke-linejoin:miter;stroke:rgb(0%,0%,0%);stroke-opacity:1;stroke-miterlimit:4;" d="M 429.285 47.48355 L 387.035 20.2023 " transform="matrix(0.125,0,0,0.125,-14.145,35.490338)"/>
<path style="fill:none;stroke-width:2.85975;stroke-linecap:butt;stroke-linejoin:miter;stroke:rgb(0%,0%,0%);stroke-opacity:1;stroke-miterlimit:4;" d="M 405.25375 62.8898 L 362.50375 38.10855 " transform="matrix(0.125,0,0,0.125,-14.145,35.490338)"/>
</g>
</svg>
