<?xml version="1.0" encoding="UTF-8"?>
<svg xmlns="http://www.w3.org/2000/svg" xmlns:xlink="http://www.w3.org/1999/xlink" width="80pt" height="60pt" viewBox="0 0 80 60" version="1.1">
<g id="surface1">
<path style=" stroke:none;fill-rule:evenodd;fill:rgb(87.058824%,12.941176%,6.27451%);fill-opacity:1;" d="M 0 40 L 80 40 L 80 60 L 0 60 Z M 0 40 "/>
<path style=" stroke:none;fill-rule:evenodd;fill:rgb(100%,100%,100%);fill-opacity:1;" d="M 0 0 L 80 0 L 80 20 L 0 20 Z M 0 0 "/>
<path style=" stroke:none;fill-rule:evenodd;fill:rgb(19.215686%,58.039216%,0%);fill-opacity:1;" d="M 0 20 L 80 20 L 80 40 L 0 40 Z M 0 20 "/>
</g>
</svg>
