<?xml version="1.0" encoding="UTF-8"?>
<svg xmlns="http://www.w3.org/2000/svg" xmlns:xlink="http://www.w3.org/1999/xlink" width="80pt" height="60pt" viewBox="0 0 80 60" version="1.1">
<g id="surface1">
<rect x="0" y="0" width="80" height="60" style="fill:rgb(100%,100%,100%);fill-opacity:1;stroke:none;"/>
<path style=" stroke:none;fill-rule:evenodd;fill:rgb(0%,14.901961%,49.803922%);fill-opacity:1;" d="M 0 0 L 26.667969 0 L 26.667969 60 L 0 60 Z M 0 0 "/>
<path style=" stroke:none;fill-rule:evenodd;fill:rgb(95.294118%,9.411765%,18.823529%);fill-opacity:1;" d="M 53.332031 0 L 80 0 L 80 60 L 53.332031 60 Z M 53.332031 0 "/>
</g>
</svg>
