<?xml version="1.0" encoding="UTF-8"?>
<svg xmlns="http://www.w3.org/2000/svg" xmlns:xlink="http://www.w3.org/1999/xlink" width="80pt" height="60pt" viewBox="0 0 80 60" version="1.1">
<g id="surface1">
<rect x="0" y="0" width="80" height="60" style="fill:rgb(0%,31.372549%,94.117647%);fill-opacity:1;stroke:none;"/>
<path style=" stroke:none;fill-rule:evenodd;fill:rgb(100%,100%,100%);fill-opacity:1;" d="M 0 12 L 90 12 L 90 24 L 0 24 Z M 0 12 "/>
<path style=" stroke:none;fill-rule:evenodd;fill:rgb(100%,100%,100%);fill-opacity:1;" d="M 0 36 L 90 36 L 90 48 L 0 48 Z M 0 36 "/>
<path style=" stroke:none;fill-rule:evenodd;fill:rgb(92.941176%,0%,0%);fill-opacity:1;" d="M 0 0 L 51.644531 29.960938 L 0 59.882812 Z M 0 0 "/>
<path style=" stroke:none;fill-rule:evenodd;fill:rgb(100%,100%,100%);fill-opacity:1;" d="M 22.703125 38.140625 L 17.144531 33.988281 L 11.613281 38.183594 L 13.667969 31.367188 L 8.148438 27.160156 L 14.980469 27.101562 L 17.097656 20.308594 L 19.261719 27.085938 L 26.097656 27.09375 L 20.601562 31.34375 Z M 22.703125 38.140625 "/>
</g>
</svg>
