<?xml version="1.0" encoding="UTF-8"?>
<svg xmlns="http://www.w3.org/2000/svg" xmlns:xlink="http://www.w3.org/1999/xlink" width="80pt" height="60pt" viewBox="0 0 80 60" version="1.1">
<g id="surface1">
<rect x="0" y="0" width="80" height="60" style="fill:rgb(100%,95.686275%,11.764706%);fill-opacity:1;stroke:none;"/>
<path style=" stroke:none;fill-rule:evenodd;fill:rgb(12.156863%,47.058824%,28.235294%);fill-opacity:1;" d="M -5 40 L 85 40 L 85 60 L -5 60 Z M -5 40 "/>
<path style=" stroke:none;fill-rule:evenodd;fill:rgb(90.980392%,0%,2.352941%);fill-opacity:1;" d="M -5 0 L 85 0 L 85 20 L -5 20 Z M -5 0 "/>
<path style=" stroke:none;fill-rule:evenodd;fill:rgb(0%,0%,0%);fill-opacity:1;" d="M 50.167969 45.621094 L 39.976562 38.347656 L 29.835938 45.695312 L 33.609375 33.753906 L 23.488281 26.378906 L 36.007812 26.277344 L 39.890625 14.375 L 43.859375 26.25 L 56.378906 26.265625 L 46.3125 33.707031 L 50.164062 45.621094 Z M 50.167969 45.621094 "/>
</g>
</svg>
