<?xml version="1.0" encoding="UTF-8"?>
<svg xmlns="http://www.w3.org/2000/svg" xmlns:xlink="http://www.w3.org/1999/xlink" width="80pt" height="60pt" viewBox="0 0 80 60" version="1.1">
<g id="surface1">
<rect x="0" y="0" width="80" height="60" style="fill:rgb(100%,100%,100%);fill-opacity:1;stroke:none;"/>
<path style=" stroke:none;fill-rule:evenodd;fill:rgb(87.45098%,6.666667%,17.647059%);fill-opacity:1;" d="M -10 0 L -10 3.855469 L 33.542969 30 L -10 56.144531 L -10 60 L -3.4375 60 L 40 33.855469 L 83.4375 60 L 90 60 L 90 56.144531 L 46.457031 30 L 90 3.855469 L 90 0 L 83.4375 0 L 40 26.144531 L -3.4375 0 Z M -10 0 "/>
<path style="fill-rule:nonzero;fill:rgb(90.980392%,6.666667%,17.647059%);fill-opacity:1;stroke-width:0.125;stroke-linecap:butt;stroke-linejoin:miter;stroke:rgb(0%,0%,0%);stroke-opacity:1;stroke-miterlimit:4;" d="M 132.656882 22.232608 C 135.812808 35.009792 134.086161 50.789423 119.831735 59.547358 C 105.577309 50.789423 103.84107 35.009792 107.006588 22.232608 C 110.363957 19.182199 125.635186 17.29248 132.656882 22.232608 Z M 132.656882 22.232608 " transform="matrix(0.40722,0,0,0.40722,-8.790067,-0.077)"/>
<path style="fill-rule:nonzero;fill:rgb(97.647059%,86.666667%,8.627451%);fill-opacity:1;stroke-width:0.125;stroke-linecap:butt;stroke-linejoin:miter;stroke:rgb(0%,0%,0%);stroke-opacity:1;stroke-miterlimit:4;" d="M 119.81255 19.671415 C 125.040452 19.671415 129.90384 21.052733 132.771992 22.846526 C 133.337948 18.433985 135.333184 14.031037 137.692934 10.702446 C 135.227667 10.654483 134.124531 11.959061 134.105346 13.311601 C 133.491428 11.575362 131.083715 11.671286 130.335501 12.620942 C 133.030989 14.443513 130.94942 17.666587 128.522523 17.004706 C 127.381017 16.688154 126.776691 15.891978 126.556064 14.731288 C 126.824654 14.721695 127.083651 14.62577 127.304278 14.443513 C 127.870234 13.983074 127.956566 13.148528 127.496127 12.582572 C 127.035688 12.016616 126.201142 11.930283 125.635186 12.390722 C 125.06923 12.851162 124.982897 13.685707 125.443336 14.251664 C 125.596816 14.433921 125.788666 14.568216 125.9997 14.644955 C 125.222709 15.90157 123.850985 16.275677 122.862959 16.007088 C 121.577567 15.642573 121.040388 14.491476 121.040388 13.46508 C 121.040388 10.807963 123.60158 10.395486 124.368978 10.855926 C 124.321016 9.062132 121.500827 7.62326 120.627911 9.110094 C 121.606344 7.373855 121.548789 4.908587 119.81255 3.268273 C 118.066719 4.908587 118.018756 7.373855 118.987597 9.110094 C 118.124274 7.62326 115.304084 9.062132 115.246529 10.855926 C 116.02352 10.395486 118.584713 10.807963 118.584713 13.46508 C 118.584713 14.491476 118.047534 15.642573 116.762141 16.007088 C 115.774116 16.275677 114.392799 15.90157 113.6254 14.644955 C 113.836435 14.568216 114.028284 14.433921 114.181764 14.251664 C 114.632611 13.685707 114.546278 12.851162 113.980322 12.390722 C 113.414365 11.930283 112.57982 12.016616 112.119381 12.582572 C 111.658942 13.148528 111.745274 13.983074 112.320823 14.443513 C 112.54145 14.62577 112.800447 14.721695 113.059444 14.731288 C 112.848409 15.891978 112.244083 16.688154 111.102578 17.004706 C 108.666088 17.666587 106.594112 14.443513 109.280006 12.620942 C 108.541385 11.671286 106.133673 11.575362 105.519754 13.311601 C 105.490976 11.959061 104.387841 10.654483 101.932166 10.702446 C 104.282324 14.031037 106.287152 18.433985 106.853109 22.846526 C 109.72126 21.052733 114.584648 19.671415 119.81255 19.671415 Z M 119.81255 19.671415 " transform="matrix(0.40722,0,0,0.40722,-8.790067,-0.077)"/>
<path style="fill-rule:nonzero;fill:rgb(97.647059%,86.666667%,8.627451%);fill-opacity:1;stroke-width:0.125;stroke-linecap:butt;stroke-linejoin:miter;stroke:rgb(0%,0%,0%);stroke-opacity:1;stroke-miterlimit:4;" d="M 130.652053 32.199195 C 130.335501 32.275935 130.335501 32.678819 130.172429 32.678819 C 130.98779 32.659634 131.390674 32.429415 131.630486 32.016938 C 131.457822 32.189603 131.611301 32.496562 131.553747 32.573302 C 132.14848 32.362267 132.436255 31.853866 132.22522 31.508537 C 132.359515 31.700386 132.752807 31.805903 132.877509 31.825088 C 132.45544 31.489352 132.752807 30.741138 132.081333 30.347846 C 132.30196 30.338254 132.743214 30.587658 132.858324 30.894618 C 132.752807 30.213552 132.647289 29.78189 132.090925 29.407783 C 132.14848 29.474931 132.465032 29.532486 132.599327 29.407783 C 132.244405 29.177564 132.138888 28.803457 132.167665 28.563645 C 132.215628 28.227908 131.985408 28.160761 131.563339 28.266278 C 131.189232 28.35261 130.316317 28.410165 129.807915 28.410165 C 128.752742 28.410165 127.841457 28.410165 126.968541 27.815431 C 128.273118 28.35261 129.94221 27.211105 129.94221 26.26145 C 129.94221 25.206277 128.647225 24.352546 126.03807 24.928095 C 123.419323 25.494051 120.234619 25.254239 120.234619 24.381323 C 120.234619 23.508408 122.51763 23.393298 123.687912 23.575555 C 124.867787 23.74822 125.702333 23.872922 127.899011 23.095931 C 127.361832 23.297373 125.616001 23.36452 124.234684 22.971229 C 122.853367 22.577937 119.457628 22.577937 119.419258 24.410101 C 119.390481 26.251857 123.035624 26.079192 126.19155 25.618753 C 128.023714 25.350164 128.982962 25.522829 128.982962 26.127155 C 128.982962 26.702704 127.294685 26.942516 126.009293 26.789036 C 124.714308 26.635556 123.390545 26.664334 121.855749 27.11518 C 120.579949 27.49888 119.69744 27.11518 118.277753 27.364585 C 117.596687 27.479695 115.937188 27.364585 115.112235 26.012045 C 114.613426 26.366967 113.097814 27.124773 112.838817 27.863394 C 112.474302 28.534868 112.723707 29.206341 113.203331 29.868222 C 113.807657 30.702768 112.896372 30.578066 112.253675 30.606843 C 111.371167 30.645213 110.181699 30.510919 109.567781 29.810667 C 109.011417 29.187156 108.282388 28.688347 107.697247 29.148786 C 107.39988 29.388598 107.687655 29.695558 107.927467 29.609225 C 108.157686 29.522893 108.435868 29.695558 108.694865 29.810667 C 108.291981 29.638003 107.850727 29.772298 107.678062 29.925777 C 107.43825 30.136812 107.726024 30.539696 108.013799 30.395809 C 108.244018 30.290291 108.704457 30.213552 109.001824 30.491734 C 108.67568 30.424586 108.339943 30.434179 108.176871 30.616436 C 108.013799 30.7891 108.138501 31.038505 108.493423 31.028913 C 109.049787 31.000135 109.193674 31.393427 109.75963 31.316687 C 109.414301 31.355057 109.212859 31.537314 109.126527 31.671609 C 109.654113 31.431797 110.229662 32.084085 110.920321 31.930606 C 110.651731 32.036123 110.220069 32.304712 110.229662 32.496562 C 110.632546 32.036123 113.347218 32.861076 113.414365 31.834681 C 113.481513 32.045715 113.47192 32.362267 113.260886 32.640449 C 113.606215 32.429415 114.738128 32.352675 115.083457 31.537314 C 115.112235 31.777126 115.064272 32.093678 114.853238 32.170418 C 115.217752 32.285527 115.687783 32.016938 116.177 31.297502 C 116.36885 31.009728 116.416812 30.817878 116.378442 30.606843 C 116.867659 30.626028 117.212988 30.501326 117.587095 30.184774 C 117.980386 29.85863 118.402455 30.453364 119.064337 30.031295 C 119.726218 29.618818 120.292174 29.97374 120.656688 29.762705 C 121.01161 29.55167 121.510419 29.839445 121.903711 29.599633 C 122.297003 29.359821 122.901329 29.714743 123.544025 29.206341 C 124.560828 29.580448 125.750296 30.271107 128.66641 29.733928 C 130.335501 29.426968 130.863088 29.992925 130.863088 30.760323 C 130.863088 31.278317 130.556129 31.326279 130.316317 31.345464 C 129.395438 31.403019 128.992554 31.000135 128.62804 31.124837 C 128.378635 31.21117 128.225156 31.614054 128.58967 31.748349 C 128.292303 31.901828 128.330673 32.18001 128.47456 32.285527 C 128.62804 32.391045 129.011739 32.29512 129.280329 32.170418 C 128.944592 32.323897 128.58967 32.602079 128.791112 32.889854 C 128.915814 33.062518 129.222774 33.206406 129.500956 32.841891 C 129.78873 32.458192 130.316317 32.151233 130.652053 32.199195 Z M 130.652053 32.199195 " transform="matrix(0.40722,0,0,0.40722,-8.790067,-0.077)"/>
<path style="fill-rule:nonzero;fill:rgb(97.647059%,86.666667%,8.627451%);fill-opacity:1;stroke-width:0.125;stroke-linecap:butt;stroke-linejoin:miter;stroke:rgb(0%,0%,0%);stroke-opacity:1;stroke-miterlimit:4;" d="M 112.138566 24.266214 C 111.294427 23.920884 111.016245 23.911292 111.208095 24.592358 C 111.294427 24.889725 111.495869 25.302202 111.697311 25.484459 C 111.706904 25.206277 111.812421 24.410101 112.138566 24.266214 Z M 112.138566 24.266214 " transform="matrix(0.40722,0,0,0.40722,-8.790067,-0.077)"/>
<path style="fill-rule:nonzero;fill:rgb(97.647059%,86.666667%,8.627451%);fill-opacity:1;stroke-width:0.125;stroke-linecap:butt;stroke-linejoin:miter;stroke:rgb(0%,0%,0%);stroke-opacity:1;stroke-miterlimit:4;" d="M 114.766905 24.266214 C 115.611044 23.920884 115.898818 23.911292 115.697376 24.592358 C 115.620636 24.889725 115.419194 25.302202 115.217752 25.484459 C 115.208159 25.206277 115.102642 24.410101 114.766905 24.266214 Z M 114.766905 24.266214 " transform="matrix(0.40722,0,0,0.40722,-8.790067,-0.077)"/>
<path style="fill-rule:nonzero;fill:rgb(97.647059%,86.666667%,8.627451%);fill-opacity:1;stroke-width:0.125;stroke-linecap:butt;stroke-linejoin:miter;stroke:rgb(0%,0%,0%);stroke-opacity:1;stroke-miterlimit:4;" d="M 113.462328 23.805775 C 115.05468 23.805775 115.256122 24.553988 115.246529 25.484459 C 115.236937 26.491669 114.699758 26.14634 114.383206 27.431732 C 114.268096 27.940134 113.865212 27.968911 113.462328 27.968911 C 113.049851 27.968911 112.65656 27.940134 112.531857 27.431732 C 112.224898 26.14634 111.678126 26.491669 111.678126 25.484459 C 111.668534 24.553988 111.869976 23.805775 113.462328 23.805775 Z M 113.462328 23.805775 " transform="matrix(0.40722,0,0,0.40722,-8.790067,-0.077)"/>
<path style="fill-rule:nonzero;fill:rgb(97.647059%,86.666667%,8.627451%);fill-opacity:1;stroke-width:0.125;stroke-linecap:butt;stroke-linejoin:miter;stroke:rgb(0%,0%,0%);stroke-opacity:1;stroke-miterlimit:4;" d="M 109.356746 27.49888 C 108.953862 27.259068 108.694865 27.42214 108.531793 27.470102 C 109.049787 27.604397 109.078564 28.275871 110.277624 28.592422 C 110.009035 28.515683 109.855555 28.669162 109.596558 28.534868 C 110.095367 28.918567 110.651731 29.379006 111.822014 29.388598 C 112.474302 29.398191 112.023456 29.733928 111.601387 29.542078 C 112.042641 29.992925 112.925149 29.618818 113.481513 30.453364 C 113.58703 29.810667 112.445525 28.784272 112.963519 28.055243 C 111.34239 27.978504 111.208095 27.086403 110.277624 26.366967 C 109.519818 25.781826 109.452671 25.196684 109.107342 24.083956 C 108.963454 23.585147 108.368721 23.278188 108.042576 23.393298 C 107.764394 23.498815 107.658877 23.738627 107.898689 23.930477 C 108.148094 24.112734 108.455053 24.141511 108.5222 24.60195 C 108.205648 24.227844 107.735617 24.083956 107.505397 24.323768 C 107.371103 24.467656 107.419065 24.803393 107.726024 24.841762 C 108.205648 24.889725 107.860319 25.359756 108.416683 25.829788 C 107.917874 25.273424 107.495805 25.225462 107.236808 25.522829 C 107.073736 25.705086 107.236808 26.021638 107.572545 25.99286 C 108.061761 25.944898 108.627718 27.182328 109.356746 27.49888 Z M 109.356746 27.49888 " transform="matrix(0.40722,0,0,0.40722,-8.790067,-0.077)"/>
<path style="fill-rule:nonzero;fill:rgb(97.647059%,86.666667%,8.627451%);fill-opacity:1;stroke-width:0.125;stroke-linecap:butt;stroke-linejoin:miter;stroke:rgb(0%,0%,0%);stroke-opacity:1;stroke-miterlimit:4;" d="M 122.431297 32.14164 C 122.1723 32.18001 122.24904 32.602079 121.903711 32.630857 C 122.728664 32.630857 123.150733 32.439007 123.544025 32.122455 C 123.361768 32.227973 123.285028 32.496562 123.275436 32.650042 C 123.707097 32.275935 124.743085 32.247158 125.289857 32.352675 C 125.827036 32.458192 125.913368 32.199195 126.11481 31.853866 C 126.30666 31.508537 126.03807 31.316687 125.769481 31.038505 C 125.491299 30.769916 125.433744 30.395809 125.491299 29.762705 C 124.052427 27.844209 121.472049 28.77468 121.433679 29.609225 C 122.373742 30.693176 122.488852 30.578066 123.275436 30.721953 C 124.052427 30.875433 124.532051 30.875433 124.004464 31.316687 C 123.8318 31.460574 123.073994 31.393427 122.488852 31.422204 C 121.174682 31.470167 120.579949 30.510919 120.196249 31.009728 C 119.870105 31.422204 120.205842 31.604461 120.848538 31.585276 C 120.397691 31.585276 119.802958 31.566091 119.908475 31.978568 C 120.08114 32.688412 120.752613 31.853866 121.021203 32.14164 C 120.790983 32.084085 120.445654 32.227973 120.426469 32.439007 C 120.416876 32.650042 120.925278 32.928224 121.491234 32.477377 C 121.798194 32.227973 122.191485 32.14164 122.431297 32.14164 Z M 122.431297 32.14164 " transform="matrix(0.40722,0,0,0.40722,-8.790067,-0.077)"/>
<path style="fill:none;stroke-width:0.125;stroke-linecap:butt;stroke-linejoin:miter;stroke:rgb(0%,0%,0%);stroke-opacity:1;stroke-miterlimit:4;" d="M 123.553618 29.206341 C 123.083586 29.033677 122.651924 28.928159 122.105153 29.043269 " transform="matrix(0.40722,0,0,0.40722,-8.790067,-0.077)"/>
<path style="fill:none;stroke-width:0.125;stroke-linecap:butt;stroke-linejoin:miter;stroke:rgb(0%,0%,0%);stroke-opacity:1;stroke-miterlimit:4;" d="M 116.483959 28.985714 C 116.090668 29.810667 116.33048 30.223144 116.388035 30.606843 " transform="matrix(0.40722,0,0,0.40722,-8.790067,-0.077)"/>
<path style="fill:none;stroke-width:0.125;stroke-linecap:butt;stroke-linejoin:miter;stroke:rgb(0%,0%,0%);stroke-opacity:1;stroke-miterlimit:4;" d="M 112.368785 25.052797 C 112.637375 25.187092 112.781262 24.812985 113.174553 25.206277 C 113.069036 25.091167 112.934741 25.513236 112.637375 25.235054 " transform="matrix(0.40722,0,0,0.40722,-8.790067,-0.077)"/>
<path style="fill:none;stroke-width:0.125;stroke-linecap:butt;stroke-linejoin:miter;stroke:rgb(0%,0%,0%);stroke-opacity:1;stroke-miterlimit:4;" d="M 114.527093 25.052797 C 114.268096 25.187092 114.114617 24.812985 113.730917 25.206277 C 113.836435 25.091167 113.970729 25.513236 114.268096 25.235054 " transform="matrix(0.40722,0,0,0.40722,-8.790067,-0.077)"/>
<path style="fill:none;stroke-width:0.125;stroke-linecap:butt;stroke-linejoin:miter;stroke:rgb(0%,0%,0%);stroke-opacity:1;stroke-miterlimit:4;" d="M 113.730917 25.206277 C 113.634993 25.283017 113.6254 25.148722 113.70214 25.503644 C 113.826842 26.155932 113.980322 26.453299 113.452735 26.453299 C 112.915556 26.453299 113.078629 26.155932 113.203331 25.503644 C 113.270478 25.148722 113.260886 25.283017 113.174553 25.206277 " transform="matrix(0.40722,0,0,0.40722,-8.790067,-0.077)"/>
<path style="fill-rule:nonzero;fill:rgb(100%,0%,8.627451%);fill-opacity:1;stroke-width:0.0625;stroke-linecap:butt;stroke-linejoin:miter;stroke:rgb(0%,0%,0%);stroke-opacity:1;stroke-miterlimit:4;" d="M 113.462328 27.709914 C 113.884397 27.709914 114.133802 27.700322 114.066654 27.095995 C 114.037877 26.856183 114.364021 26.760259 114.248911 26.366967 C 114.373614 26.846591 113.462328 26.798629 113.462328 26.587594 C 113.462328 26.798629 112.551042 26.846591 112.675744 26.366967 C 112.560635 26.760259 112.877187 26.856183 112.848409 27.095995 C 112.781262 27.700322 113.030666 27.709914 113.462328 27.709914 Z M 113.462328 27.709914 " transform="matrix(0.40722,0,0,0.40722,-8.790067,-0.077)"/>
<path style="fill-rule:nonzero;fill:rgb(0%,0%,0%);fill-opacity:1;stroke-width:0.0625;stroke-linecap:butt;stroke-linejoin:miter;stroke:rgb(0%,0%,0%);stroke-opacity:1;stroke-miterlimit:4;" d="M 113.069036 26.491669 L 112.042641 26.203895 " transform="matrix(0.40722,0,0,0.40722,-8.790067,-0.077)"/>
<path style="fill-rule:nonzero;fill:rgb(0%,0%,0%);fill-opacity:1;stroke-width:0.0625;stroke-linecap:butt;stroke-linejoin:miter;stroke:rgb(0%,0%,0%);stroke-opacity:1;stroke-miterlimit:4;" d="M 113.069036 26.539632 L 111.917939 26.530039 " transform="matrix(0.40722,0,0,0.40722,-8.790067,-0.077)"/>
<path style="fill-rule:nonzero;fill:rgb(0%,0%,0%);fill-opacity:1;stroke-width:0.0625;stroke-linecap:butt;stroke-linejoin:miter;stroke:rgb(0%,0%,0%);stroke-opacity:1;stroke-miterlimit:4;" d="M 113.078629 26.606779 L 112.100196 26.865776 " transform="matrix(0.40722,0,0,0.40722,-8.790067,-0.077)"/>
<path style="fill-rule:nonzero;fill:rgb(0%,0%,0%);fill-opacity:1;stroke-width:0.0625;stroke-linecap:butt;stroke-linejoin:miter;stroke:rgb(0%,0%,0%);stroke-opacity:1;stroke-miterlimit:4;" d="M 113.836435 26.491669 L 114.872423 26.203895 " transform="matrix(0.40722,0,0,0.40722,-8.790067,-0.077)"/>
<path style="fill-rule:nonzero;fill:rgb(0%,0%,0%);fill-opacity:1;stroke-width:0.0625;stroke-linecap:butt;stroke-linejoin:miter;stroke:rgb(0%,0%,0%);stroke-opacity:1;stroke-miterlimit:4;" d="M 113.836435 26.539632 L 114.987532 26.530039 " transform="matrix(0.40722,0,0,0.40722,-8.790067,-0.077)"/>
<path style="fill-rule:nonzero;fill:rgb(0%,0%,0%);fill-opacity:1;stroke-width:0.0625;stroke-linecap:butt;stroke-linejoin:miter;stroke:rgb(0%,0%,0%);stroke-opacity:1;stroke-miterlimit:4;" d="M 113.826842 26.606779 L 114.805275 26.865776 " transform="matrix(0.40722,0,0,0.40722,-8.790067,-0.077)"/>
<path style="fill-rule:nonzero;fill:rgb(0%,31.764706%,72.941176%);fill-opacity:1;stroke-width:0.013;stroke-linecap:butt;stroke-linejoin:miter;stroke:rgb(0%,0%,0%);stroke-opacity:1;stroke-miterlimit:4;" d="M 108.128909 23.412483 C 107.831542 23.038376 107.083328 23.354928 107.064143 23.815367 C 107.32314 23.518 107.735617 23.949662 107.956244 23.863329 C 108.109724 23.796182 108.253611 23.565963 108.128909 23.412483 Z M 108.128909 23.412483 " transform="matrix(0.40722,0,0,0.40722,-8.790067,-0.077)"/>
<path style="fill-rule:nonzero;fill:rgb(0%,31.764706%,72.941176%);fill-opacity:1;stroke-width:0.013;stroke-linecap:butt;stroke-linejoin:miter;stroke:rgb(0%,0%,0%);stroke-opacity:1;stroke-miterlimit:4;" d="M 107.745209 24.294991 C 107.447842 23.920884 106.699629 24.237436 106.690037 24.697875 C 106.939441 24.400508 107.351918 24.83217 107.582137 24.736245 C 107.735617 24.67869 107.869912 24.448471 107.745209 24.294991 Z M 107.745209 24.294991 " transform="matrix(0.40722,0,0,0.40722,-8.790067,-0.077)"/>
<path style="fill-rule:nonzero;fill:rgb(0%,31.764706%,72.941176%);fill-opacity:1;stroke-width:0.013;stroke-linecap:butt;stroke-linejoin:miter;stroke:rgb(0%,0%,0%);stroke-opacity:1;stroke-miterlimit:4;" d="M 107.55336 25.474866 C 107.20803 25.139129 106.507779 25.542014 106.536557 26.002453 C 106.757184 25.676308 107.217623 26.060007 107.428658 25.944898 C 107.582137 25.858565 107.687655 25.618753 107.55336 25.474866 Z M 107.55336 25.474866 " transform="matrix(0.40722,0,0,0.40722,-8.790067,-0.077)"/>
<path style="fill-rule:nonzero;fill:rgb(0%,31.764706%,72.941176%);fill-opacity:1;stroke-width:0.013;stroke-linecap:butt;stroke-linejoin:miter;stroke:rgb(0%,0%,0%);stroke-opacity:1;stroke-miterlimit:4;" d="M 107.908282 29.148786 C 107.534175 28.851419 106.872294 29.331043 106.968218 29.78189 C 107.140883 29.436561 107.639692 29.762705 107.841134 29.618818 C 107.985021 29.522893 108.061761 29.263896 107.908282 29.148786 Z M 107.908282 29.148786 " transform="matrix(0.40722,0,0,0.40722,-8.790067,-0.077)"/>
<path style="fill-rule:nonzero;fill:rgb(0%,31.764706%,72.941176%);fill-opacity:1;stroke-width:0.013;stroke-linecap:butt;stroke-linejoin:miter;stroke:rgb(0%,0%,0%);stroke-opacity:1;stroke-miterlimit:4;" d="M 107.889097 29.954555 C 107.43825 29.78189 106.958626 30.443771 107.188846 30.846655 C 107.2464 30.453364 107.821949 30.616436 107.975429 30.424586 C 108.071354 30.290291 108.071354 30.021702 107.889097 29.954555 Z M 107.889097 29.954555 " transform="matrix(0.40722,0,0,0.40722,-8.790067,-0.077)"/>
<path style="fill-rule:nonzero;fill:rgb(0%,31.764706%,72.941176%);fill-opacity:1;stroke-width:0.013;stroke-linecap:butt;stroke-linejoin:miter;stroke:rgb(0%,0%,0%);stroke-opacity:1;stroke-miterlimit:4;" d="M 108.464645 30.549288 C 108.013799 30.386216 107.534175 31.038505 107.754802 31.441389 C 107.821949 31.05769 108.397498 31.21117 108.541385 31.01932 C 108.646903 30.885025 108.63731 30.616436 108.464645 30.549288 Z M 108.464645 30.549288 " transform="matrix(0.40722,0,0,0.40722,-8.790067,-0.077)"/>
<path style="fill-rule:nonzero;fill:rgb(0%,31.764706%,72.941176%);fill-opacity:1;stroke-width:0.013;stroke-linecap:butt;stroke-linejoin:miter;stroke:rgb(0%,0%,0%);stroke-opacity:1;stroke-miterlimit:4;" d="M 120.196249 31.709979 C 119.754995 31.546906 119.275371 32.199195 119.495998 32.611672 C 119.563146 32.21838 120.138694 32.381452 120.282582 32.18001 C 120.388099 32.045715 120.378506 31.777126 120.196249 31.709979 Z M 120.196249 31.709979 " transform="matrix(0.40722,0,0,0.40722,-8.790067,-0.077)"/>
<path style="fill-rule:nonzero;fill:rgb(0%,31.764706%,72.941176%);fill-opacity:1;stroke-width:0.013;stroke-linecap:butt;stroke-linejoin:miter;stroke:rgb(0%,0%,0%);stroke-opacity:1;stroke-miterlimit:4;" d="M 120.810168 32.25675 C 120.349729 32.14164 119.946845 32.851484 120.215434 33.225591 C 120.234619 32.832299 120.819761 32.928224 120.944463 32.717189 C 121.030795 32.573302 121.002018 32.304712 120.810168 32.25675 Z M 120.810168 32.25675 " transform="matrix(0.40722,0,0,0.40722,-8.790067,-0.077)"/>
<path style="fill-rule:nonzero;fill:rgb(0%,31.764706%,72.941176%);fill-opacity:1;stroke-width:0.013;stroke-linecap:butt;stroke-linejoin:miter;stroke:rgb(0%,0%,0%);stroke-opacity:1;stroke-miterlimit:4;" d="M 120.378506 30.94258 C 119.96603 30.702768 119.380889 31.268725 119.534368 31.700386 C 119.65907 31.335872 120.205842 31.585276 120.378506 31.422204 C 120.503209 31.307094 120.551171 31.038505 120.378506 30.94258 Z M 120.378506 30.94258 " transform="matrix(0.40722,0,0,0.40722,-8.790067,-0.077)"/>
<path style="fill-rule:nonzero;fill:rgb(0%,31.764706%,72.941176%);fill-opacity:1;stroke-width:0.013;stroke-linecap:butt;stroke-linejoin:miter;stroke:rgb(0%,0%,0%);stroke-opacity:1;stroke-miterlimit:4;" d="M 128.733557 31.882643 C 128.263526 31.767534 127.860641 32.477377 128.129231 32.851484 C 128.148416 32.458192 128.74315 32.554117 128.867852 32.343082 C 128.954184 32.199195 128.915814 31.930606 128.733557 31.882643 Z M 128.733557 31.882643 " transform="matrix(0.40722,0,0,0.40722,-8.790067,-0.077)"/>
<path style="fill-rule:nonzero;fill:rgb(0%,31.764706%,72.941176%);fill-opacity:1;stroke-width:0.013;stroke-linecap:butt;stroke-linejoin:miter;stroke:rgb(0%,0%,0%);stroke-opacity:1;stroke-miterlimit:4;" d="M 128.752742 31.144022 C 128.330673 30.923395 127.764717 31.508537 127.927789 31.930606 C 128.042899 31.556499 128.599262 31.796311 128.771927 31.623646 C 128.887037 31.498944 128.925407 31.239947 128.752742 31.144022 Z M 128.752742 31.144022 " transform="matrix(0.40722,0,0,0.40722,-8.790067,-0.077)"/>
<path style="fill-rule:nonzero;fill:rgb(0%,31.764706%,72.941176%);fill-opacity:1;stroke-width:0.013;stroke-linecap:butt;stroke-linejoin:miter;stroke:rgb(0%,0%,0%);stroke-opacity:1;stroke-miterlimit:4;" d="M 129.069294 32.544524 C 128.599262 32.4486 128.234748 33.168036 128.51293 33.53255 C 128.522523 33.139258 129.107664 33.206406 129.222774 32.995371 C 129.309106 32.841891 129.261144 32.582894 129.069294 32.544524 Z M 129.069294 32.544524 " transform="matrix(0.40722,0,0,0.40722,-8.790067,-0.077)"/>
<path style="fill-rule:nonzero;fill:rgb(0%,31.764706%,72.941176%);fill-opacity:1;stroke-width:0.013;stroke-linecap:butt;stroke-linejoin:miter;stroke:rgb(0%,0%,0%);stroke-opacity:1;stroke-miterlimit:4;" d="M 113.491105 27.3454 C 113.788472 27.3454 113.903582 27.431732 113.903582 27.959319 C 113.903582 29.091231 113.89399 29.570855 113.529475 29.570855 C 113.164961 29.570855 113.193738 29.110416 113.193738 28.285463 C 113.193738 27.853801 113.193738 27.642767 113.107406 27.671544 C 113.107406 27.393362 113.232108 27.3454 113.491105 27.3454 Z M 113.491105 27.3454 " transform="matrix(0.40722,0,0,0.40722,-8.790067,-0.077)"/>
<path style="fill-rule:nonzero;fill:rgb(97.647059%,86.666667%,8.627451%);fill-opacity:1;stroke-width:0.125;stroke-linecap:butt;stroke-linejoin:miter;stroke:rgb(0%,0%,0%);stroke-opacity:1;stroke-miterlimit:4;" d="M 130.649338 32.204196 C 130.340247 32.278804 130.340247 32.68382 130.169714 32.68382 C 130.990404 32.662504 131.384761 32.428021 131.629902 32.023005 C 131.459369 32.18288 131.608586 32.502629 131.555294 32.577237 C 132.15216 32.364071 132.439934 31.852472 132.226768 31.511406 C 132.365326 31.703256 132.759683 31.809839 132.876925 31.820497 C 132.450592 31.490089 132.759683 30.744007 132.077551 30.34965 C 132.301376 30.338992 132.738367 30.594791 132.855608 30.893224 C 132.759683 30.211092 132.6531 29.784759 132.08821 29.40106 C 132.15216 29.475668 132.471909 29.52896 132.599809 29.40106 C 132.248084 29.177236 132.141501 28.804195 132.173476 28.559054 C 132.216109 28.228646 131.992285 28.154038 131.565952 28.260621 C 131.192911 28.356546 130.31893 28.409837 129.807331 28.409837 C 128.752158 28.409837 127.835543 28.409837 126.97222 27.812972 C 128.272534 28.356546 129.945889 27.205448 129.945889 26.267516 C 129.945889 25.212344 128.656233 24.34902 126.034288 24.924569 C 123.423002 25.500118 120.236167 25.254977 120.236167 24.380995 C 120.236167 23.517672 122.517046 23.389772 123.68946 23.570964 C 124.861874 23.752155 125.703881 23.869396 127.899493 23.09134 C 127.355919 23.304506 125.618614 23.357797 124.233034 22.974098 C 122.847453 22.579741 119.45811 22.579741 119.426135 24.41297 C 119.39416 26.2462 123.039303 26.086325 126.183505 25.617359 C 128.016735 25.350902 128.986641 25.521435 128.986641 26.128958 C 128.986641 26.693849 127.302628 26.93899 126.002314 26.789774 C 124.712658 26.640557 123.391027 26.672532 121.85623 27.120181 C 120.577233 27.493222 119.692593 27.120181 118.285696 27.365323 C 117.592905 27.471906 115.940867 27.365323 115.120177 26.011717 C 114.608578 26.363441 113.095098 27.120181 112.839298 27.855605 C 112.476916 28.537737 112.722057 29.209211 113.201681 29.870026 C 113.809205 30.701374 112.903248 30.573474 112.253091 30.605449 C 111.368451 30.648083 110.185379 30.509525 109.567197 29.806076 C 109.012964 29.187894 108.288199 28.686953 107.701992 29.145261 C 107.403559 29.390402 107.691334 29.699493 107.925817 29.614226 C 108.160299 29.52896 108.437416 29.699493 108.693215 29.806076 C 108.288199 29.635543 107.851208 29.774101 107.680675 29.923317 C 107.435534 30.136484 107.723309 30.5415 108.011083 30.402941 C 108.234908 30.2857 108.703873 30.211092 109.002306 30.488208 C 108.671898 30.424258 108.341491 30.434916 108.181616 30.616108 C 108.011083 30.786641 108.138983 31.04244 108.490707 31.021124 C 109.055598 30.999807 109.194156 31.394164 109.759046 31.308898 C 109.41798 31.36219 109.215472 31.543381 109.130206 31.671281 C 109.652463 31.436798 110.23867 32.086955 110.920802 31.92708 C 110.654344 32.033663 110.217354 32.300121 110.228012 32.502629 C 110.633028 32.033663 113.350897 32.865012 113.414847 31.841814 C 113.489455 32.05498 113.468139 32.364071 113.265631 32.641187 C 113.606697 32.428021 114.736478 32.353413 115.077544 31.543381 C 115.109519 31.777864 115.066886 32.097613 114.853719 32.172221 C 115.216102 32.289463 115.685068 32.023005 116.17535 31.29824 C 116.3672 31.010465 116.409833 30.818616 116.377858 30.605449 C 116.86814 30.626766 117.209206 30.509525 117.592905 30.189775 C 117.976605 29.859368 118.402937 30.456233 119.063753 30.040559 C 119.724568 29.614226 120.300117 29.976609 120.651841 29.763443 C 121.014224 29.550277 121.515164 29.838051 121.898863 29.603568 C 122.293221 29.358427 122.900745 29.72081 123.550902 29.209211 C 124.563441 29.582251 125.757172 30.275042 128.666892 29.731468 C 130.340247 29.433035 130.862504 29.987267 130.862504 30.754666 C 130.862504 31.287581 130.553413 31.330215 130.31893 31.340873 C 129.391657 31.404823 128.997299 30.999807 128.624258 31.127707 C 128.379117 31.212973 128.229901 31.617989 128.581625 31.745889 C 128.293851 31.895105 128.325826 32.18288 128.475042 32.289463 C 128.624258 32.385388 129.018616 32.289463 129.274415 32.172221 C 128.944008 32.321438 128.592283 32.598554 128.794791 32.886328 C 128.912033 33.067519 129.221124 33.206078 129.508898 32.833037 C 129.786014 32.459996 130.31893 32.150905 130.649338 32.204196 Z M 130.649338 32.204196 " transform="matrix(0.366498,0,0,0.366498,-4.066315,5.501914)"/>
<path style="fill-rule:nonzero;fill:rgb(97.647059%,86.666667%,8.627451%);fill-opacity:1;stroke-width:0.125;stroke-linecap:butt;stroke-linejoin:miter;stroke:rgb(0%,0%,0%);stroke-opacity:1;stroke-miterlimit:4;" d="M 112.13585 24.263754 C 111.293843 23.922688 111.016727 23.91203 111.208577 24.594161 C 111.293843 24.892594 111.496351 25.29761 111.698859 25.48946 C 111.698859 25.201685 111.805442 24.41297 112.13585 24.263754 Z M 112.13585 24.263754 " transform="matrix(0.366498,0,0,0.366498,-4.066315,5.501914)"/>
<path style="fill-rule:nonzero;fill:rgb(97.647059%,86.666667%,8.627451%);fill-opacity:1;stroke-width:0.125;stroke-linecap:butt;stroke-linejoin:miter;stroke:rgb(0%,0%,0%);stroke-opacity:1;stroke-miterlimit:4;" d="M 114.768453 24.263754 C 115.610459 23.922688 115.898234 23.91203 115.706384 24.594161 C 115.621118 24.892594 115.41861 25.29761 115.216102 25.48946 C 115.205444 25.201685 115.09886 24.41297 114.768453 24.263754 Z M 114.768453 24.263754 " transform="matrix(0.366498,0,0,0.366498,-4.066315,5.501914)"/>
<path style="fill-rule:nonzero;fill:rgb(97.647059%,86.666667%,8.627451%);fill-opacity:1;stroke-width:0.125;stroke-linecap:butt;stroke-linejoin:miter;stroke:rgb(0%,0%,0%);stroke-opacity:1;stroke-miterlimit:4;" d="M 113.45748 23.805446 C 115.056227 23.805446 115.248077 24.551528 115.248077 25.478801 C 115.237419 26.491341 114.693845 26.139617 114.384754 27.439931 C 114.267512 27.940871 113.862496 27.972846 113.45748 27.972846 C 113.052465 27.972846 112.647449 27.940871 112.530207 27.439931 C 112.221116 26.139617 111.677542 26.491341 111.677542 25.478801 C 111.666884 24.551528 111.869392 23.805446 113.45748 23.805446 Z M 113.45748 23.805446 " transform="matrix(0.366498,0,0,0.366498,-4.066315,5.501914)"/>
<path style="fill-rule:nonzero;fill:rgb(97.647059%,86.666667%,8.627451%);fill-opacity:1;stroke-width:0.125;stroke-linecap:butt;stroke-linejoin:miter;stroke:rgb(0%,0%,0%);stroke-opacity:1;stroke-miterlimit:4;" d="M 109.364689 27.493222 C 108.949015 27.258739 108.693215 27.418614 108.522682 27.461247 C 109.055598 27.599805 109.076914 28.271279 110.281303 28.591028 C 110.004187 28.51642 109.854971 28.665637 109.599172 28.527079 C 110.100112 28.921436 110.654344 29.379744 111.826759 29.390402 C 112.476916 29.40106 112.029267 29.731468 111.602934 29.539618 C 112.039925 29.997926 112.924565 29.624885 113.478797 30.456233 C 113.58538 29.806076 112.444941 28.782878 112.967198 28.047455 C 111.347135 27.983505 111.208577 27.088206 110.281303 26.363441 C 109.513905 25.787892 109.449955 25.191027 109.108889 24.093221 C 108.959673 23.581622 108.373466 23.272531 108.043058 23.389772 C 107.765942 23.496355 107.659359 23.741497 107.9045 23.922688 C 108.149641 24.114537 108.458732 24.135854 108.522682 24.60482 C 108.213591 24.221121 107.733967 24.082563 107.510142 24.327704 C 107.371584 24.466262 107.424876 24.807328 107.723309 24.839303 C 108.213591 24.881936 107.861867 25.36156 108.416099 25.830526 C 107.925817 25.276293 107.499484 25.223002 107.233026 25.521435 C 107.073152 25.702626 107.233026 26.022375 107.574092 25.9904 C 108.064375 25.937109 108.629265 27.184131 109.364689 27.493222 Z M 109.364689 27.493222 " transform="matrix(0.366498,0,0,0.366498,-4.066315,5.501914)"/>
<path style="fill-rule:nonzero;fill:rgb(97.647059%,86.666667%,8.627451%);fill-opacity:1;stroke-width:0.125;stroke-linecap:butt;stroke-linejoin:miter;stroke:rgb(0%,0%,0%);stroke-opacity:1;stroke-miterlimit:4;" d="M 122.431779 32.140246 C 122.17598 32.18288 122.250588 32.609212 121.898863 32.630529 C 122.730212 32.630529 123.145886 32.438679 123.540244 32.11893 C 123.359052 32.225513 123.284444 32.502629 123.273786 32.651845 C 123.710777 32.278804 124.744633 32.246829 125.288207 32.353413 C 125.831781 32.459996 125.917047 32.204196 126.108897 31.852472 C 126.311405 31.511406 126.034288 31.308898 125.767831 31.04244 C 125.490715 30.775982 125.437423 30.392283 125.490715 29.763443 C 124.051842 27.844947 121.472531 28.77222 121.440556 29.614226 C 122.367829 30.701374 122.485071 30.573474 123.273786 30.722691 C 124.051842 30.871907 124.531467 30.871907 124.009209 31.308898 C 123.828018 31.458114 123.071278 31.394164 122.485071 31.415481 C 121.174098 31.479431 120.577233 30.509525 120.193534 31.010465 C 119.873784 31.426139 120.204192 31.607331 120.854349 31.586014 C 120.4067 31.586014 119.809834 31.564697 119.905759 31.980372 C 120.076292 32.68382 120.758424 31.852472 121.014224 32.140246 C 120.790399 32.086955 120.438675 32.225513 120.428016 32.438679 C 120.417358 32.651845 120.928957 32.928961 121.493848 32.481312 C 121.802939 32.236171 122.197296 32.140246 122.431779 32.140246 Z M 122.431779 32.140246 " transform="matrix(0.366498,0,0,0.366498,-4.066315,5.501914)"/>
<path style="fill:none;stroke-width:0.125;stroke-linecap:butt;stroke-linejoin:miter;stroke:rgb(0%,0%,0%);stroke-opacity:1;stroke-miterlimit:4;" d="M 123.550902 29.209211 C 123.081936 29.038678 122.655604 28.932094 122.101371 29.038678 " transform="matrix(0.366498,0,0,0.366498,-4.066315,5.501914)"/>
<path style="fill:none;stroke-width:0.125;stroke-linecap:butt;stroke-linejoin:miter;stroke:rgb(0%,0%,0%);stroke-opacity:1;stroke-miterlimit:4;" d="M 116.484441 28.985386 C 116.090083 29.816734 116.324566 30.22175 116.388516 30.605449 " transform="matrix(0.366498,0,0,0.366498,-4.066315,5.501914)"/>
<path style="fill:none;stroke-width:0.125;stroke-linecap:butt;stroke-linejoin:miter;stroke:rgb(0%,0%,0%);stroke-opacity:1;stroke-miterlimit:4;" d="M 112.370333 25.052469 C 112.63679 25.180369 112.786007 24.807328 113.169706 25.212344 C 113.063123 25.095102 112.935223 25.510776 112.63679 25.23366 " transform="matrix(0.366498,0,0,0.366498,-4.066315,5.501914)"/>
<path style="fill:none;stroke-width:0.125;stroke-linecap:butt;stroke-linejoin:miter;stroke:rgb(0%,0%,0%);stroke-opacity:1;stroke-miterlimit:4;" d="M 114.53397 25.052469 C 114.267512 25.180369 114.118296 24.807328 113.723938 25.212344 C 113.830521 25.095102 113.969079 25.510776 114.267512 25.23366 " transform="matrix(0.366498,0,0,0.366498,-4.066315,5.501914)"/>
<path style="fill:none;stroke-width:0.125;stroke-linecap:butt;stroke-linejoin:miter;stroke:rgb(0%,0%,0%);stroke-opacity:1;stroke-miterlimit:4;" d="M 113.734597 25.201685 C 113.638672 25.286952 113.628013 25.148394 113.702622 25.500118 C 113.830521 26.150275 113.979738 26.459366 113.446822 26.459366 C 112.913907 26.459366 113.073781 26.150275 113.201681 25.500118 C 113.276289 25.148394 113.265631 25.286952 113.169706 25.201685 " transform="matrix(0.366498,0,0,0.366498,-4.066315,5.501914)"/>
<path style="fill-rule:nonzero;fill:rgb(100%,0%,8.627451%);fill-opacity:1;stroke-width:0.0625;stroke-linecap:butt;stroke-linejoin:miter;stroke:rgb(0%,0%,0%);stroke-opacity:1;stroke-miterlimit:4;" d="M 113.45748 27.706389 C 113.883813 27.706389 114.139612 27.69573 114.065004 27.098865 C 114.043688 26.853724 114.363437 26.757799 114.246196 26.363441 C 114.374095 26.853724 113.45748 26.800432 113.45748 26.587266 C 113.45748 26.800432 112.551524 26.853724 112.668765 26.363441 C 112.562182 26.757799 112.881932 26.853724 112.849957 27.098865 C 112.786007 27.69573 113.031148 27.706389 113.45748 27.706389 Z M 113.45748 27.706389 " transform="matrix(0.366498,0,0,0.366498,-4.066315,5.501914)"/>
<path style="fill-rule:nonzero;fill:rgb(0%,0%,0%);fill-opacity:1;stroke-width:0.0625;stroke-linecap:butt;stroke-linejoin:miter;stroke:rgb(0%,0%,0%);stroke-opacity:1;stroke-miterlimit:4;" d="M 113.073781 26.491341 L 112.039925 26.203567 " transform="matrix(0.366498,0,0,0.366498,-4.066315,5.501914)"/>
<path style="fill-rule:nonzero;fill:rgb(0%,0%,0%);fill-opacity:1;stroke-width:0.0625;stroke-linecap:butt;stroke-linejoin:miter;stroke:rgb(0%,0%,0%);stroke-opacity:1;stroke-miterlimit:4;" d="M 113.073781 26.544633 L 111.922684 26.533974 " transform="matrix(0.366498,0,0,0.366498,-4.066315,5.501914)"/>
<path style="fill-rule:nonzero;fill:rgb(0%,0%,0%);fill-opacity:1;stroke-width:0.0625;stroke-linecap:butt;stroke-linejoin:miter;stroke:rgb(0%,0%,0%);stroke-opacity:1;stroke-miterlimit:4;" d="M 113.08444 26.597924 L 112.103875 26.864382 " transform="matrix(0.366498,0,0,0.366498,-4.066315,5.501914)"/>
<path style="fill-rule:nonzero;fill:rgb(0%,0%,0%);fill-opacity:1;stroke-width:0.0625;stroke-linecap:butt;stroke-linejoin:miter;stroke:rgb(0%,0%,0%);stroke-opacity:1;stroke-miterlimit:4;" d="M 113.84118 26.491341 L 114.864378 26.203567 " transform="matrix(0.366498,0,0,0.366498,-4.066315,5.501914)"/>
<path style="fill-rule:nonzero;fill:rgb(0%,0%,0%);fill-opacity:1;stroke-width:0.0625;stroke-linecap:butt;stroke-linejoin:miter;stroke:rgb(0%,0%,0%);stroke-opacity:1;stroke-miterlimit:4;" d="M 113.84118 26.544633 L 114.992277 26.533974 " transform="matrix(0.366498,0,0,0.366498,-4.066315,5.501914)"/>
<path style="fill-rule:nonzero;fill:rgb(0%,0%,0%);fill-opacity:1;stroke-width:0.0625;stroke-linecap:butt;stroke-linejoin:miter;stroke:rgb(0%,0%,0%);stroke-opacity:1;stroke-miterlimit:4;" d="M 113.830521 26.597924 L 114.811086 26.864382 " transform="matrix(0.366498,0,0,0.366498,-4.066315,5.501914)"/>
<path style="fill-rule:nonzero;fill:rgb(0%,31.764706%,72.941176%);fill-opacity:1;stroke-width:0.013;stroke-linecap:butt;stroke-linejoin:miter;stroke:rgb(0%,0%,0%);stroke-opacity:1;stroke-miterlimit:4;" d="M 108.128324 23.411089 C 107.829892 23.038048 107.08381 23.357797 107.062493 23.816105 C 107.318293 23.517672 107.733967 23.954663 107.957791 23.858738 C 108.117666 23.794788 108.256224 23.560305 108.128324 23.411089 Z M 108.128324 23.411089 " transform="matrix(0.366498,0,0,0.366498,-4.066315,5.501914)"/>
<path style="fill-rule:nonzero;fill:rgb(0%,31.764706%,72.941176%);fill-opacity:1;stroke-width:0.013;stroke-linecap:butt;stroke-linejoin:miter;stroke:rgb(0%,0%,0%);stroke-opacity:1;stroke-miterlimit:4;" d="M 107.755284 24.295729 C 107.446193 23.922688 106.700111 24.231779 106.689452 24.700745 C 106.945252 24.402312 107.350268 24.828644 107.574092 24.743378 C 107.733967 24.679428 107.872525 24.444945 107.755284 24.295729 Z M 107.755284 24.295729 " transform="matrix(0.366498,0,0,0.366498,-4.066315,5.501914)"/>
<path style="fill-rule:nonzero;fill:rgb(0%,31.764706%,72.941176%);fill-opacity:1;stroke-width:0.013;stroke-linecap:butt;stroke-linejoin:miter;stroke:rgb(0%,0%,0%);stroke-opacity:1;stroke-miterlimit:4;" d="M 107.552776 25.478801 C 107.21171 25.137735 106.508261 25.542751 106.540236 26.001059 C 106.753402 25.670651 107.21171 26.05435 107.424876 25.937109 C 107.574092 25.862501 107.691334 25.617359 107.552776 25.478801 Z M 107.552776 25.478801 " transform="matrix(0.366498,0,0,0.366498,-4.066315,5.501914)"/>
<path style="fill-rule:nonzero;fill:rgb(0%,31.764706%,72.941176%);fill-opacity:1;stroke-width:0.013;stroke-linecap:butt;stroke-linejoin:miter;stroke:rgb(0%,0%,0%);stroke-opacity:1;stroke-miterlimit:4;" d="M 107.915158 29.145261 C 107.531459 28.857486 106.881302 29.326452 106.966568 29.784759 C 107.14776 29.433035 107.6487 29.763443 107.84055 29.624885 C 107.979108 29.52896 108.064375 29.27316 107.915158 29.145261 Z M 107.915158 29.145261 " transform="matrix(0.366498,0,0,0.366498,-4.066315,5.501914)"/>
<path style="fill-rule:nonzero;fill:rgb(0%,31.764706%,72.941176%);fill-opacity:1;stroke-width:0.013;stroke-linecap:butt;stroke-linejoin:miter;stroke:rgb(0%,0%,0%);stroke-opacity:1;stroke-miterlimit:4;" d="M 107.893842 29.955292 C 107.446193 29.784759 106.966568 30.445575 107.190393 30.839932 C 107.243685 30.456233 107.829892 30.616108 107.96845 30.424258 C 108.075033 30.2857 108.075033 30.019242 107.893842 29.955292 Z M 107.893842 29.955292 " transform="matrix(0.366498,0,0,0.366498,-4.066315,5.501914)"/>
<path style="fill-rule:nonzero;fill:rgb(0%,31.764706%,72.941176%);fill-opacity:1;stroke-width:0.013;stroke-linecap:butt;stroke-linejoin:miter;stroke:rgb(0%,0%,0%);stroke-opacity:1;stroke-miterlimit:4;" d="M 108.458732 30.552158 C 108.011083 30.381625 107.531459 31.04244 107.755284 31.447456 C 107.819233 31.053099 108.394782 31.212973 108.543999 31.021124 C 108.639923 30.882566 108.639923 30.616108 108.458732 30.552158 Z M 108.458732 30.552158 " transform="matrix(0.366498,0,0,0.366498,-4.066315,5.501914)"/>
<path style="fill-rule:nonzero;fill:rgb(0%,31.764706%,72.941176%);fill-opacity:1;stroke-width:0.013;stroke-linecap:butt;stroke-linejoin:miter;stroke:rgb(0%,0%,0%);stroke-opacity:1;stroke-miterlimit:4;" d="M 120.204192 31.713914 C 119.756543 31.554039 119.276919 32.204196 119.500743 32.609212 C 119.564693 32.225513 120.140242 32.374729 120.2788 32.18288 C 120.385383 32.05498 120.385383 31.777864 120.204192 31.713914 Z M 120.204192 31.713914 " transform="matrix(0.366498,0,0,0.366498,-4.066315,5.501914)"/>
<path style="fill-rule:nonzero;fill:rgb(0%,31.764706%,72.941176%);fill-opacity:1;stroke-width:0.013;stroke-linecap:butt;stroke-linejoin:miter;stroke:rgb(0%,0%,0%);stroke-opacity:1;stroke-miterlimit:4;" d="M 120.811716 32.257488 C 120.34275 32.140246 119.948392 32.854353 120.21485 33.227394 C 120.236167 32.833037 120.822374 32.928961 120.950274 32.715795 C 121.03554 32.566579 121.003565 32.300121 120.811716 32.257488 Z M 120.811716 32.257488 " transform="matrix(0.366498,0,0,0.366498,-4.066315,5.501914)"/>
<path style="fill-rule:nonzero;fill:rgb(0%,31.764706%,72.941176%);fill-opacity:1;stroke-width:0.013;stroke-linecap:butt;stroke-linejoin:miter;stroke:rgb(0%,0%,0%);stroke-opacity:1;stroke-miterlimit:4;" d="M 120.374725 30.946515 C 119.969709 30.701374 119.383502 31.266265 119.532718 31.703256 C 119.660618 31.330215 120.204192 31.586014 120.385383 31.415481 C 120.502625 31.308898 120.545258 31.04244 120.374725 30.946515 Z M 120.374725 30.946515 " transform="matrix(0.366498,0,0,0.366498,-4.066315,5.501914)"/>
<path style="fill-rule:nonzero;fill:rgb(0%,31.764706%,72.941176%);fill-opacity:1;stroke-width:0.013;stroke-linecap:butt;stroke-linejoin:miter;stroke:rgb(0%,0%,0%);stroke-opacity:1;stroke-miterlimit:4;" d="M 128.730841 31.884447 C 128.261876 31.767205 127.867518 32.470654 128.133976 32.854353 C 128.155293 32.459996 128.7415 32.545262 128.869399 32.342754 C 128.954666 32.193538 128.922691 31.92708 128.730841 31.884447 Z M 128.730841 31.884447 " transform="matrix(0.366498,0,0,0.366498,-4.066315,5.501914)"/>
<path style="fill-rule:nonzero;fill:rgb(0%,31.764706%,72.941176%);fill-opacity:1;stroke-width:0.013;stroke-linecap:butt;stroke-linejoin:miter;stroke:rgb(0%,0%,0%);stroke-opacity:1;stroke-miterlimit:4;" d="M 128.752158 31.149023 C 128.325826 30.925199 127.760935 31.500748 127.931468 31.937738 C 128.048709 31.564697 128.592283 31.79918 128.762816 31.617989 C 128.890716 31.500748 128.922691 31.23429 128.752158 31.149023 Z M 128.752158 31.149023 " transform="matrix(0.366498,0,0,0.366498,-4.066315,5.501914)"/>
<path style="fill-rule:nonzero;fill:rgb(0%,31.764706%,72.941176%);fill-opacity:1;stroke-width:0.013;stroke-linecap:butt;stroke-linejoin:miter;stroke:rgb(0%,0%,0%);stroke-opacity:1;stroke-miterlimit:4;" d="M 129.071907 32.545262 C 128.602942 32.449337 128.229901 33.174103 128.517675 33.536485 C 128.517675 33.142128 129.114541 33.206078 129.221124 32.992911 C 129.30639 32.843695 129.263757 32.577237 129.071907 32.545262 Z M 129.071907 32.545262 " transform="matrix(0.366498,0,0,0.366498,-4.066315,5.501914)"/>
<path style="fill-rule:nonzero;fill:rgb(0%,31.764706%,72.941176%);fill-opacity:1;stroke-width:0.013;stroke-linecap:butt;stroke-linejoin:miter;stroke:rgb(0%,0%,0%);stroke-opacity:1;stroke-miterlimit:4;" d="M 113.489455 27.344006 C 113.787888 27.344006 113.90513 27.429272 113.90513 27.962188 C 113.90513 29.091969 113.894471 29.571593 113.532089 29.571593 C 113.169706 29.571593 113.191023 29.113286 113.191023 28.281937 C 113.191023 27.855605 113.191023 27.642439 113.105756 27.674414 C 113.105756 27.397298 113.222998 27.344006 113.489455 27.344006 Z M 113.489455 27.344006 " transform="matrix(0.366498,0,0,0.366498,-4.066315,5.501914)"/>
<path style="fill-rule:nonzero;fill:rgb(97.647059%,86.666667%,8.627451%);fill-opacity:1;stroke-width:0.125;stroke-linecap:butt;stroke-linejoin:miter;stroke:rgb(0%,0%,0%);stroke-opacity:1;stroke-miterlimit:4;" d="M 130.654211 32.203661 C 130.339234 32.280401 130.339234 32.67689 130.167428 32.67689 C 130.983505 32.6641 131.384385 32.433881 131.642093 32.024602 C 131.45597 32.190871 131.613459 32.497831 131.55619 32.574571 C 132.15751 32.369931 132.443853 31.858332 132.229096 31.513003 C 132.35795 31.704852 132.75883 31.807172 132.873367 31.819962 C 132.45817 31.487423 132.75883 30.745604 132.071607 30.349115 C 132.300681 30.336325 132.744513 30.592125 132.85905 30.886294 C 132.75883 30.221215 132.644293 29.786356 132.085924 29.402657 C 132.15751 29.466607 132.472487 29.530557 132.601341 29.402657 C 132.243413 29.185227 132.143193 28.801528 132.171827 28.558519 C 132.214779 28.225979 131.985704 28.16203 131.570507 28.264349 C 131.183945 28.353879 130.324917 28.417829 129.8095 28.417829 C 128.750032 28.417829 127.833735 28.417829 126.974707 27.8167 C 128.277566 28.353879 129.938354 27.215571 129.938354 26.269113 C 129.938354 25.207545 128.649812 24.350617 126.029776 24.926166 C 123.424057 25.501715 120.231336 25.258705 120.231336 24.388987 C 120.231336 23.506479 122.522078 23.391369 123.696083 23.570429 C 124.870088 23.749488 125.700482 23.877388 127.905321 23.0972 C 127.36127 23.301839 125.614579 23.365789 124.240134 22.9693 C 122.851372 22.585601 119.458211 22.585601 119.429577 24.414567 C 119.386625 26.243533 123.037495 26.077264 126.187265 25.616825 C 128.019858 25.348235 128.979106 25.527295 128.979106 26.128424 C 128.979106 26.703972 127.304001 26.934192 126.001142 26.793502 C 124.7126 26.640023 123.395423 26.665603 121.86349 27.126042 C 120.574947 27.496951 119.687285 27.126042 118.284206 27.356261 C 117.596983 27.471371 115.936196 27.356261 115.120119 26.013314 C 114.619019 26.371433 113.101403 27.126042 112.843694 27.85507 C 112.485766 28.532939 112.71484 29.210807 113.201623 29.875886 C 113.802942 30.707234 112.900963 30.579335 112.256692 30.604915 C 111.369029 30.643285 110.180707 30.515385 109.56507 29.811936 C 109.021019 29.185227 108.290845 28.686418 107.703843 29.146858 C 107.403183 29.389867 107.689526 29.696826 107.932917 29.607297 C 108.161991 29.530557 108.434017 29.696826 108.691725 29.811936 C 108.290845 29.632877 107.847014 29.773566 107.675208 29.927046 C 107.446134 30.131686 107.732477 30.540965 108.01882 30.400275 C 108.233577 30.285165 108.706042 30.208425 109.006702 30.489805 C 108.677408 30.425855 108.333797 30.438645 108.176308 30.617705 C 108.01882 30.783974 108.133357 31.039774 108.491285 31.026984 C 109.049653 31.001404 109.192825 31.397893 109.76551 31.308363 C 109.407582 31.359523 109.221459 31.538583 109.121239 31.679272 C 109.650973 31.436263 110.237976 32.075762 110.910881 31.935072 C 110.653173 32.037392 110.223659 32.305981 110.223659 32.497831 C 110.624538 32.037392 113.344794 32.85595 113.41638 31.845542 C 113.487965 32.050182 113.473648 32.369931 113.258891 32.638521 C 113.602503 32.421091 114.733556 32.344351 115.077167 31.538583 C 115.105802 31.781592 115.06285 32.088552 114.848093 32.165291 C 115.220339 32.293191 115.692804 32.024602 116.179587 31.295573 C 116.36571 31.014194 116.408661 30.822344 116.380027 30.604915 C 116.866809 30.630495 117.210421 30.502595 117.582666 30.182845 C 117.983546 29.850306 118.398743 30.451435 119.057331 30.029366 C 119.730236 29.620087 120.288605 29.978206 120.66085 29.760776 C 121.018779 29.556137 121.505561 29.837516 121.906441 29.594507 C 122.293004 29.364287 122.894323 29.722406 123.552912 29.210807 C 124.569428 29.581717 125.75775 30.272375 128.664129 29.735196 C 130.339234 29.428237 130.854651 29.990996 130.854651 30.758394 C 130.854651 31.282783 130.553991 31.333943 130.324917 31.346733 C 129.394303 31.397893 128.993423 31.001404 128.621178 31.129304 C 128.377786 31.218833 128.234615 31.615323 128.578226 31.756012 C 128.291883 31.896702 128.334835 32.178081 128.478006 32.280401 C 128.635495 32.382721 129.022057 32.293191 129.279766 32.178081 C 128.936155 32.331561 128.592543 32.600151 128.792983 32.88153 C 128.90752 33.06059 129.222497 33.214069 129.50884 32.84316 C 129.795183 32.459461 130.3106 32.152502 130.654211 32.203661 Z M 130.654211 32.203661 " transform="matrix(0.272837,0,0,0.305415,7.172957,11.12155)"/>
<path style="fill-rule:nonzero;fill:rgb(97.647059%,86.666667%,8.627451%);fill-opacity:1;stroke-width:0.125;stroke-linecap:butt;stroke-linejoin:miter;stroke:rgb(0%,0%,0%);stroke-opacity:1;stroke-miterlimit:4;" d="M 112.142155 24.261087 C 111.297444 23.915758 111.011101 23.902968 111.211541 24.593627 C 111.297444 24.887796 111.497884 25.297075 111.698323 25.488925 C 111.698323 25.207545 111.812861 24.414567 112.142155 24.261087 Z M 112.142155 24.261087 " transform="matrix(0.272837,0,0,0.305415,7.172957,11.12155)"/>
<path style="fill-rule:nonzero;fill:rgb(97.647059%,86.666667%,8.627451%);fill-opacity:1;stroke-width:0.125;stroke-linecap:butt;stroke-linejoin:miter;stroke:rgb(0%,0%,0%);stroke-opacity:1;stroke-miterlimit:4;" d="M 114.776508 24.261087 C 115.606901 23.915758 115.893244 23.902968 115.707121 24.593627 C 115.621219 24.887796 115.420779 25.297075 115.206022 25.488925 C 115.206022 25.207545 115.105802 24.414567 114.776508 24.261087 Z M 114.776508 24.261087 " transform="matrix(0.272837,0,0,0.305415,7.172957,11.12155)"/>
<path style="fill-rule:nonzero;fill:rgb(97.647059%,86.666667%,8.627451%);fill-opacity:1;stroke-width:0.125;stroke-linecap:butt;stroke-linejoin:miter;stroke:rgb(0%,0%,0%);stroke-opacity:1;stroke-miterlimit:4;" d="M 113.459331 23.800648 C 115.048533 23.800648 115.248973 24.555257 115.248973 25.476135 C 115.234656 26.486543 114.690605 26.141214 114.389945 27.433001 C 114.261091 27.9446 113.860211 27.97018 113.459331 27.97018 C 113.058451 27.97018 112.657572 27.9446 112.528717 27.433001 C 112.228058 26.141214 111.684006 26.486543 111.669689 25.476135 C 111.669689 24.555257 111.870129 23.800648 113.459331 23.800648 Z M 113.459331 23.800648 " transform="matrix(0.272837,0,0,0.305415,7.172957,11.12155)"/>
<path style="fill-rule:nonzero;fill:rgb(97.647059%,86.666667%,8.627451%);fill-opacity:1;stroke-width:0.125;stroke-linecap:butt;stroke-linejoin:miter;stroke:rgb(0%,0%,0%);stroke-opacity:1;stroke-miterlimit:4;" d="M 109.36463 27.496951 C 108.949433 27.253941 108.691725 27.420211 108.519919 27.471371 C 109.049653 27.599271 109.078288 28.277139 110.280927 28.596889 C 110.008902 28.520149 109.851413 28.673629 109.593705 28.532939 C 110.094804 28.916638 110.653173 29.377077 111.827178 29.389867 C 112.485766 29.402657 112.027618 29.735196 111.598104 29.543347 C 112.041935 30.003786 112.91528 29.620087 113.473648 30.451435 C 113.588185 29.811936 112.442815 28.788738 112.972549 28.04692 C 111.340395 27.98297 111.211541 27.087672 110.280927 26.371433 C 109.522119 25.783094 109.450533 25.194755 109.106922 24.082028 C 108.963751 23.583219 108.376748 23.276259 108.047454 23.391369 C 107.761111 23.493689 107.660891 23.749488 107.904283 23.928548 C 108.147674 24.107608 108.462651 24.133188 108.519919 24.606417 C 108.204942 24.222717 107.732477 24.082028 107.503403 24.325037 C 107.360231 24.465727 107.4175 24.811056 107.71816 24.836636 C 108.204942 24.887796 107.861331 25.361025 108.419699 25.821464 C 107.9186 25.271495 107.503403 25.220335 107.231377 25.527295 C 107.073889 25.706354 107.231377 26.026104 107.574988 25.987734 C 108.061771 25.936574 108.634457 27.177202 109.36463 27.496951 Z M 109.36463 27.496951 " transform="matrix(0.272837,0,0,0.305415,7.172957,11.12155)"/>
<path style="fill-rule:nonzero;fill:rgb(97.647059%,86.666667%,8.627451%);fill-opacity:1;stroke-width:0.125;stroke-linecap:butt;stroke-linejoin:miter;stroke:rgb(0%,0%,0%);stroke-opacity:1;stroke-miterlimit:4;" d="M 122.436175 32.139712 C 122.178467 32.178081 122.250052 32.600151 121.906441 32.638521 C 122.736835 32.638521 123.152032 32.433881 123.538594 32.126922 C 123.366789 32.229241 123.280886 32.497831 123.266569 32.651311 C 123.7104 32.280401 124.741234 32.242031 125.285285 32.344351 C 125.829336 32.459461 125.915239 32.203661 126.115679 31.858332 C 126.301802 31.513003 126.044093 31.308363 125.772068 31.039774 C 125.500042 30.771184 125.442773 30.400275 125.500042 29.760776 C 124.054011 27.84228 121.46261 28.775948 121.433976 29.620087 C 122.364589 30.694444 122.493444 30.579335 123.266569 30.720024 C 124.054011 30.873504 124.526477 30.873504 124.01106 31.308363 C 123.824937 31.461843 123.080446 31.397893 122.493444 31.423473 C 121.176267 31.474633 120.574947 30.515385 120.188385 31.014194 C 119.873408 31.423473 120.202702 31.602533 120.846973 31.576953 C 120.403142 31.589743 119.801822 31.564163 119.902042 31.986232 C 120.073848 32.68968 120.76107 31.845542 121.018779 32.139712 C 120.789704 32.088552 120.446093 32.229241 120.431776 32.433881 C 120.417459 32.651311 120.932876 32.9199 121.491244 32.472251 C 121.806221 32.229241 122.192784 32.139712 122.436175 32.139712 Z M 122.436175 32.139712 " transform="matrix(0.272837,0,0,0.305415,7.172957,11.12155)"/>
<path style="fill:none;stroke-width:0.125;stroke-linecap:butt;stroke-linejoin:miter;stroke:rgb(0%,0%,0%);stroke-opacity:1;stroke-miterlimit:4;" d="M 123.552912 29.210807 C 123.080446 29.031748 122.650932 28.929428 122.106881 29.044538 " transform="matrix(0.272837,0,0,0.305415,7.172957,11.12155)"/>
<path style="fill:none;stroke-width:0.125;stroke-linecap:butt;stroke-linejoin:miter;stroke:rgb(0%,0%,0%);stroke-opacity:1;stroke-miterlimit:4;" d="M 116.480247 28.980588 C 116.093684 29.811936 116.322758 30.221215 116.380027 30.604915 " transform="matrix(0.272837,0,0,0.305415,7.172957,11.12155)"/>
<path style="fill:none;stroke-width:0.125;stroke-linecap:butt;stroke-linejoin:miter;stroke:rgb(0%,0%,0%);stroke-opacity:1;stroke-miterlimit:4;" d="M 112.371229 25.054066 C 112.628937 25.181966 112.786426 24.811056 113.172988 25.207545 C 113.072768 25.092436 112.929597 25.514505 112.628937 25.233125 " transform="matrix(0.272837,0,0,0.305415,7.172957,11.12155)"/>
<path style="fill:none;stroke-width:0.125;stroke-linecap:butt;stroke-linejoin:miter;stroke:rgb(0%,0%,0%);stroke-opacity:1;stroke-miterlimit:4;" d="M 114.533116 25.054066 C 114.261091 25.181966 114.117919 24.811056 113.731357 25.207545 C 113.831577 25.092436 113.960431 25.514505 114.261091 25.233125 " transform="matrix(0.272837,0,0,0.305415,7.172957,11.12155)"/>
<path style="fill:none;stroke-width:0.125;stroke-linecap:butt;stroke-linejoin:miter;stroke:rgb(0%,0%,0%);stroke-opacity:1;stroke-miterlimit:4;" d="M 113.731357 25.207545 C 113.645454 25.284285 113.631137 25.143596 113.702722 25.501715 C 113.831577 26.154004 113.974748 26.460963 113.445014 26.460963 C 112.91528 26.460963 113.072768 26.154004 113.201623 25.501715 C 113.273208 25.143596 113.258891 25.284285 113.172988 25.207545 " transform="matrix(0.272837,0,0,0.305415,7.172957,11.12155)"/>
<path style="fill-rule:nonzero;fill:rgb(100%,0%,8.627451%);fill-opacity:1;stroke-width:0.0625;stroke-linecap:butt;stroke-linejoin:miter;stroke:rgb(0%,0%,0%);stroke-opacity:1;stroke-miterlimit:4;" d="M 113.459331 27.70159 C 113.888845 27.70159 114.132237 27.70159 114.074968 27.100462 C 114.046334 26.857452 114.361311 26.755132 114.246774 26.371433 C 114.375628 26.844662 113.459331 26.806292 113.459331 26.588863 C 113.459331 26.806292 112.557352 26.844662 112.671889 26.371433 C 112.557352 26.755132 112.872329 26.857452 112.858011 27.100462 C 112.786426 27.70159 113.029817 27.70159 113.459331 27.70159 Z M 113.459331 27.70159 " transform="matrix(0.272837,0,0,0.305415,7.172957,11.12155)"/>
<path style="fill-rule:nonzero;fill:rgb(0%,0%,0%);fill-opacity:1;stroke-width:0.0625;stroke-linecap:butt;stroke-linejoin:miter;stroke:rgb(0%,0%,0%);stroke-opacity:1;stroke-miterlimit:4;" d="M 113.072768 26.486543 L 112.041935 26.205163 " transform="matrix(0.272837,0,0,0.305415,7.172957,11.12155)"/>
<path style="fill:none;stroke-width:0.0625;stroke-linecap:butt;stroke-linejoin:miter;stroke:rgb(0%,0%,0%);stroke-opacity:1;stroke-miterlimit:4;" d="M 113.072768 26.537703 L 111.927398 26.537703 " transform="matrix(0.272837,0,0,0.305415,7.172957,11.12155)"/>
<path style="fill-rule:nonzero;fill:rgb(0%,0%,0%);fill-opacity:1;stroke-width:0.0625;stroke-linecap:butt;stroke-linejoin:miter;stroke:rgb(0%,0%,0%);stroke-opacity:1;stroke-miterlimit:4;" d="M 113.087086 26.601653 L 112.099203 26.870242 " transform="matrix(0.272837,0,0,0.305415,7.172957,11.12155)"/>
<path style="fill-rule:nonzero;fill:rgb(0%,0%,0%);fill-opacity:1;stroke-width:0.0625;stroke-linecap:butt;stroke-linejoin:miter;stroke:rgb(0%,0%,0%);stroke-opacity:1;stroke-miterlimit:4;" d="M 113.845894 26.486543 L 114.86241 26.205163 " transform="matrix(0.272837,0,0,0.305415,7.172957,11.12155)"/>
<path style="fill:none;stroke-width:0.0625;stroke-linecap:butt;stroke-linejoin:miter;stroke:rgb(0%,0%,0%);stroke-opacity:1;stroke-miterlimit:4;" d="M 113.845894 26.537703 L 114.991265 26.537703 " transform="matrix(0.272837,0,0,0.305415,7.172957,11.12155)"/>
<path style="fill-rule:nonzero;fill:rgb(0%,0%,0%);fill-opacity:1;stroke-width:0.0625;stroke-linecap:butt;stroke-linejoin:miter;stroke:rgb(0%,0%,0%);stroke-opacity:1;stroke-miterlimit:4;" d="M 113.831577 26.601653 L 114.805142 26.870242 " transform="matrix(0.272837,0,0,0.305415,7.172957,11.12155)"/>
<path style="fill-rule:nonzero;fill:rgb(0%,31.764706%,72.941176%);fill-opacity:1;stroke-width:0.013;stroke-linecap:butt;stroke-linejoin:miter;stroke:rgb(0%,0%,0%);stroke-opacity:1;stroke-miterlimit:4;" d="M 108.133357 23.416949 C 107.832697 23.04604 107.088206 23.352999 107.073889 23.813438 C 107.31728 23.519269 107.732477 23.954128 107.961551 23.864598 C 108.11904 23.800648 108.247894 23.570429 108.133357 23.416949 Z M 108.133357 23.416949 " transform="matrix(0.272837,0,0,0.305415,7.172957,11.12155)"/>
<path style="fill-rule:nonzero;fill:rgb(0%,31.764706%,72.941176%);fill-opacity:1;stroke-width:0.013;stroke-linecap:butt;stroke-linejoin:miter;stroke:rgb(0%,0%,0%);stroke-opacity:1;stroke-miterlimit:4;" d="M 107.746794 24.299457 C 107.446134 23.928548 106.701643 24.235507 106.687326 24.695946 C 106.945035 24.401777 107.345914 24.836636 107.574988 24.734316 C 107.732477 24.683157 107.875648 24.440147 107.746794 24.299457 Z M 107.746794 24.299457 " transform="matrix(0.272837,0,0,0.305415,7.172957,11.12155)"/>
<path style="fill-rule:nonzero;fill:rgb(0%,31.764706%,72.941176%);fill-opacity:1;stroke-width:0.013;stroke-linecap:butt;stroke-linejoin:miter;stroke:rgb(0%,0%,0%);stroke-opacity:1;stroke-miterlimit:4;" d="M 107.546354 25.476135 C 107.21706 25.143596 106.501203 25.540085 106.544155 26.000524 C 106.758912 25.667985 107.21706 26.051684 107.431817 25.936574 C 107.574988 25.859834 107.689526 25.616825 107.546354 25.476135 Z M 107.546354 25.476135 " transform="matrix(0.272837,0,0,0.305415,7.172957,11.12155)"/>
<path style="fill-rule:nonzero;fill:rgb(0%,31.764706%,72.941176%);fill-opacity:1;stroke-width:0.013;stroke-linecap:butt;stroke-linejoin:miter;stroke:rgb(0%,0%,0%);stroke-opacity:1;stroke-miterlimit:4;" d="M 107.904283 29.146858 C 107.532037 28.852688 106.873449 29.325917 106.959352 29.786356 C 107.145474 29.428237 107.646574 29.760776 107.847014 29.620087 C 107.975868 29.517767 108.061771 29.261967 107.904283 29.146858 Z M 107.904283 29.146858 " transform="matrix(0.272837,0,0,0.305415,7.172957,11.12155)"/>
<path style="fill-rule:nonzero;fill:rgb(0%,31.764706%,72.941176%);fill-opacity:1;stroke-width:0.013;stroke-linecap:butt;stroke-linejoin:miter;stroke:rgb(0%,0%,0%);stroke-opacity:1;stroke-miterlimit:4;" d="M 107.889965 29.952626 C 107.446134 29.786356 106.959352 30.438645 107.188426 30.847924 C 107.245694 30.451435 107.81838 30.617705 107.975868 30.425855 C 108.076088 30.285165 108.076088 30.016576 107.889965 29.952626 Z M 107.889965 29.952626 " transform="matrix(0.272837,0,0,0.305415,7.172957,11.12155)"/>
<path style="fill-rule:nonzero;fill:rgb(0%,31.764706%,72.941176%);fill-opacity:1;stroke-width:0.013;stroke-linecap:butt;stroke-linejoin:miter;stroke:rgb(0%,0%,0%);stroke-opacity:1;stroke-miterlimit:4;" d="M 108.462651 30.553755 C 108.01882 30.387485 107.532037 31.039774 107.761111 31.449053 C 107.81838 31.052564 108.391065 31.218833 108.548554 31.026984 C 108.648774 30.886294 108.648774 30.617705 108.462651 30.553755 Z M 108.462651 30.553755 " transform="matrix(0.272837,0,0,0.305415,7.172957,11.12155)"/>
<path style="fill-rule:nonzero;fill:rgb(0%,31.764706%,72.941176%);fill-opacity:1;stroke-width:0.013;stroke-linecap:butt;stroke-linejoin:miter;stroke:rgb(0%,0%,0%);stroke-opacity:1;stroke-miterlimit:4;" d="M 120.202702 31.717642 C 119.758871 31.551373 119.272088 32.203661 119.501162 32.612941 C 119.558431 32.216451 120.131116 32.382721 120.288605 32.178081 C 120.388825 32.050182 120.388825 31.781592 120.202702 31.717642 Z M 120.202702 31.717642 " transform="matrix(0.272837,0,0,0.305415,7.172957,11.12155)"/>
<path style="fill-rule:nonzero;fill:rgb(0%,31.764706%,72.941176%);fill-opacity:1;stroke-width:0.013;stroke-linecap:butt;stroke-linejoin:miter;stroke:rgb(0%,0%,0%);stroke-opacity:1;stroke-miterlimit:4;" d="M 120.804022 32.254821 C 120.345873 32.139712 119.944993 32.85595 120.217019 33.226859 C 120.231336 32.83037 120.818339 32.9199 120.947193 32.71526 C 121.033096 32.574571 121.004462 32.305981 120.804022 32.254821 Z M 120.804022 32.254821 " transform="matrix(0.272837,0,0,0.305415,7.172957,11.12155)"/>
<path style="fill-rule:nonzero;fill:rgb(0%,31.764706%,72.941176%);fill-opacity:1;stroke-width:0.013;stroke-linecap:butt;stroke-linejoin:miter;stroke:rgb(0%,0%,0%);stroke-opacity:1;stroke-miterlimit:4;" d="M 120.374508 30.937454 C 119.959311 30.707234 119.386625 31.269993 119.529797 31.704852 C 119.658651 31.333943 120.202702 31.589743 120.374508 31.423473 C 120.503362 31.308363 120.546313 31.039774 120.374508 30.937454 Z M 120.374508 30.937454 " transform="matrix(0.272837,0,0,0.305415,7.172957,11.12155)"/>
<path style="fill-rule:nonzero;fill:rgb(0%,31.764706%,72.941176%);fill-opacity:1;stroke-width:0.013;stroke-linecap:butt;stroke-linejoin:miter;stroke:rgb(0%,0%,0%);stroke-opacity:1;stroke-miterlimit:4;" d="M 128.735715 31.883912 C 128.263249 31.768802 127.862369 32.472251 128.134395 32.85595 C 128.148712 32.459461 128.735715 32.548991 128.864569 32.344351 C 128.950472 32.190871 128.921837 31.935072 128.735715 31.883912 Z M 128.735715 31.883912 " transform="matrix(0.272837,0,0,0.305415,7.172957,11.12155)"/>
<path style="fill-rule:nonzero;fill:rgb(0%,31.764706%,72.941176%);fill-opacity:1;stroke-width:0.013;stroke-linecap:butt;stroke-linejoin:miter;stroke:rgb(0%,0%,0%);stroke-opacity:1;stroke-miterlimit:4;" d="M 128.750032 31.142094 C 128.334835 30.924664 127.762149 31.500213 127.933955 31.935072 C 128.048492 31.564163 128.592543 31.794382 128.764349 31.628113 C 128.893203 31.500213 128.921837 31.231623 128.750032 31.142094 Z M 128.750032 31.142094 " transform="matrix(0.272837,0,0,0.305415,7.172957,11.12155)"/>
<path style="fill-rule:nonzero;fill:rgb(0%,31.764706%,72.941176%);fill-opacity:1;stroke-width:0.013;stroke-linecap:butt;stroke-linejoin:miter;stroke:rgb(0%,0%,0%);stroke-opacity:1;stroke-miterlimit:4;" d="M 129.065009 32.536201 C 128.60686 32.446671 128.234615 33.175699 128.520958 33.533819 C 128.520958 33.13733 129.10796 33.214069 129.222497 32.99664 C 129.3084 32.84316 129.265449 32.574571 129.065009 32.536201 Z M 129.065009 32.536201 " transform="matrix(0.272837,0,0,0.305415,7.172957,11.12155)"/>
<path style="fill-rule:nonzero;fill:rgb(0%,31.764706%,72.941176%);fill-opacity:1;stroke-width:0.013;stroke-linecap:butt;stroke-linejoin:miter;stroke:rgb(0%,0%,0%);stroke-opacity:1;stroke-miterlimit:4;" d="M 113.487965 27.343471 C 113.788625 27.343471 113.903162 27.433001 113.903162 27.95739 C 113.903162 29.082908 113.888845 29.568927 113.530917 29.568927 C 113.158671 29.568927 113.187306 29.108488 113.187306 28.289929 C 113.187306 27.85507 113.187306 27.637641 113.101403 27.676011 C 113.101403 27.394631 113.230257 27.343471 113.487965 27.343471 Z M 113.487965 27.343471 " transform="matrix(0.272837,0,0,0.305415,7.172957,11.12155)"/>
</g>
</svg>
