<?xml version="1.0" encoding="UTF-8"?>
<svg xmlns="http://www.w3.org/2000/svg" xmlns:xlink="http://www.w3.org/1999/xlink" width="80pt" height="60pt" viewBox="0 0 80 60" version="1.1">
<g id="surface1">
<path style=" stroke:none;fill-rule:evenodd;fill:rgb(100%,100%,100%);fill-opacity:1;" d="M -3.703125 0.378906 L 83.929688 0.378906 L 83.929688 59.867188 L -3.703125 59.867188 Z M -3.703125 0.378906 "/>
<path style=" stroke:none;fill-rule:evenodd;fill:rgb(0%,53.72549%,0%);fill-opacity:1;" d="M -3.703125 42.839844 L 83.929688 42.839844 L 83.929688 60 L -3.703125 60 Z M -3.703125 42.839844 "/>
<path style=" stroke:none;fill-rule:evenodd;fill:rgb(76.078431%,21.568627%,26.27451%);fill-opacity:1;" d="M -3.929688 21.886719 L 83.699219 21.886719 L 83.699219 39.046875 L -3.929688 39.046875 Z M -3.929688 21.886719 "/>
<path style=" stroke:none;fill-rule:evenodd;fill:rgb(0%,0%,0%);fill-opacity:1;" d="M -3.703125 0 L 83.929688 0 L 83.929688 18.683594 L -3.703125 18.683594 Z M -3.703125 0 "/>
<path style="fill-rule:evenodd;fill:rgb(100%,100%,100%);fill-opacity:1;stroke-width:1.0805;stroke-linecap:butt;stroke-linejoin:miter;stroke:rgb(0%,0%,0%);stroke-opacity:1;stroke-miterlimit:4;" d="M 158.639479 436.290794 C 196.595352 365.633963 323.817812 131.639694 322.579393 130.970278 C 301.760563 118.753441 339.415198 99.976329 367.028597 55.995716 C 347.347775 103.289937 349.422964 147.404434 329.206608 134.685535 C 295.601939 198.146147 191.708617 392.075885 165.869169 440.006052 C 163.124565 438.533337 162.321266 437.930863 158.639479 436.290794 Z M 158.639479 436.290794 " transform="matrix(0.116706,0,0,0.116706,9.84125,0.2462)"/>
<path style="fill-rule:evenodd;fill:rgb(100%,100%,100%);fill-opacity:1;stroke-width:1.0805;stroke-linecap:butt;stroke-linejoin:miter;stroke:rgb(0%,0%,0%);stroke-opacity:1;stroke-miterlimit:4;" d="M 349.021314 439.035399 C 311.065442 368.412039 183.809511 134.417769 185.04793 133.714882 C 205.866759 121.531516 168.245595 102.754405 140.598725 58.773791 C 160.279548 106.034542 158.204359 150.18251 178.420714 137.463611 C 212.025384 200.924222 315.952177 394.85396 341.791624 442.750656 C 344.502758 441.311412 345.306057 440.708938 349.021314 439.068869 Z M 349.021314 439.035399 " transform="matrix(0.116706,0,0,0.116706,9.84125,0.2462)"/>
<path style="fill-rule:evenodd;fill:rgb(76.078431%,21.568627%,26.27451%);fill-opacity:1;stroke-width:1.1357;stroke-linecap:butt;stroke-linejoin:miter;stroke:rgb(0%,0%,0%);stroke-opacity:1;stroke-miterlimit:4;" d="M 252.525036 85.450008 C 372.116157 169.729449 370.174851 373.633481 252.525036 444.1899 C 142.740856 369.717399 127.076528 167.788143 252.525036 85.450008 Z M 252.525036 85.450008 " transform="matrix(0.116706,0,0,0.116706,9.84125,0.2462)"/>
<path style=" stroke:none;fill-rule:evenodd;fill:rgb(100%,100%,98.431373%);fill-opacity:1;" d="M 41.144531 30.695312 C 41.144531 32.148438 40.375 33.328125 39.429688 33.328125 C 38.480469 33.328125 37.714844 32.148438 37.714844 30.695312 C 37.714844 29.242188 38.480469 28.066406 39.429688 28.066406 C 40.375 28.066406 41.144531 29.242188 41.144531 30.695312 Z M 41.144531 30.695312 "/>
<path style="fill-rule:evenodd;fill:rgb(100%,100%,100%);fill-opacity:1;stroke-width:0.3741;stroke-linecap:butt;stroke-linejoin:miter;stroke:rgb(0%,0%,0%);stroke-opacity:1;stroke-miterlimit:4;" d="M 251.788679 93.282172 C 285.393349 125.815777 284.857816 204.505596 251.788679 231.750817 C 220.895143 202.999411 216.51047 125.045949 251.788679 93.282172 Z M 251.788679 93.282172 " transform="matrix(0.116706,0,0,0.116706,9.84125,0.2462)"/>
<path style="fill-rule:evenodd;fill:rgb(100%,100%,100%);fill-opacity:1;stroke-width:0.3741;stroke-linecap:butt;stroke-linejoin:miter;stroke:rgb(0%,0%,0%);stroke-opacity:1;stroke-miterlimit:4;" d="M 251.788679 297.186205 C 285.393349 329.719809 284.857816 408.376158 251.788679 435.621378 C 220.895143 406.869973 216.51047 328.949981 251.788679 297.186205 Z M 251.788679 297.186205 " transform="matrix(0.116706,0,0,0.116706,9.84125,0.2462)"/>
<path style=" stroke:none;fill-rule:evenodd;fill:rgb(76.078431%,21.568627%,26.27451%);fill-opacity:1;" d="M 38.398438 11.132812 L 40 11.132812 L 40 27.605469 L 38.398438 27.605469 Z M 38.398438 11.132812 "/>
<path style=" stroke:none;fill-rule:evenodd;fill:rgb(76.078431%,21.568627%,26.27451%);fill-opacity:1;" d="M 38.625 34.699219 L 40.226562 34.699219 L 40.226562 51.171875 L 38.625 51.171875 Z M 38.625 34.699219 "/>
<path style="fill-rule:evenodd;fill:rgb(0%,0%,0%);fill-opacity:1;stroke-width:0.31486;stroke-linecap:butt;stroke-linejoin:miter;stroke:rgb(0%,0%,0%);stroke-opacity:1;stroke-miterlimit:4;" d="M 179.290955 181.511166 C 199.674664 219.500509 199.339956 311.344347 179.290955 343.175066 C 160.547314 309.603867 157.869651 218.596798 179.290955 181.511166 Z M 179.290955 181.511166 " transform="matrix(0.116706,0,0,0.116706,9.84125,0.2462)"/>
<path style="fill-rule:evenodd;fill:rgb(0%,0%,0%);fill-opacity:1;stroke-width:0.31486;stroke-linecap:butt;stroke-linejoin:miter;stroke:rgb(0%,0%,0%);stroke-opacity:1;stroke-miterlimit:4;" d="M 328.269426 183.452471 C 348.686606 221.441814 348.351898 313.319124 328.269426 345.116371 C 309.559257 311.545172 306.881594 220.571574 328.269426 183.452471 Z M 328.269426 183.452471 " transform="matrix(0.116706,0,0,0.116706,9.84125,0.2462)"/>
</g>
</svg>
