<?xml version="1.0" encoding="UTF-8"?>
<svg xmlns="http://www.w3.org/2000/svg" xmlns:xlink="http://www.w3.org/1999/xlink" width="80pt" height="60pt" viewBox="0 0 80 60" version="1.1">
<g id="surface1">
<rect x="0" y="0" width="80" height="60" style="fill:rgb(10.588235%,0%,45.098039%);fill-opacity:1;stroke:none;"/>
<path style=" stroke:none;fill-rule:evenodd;fill:rgb(90.196078%,0%,2.352941%);fill-opacity:1;" d="M -5 15 L 85 15 L 85 45 L -5 45 Z M -5 15 "/>
<path style="fill-rule:evenodd;fill:rgb(100%,100%,100%);fill-opacity:1;stroke-width:1.1702;stroke-linecap:butt;stroke-linejoin:miter;stroke:rgb(90.196078%,0%,0%);stroke-opacity:1;stroke-miterlimit:4;" d="M 214.384911 -113.978836 L 529.729031 -113.978836 L 529.729031 -62.982486 L 214.384911 -62.982486 Z M 214.384911 -113.978836 " transform="matrix(0.120949,0,0,0.120949,-5,42.855964)"/>
<path style="fill-rule:evenodd;fill:rgb(100%,100%,100%);fill-opacity:1;stroke-width:1.25;stroke-linecap:butt;stroke-linejoin:miter;stroke:rgb(90.196078%,0%,0%);stroke-opacity:1;stroke-miterlimit:4;" d="M 220.010047 280.003893 L 215.000854 294.983694 L 534.986822 294.983694 L 530.009333 280.003893 Z M 220.010047 280.003893 " transform="matrix(0.123211,0,0,0.0967449,-6.205307,8.149343)"/>
<path style="fill-rule:evenodd;fill:rgb(100%,100%,100%);fill-opacity:1;stroke-width:1.1225;stroke-linecap:butt;stroke-linejoin:miter;stroke:rgb(90.196078%,0%,0%);stroke-opacity:1;stroke-miterlimit:4;" d="M 244.997657 280.002643 L 240.006433 294.982444 L 300.005641 294.982444 L 294.988286 280.002643 Z M 244.997657 280.002643 " transform="matrix(0.149481,0,0,0.0967449,14.408721,8.149464)"/>
<path style="fill-rule:evenodd;fill:rgb(100%,100%,100%);fill-opacity:1;stroke-width:1.5196;stroke-linecap:butt;stroke-linejoin:miter;stroke:rgb(90.196078%,0%,0%);stroke-opacity:1;stroke-miterlimit:4;" d="M 245.023579 280.002643 L 239.99061 294.982444 L 300.023031 294.982444 L 294.990062 280.002643 Z M 245.023579 280.002643 " transform="matrix(0.0752848,0,0,0.0967449,34.748751,8.149464)"/>
<path style="fill-rule:evenodd;fill:rgb(100%,100%,100%);fill-opacity:1;stroke-width:2.0241;stroke-linecap:butt;stroke-linejoin:miter;stroke:rgb(90.196078%,0%,0%);stroke-opacity:1;stroke-miterlimit:4;" d="M 244.960976 280.002643 L 239.983497 294.982444 L 300.03437 294.982444 L 294.976609 280.002643 Z M 244.960976 280.002643 " transform="matrix(0.0486567,0,0,0.0967449,41.940392,8.149464)"/>
<path style="fill-rule:evenodd;fill:rgb(100%,100%,100%);fill-opacity:1;stroke-width:1.0977;stroke-linecap:butt;stroke-linejoin:miter;stroke:rgb(90.196078%,0%,0%);stroke-opacity:1;stroke-miterlimit:4;" d="M 245.001985 280.003893 L 240.005357 294.983694 L 299.989752 294.983694 L 294.993124 280.003893 Z M 245.001985 280.003893 " transform="matrix(0.157137,0,0,0.0967449,-2.42862,8.149343)"/>
<path style="fill-rule:evenodd;fill:rgb(100%,100%,100%);fill-opacity:1;stroke-width:1.186063;stroke-linecap:butt;stroke-linejoin:miter;stroke:rgb(90.196078%,0%,0%);stroke-opacity:1;stroke-miterlimit:4;" d="M 212.608597 239.576045 L 531.505345 239.576045 L 531.505345 251.590385 L 212.608597 251.590385 Z M 212.608597 239.576045 " transform="matrix(0.120949,0,0,0.120949,-5,0.00002703)"/>
<path style="fill-rule:evenodd;fill:rgb(100%,100%,100%);fill-opacity:1;stroke-width:1.11675;stroke-linecap:butt;stroke-linejoin:miter;stroke:rgb(90.196078%,0%,0%);stroke-opacity:1;stroke-miterlimit:4;" d="M 462.778155 -113.881947 L 525.304396 -113.881947 L 525.304396 -63.079376 L 462.778155 -63.079376 Z M 462.778155 -113.881947 " transform="matrix(0.120949,0,0,0.120949,-5,42.855964)"/>
<path style="fill-rule:evenodd;fill:rgb(100%,100%,100%);fill-opacity:1;stroke-width:0.80466;stroke-linecap:butt;stroke-linejoin:miter;stroke:rgb(90.196078%,0%,0%);stroke-opacity:1;stroke-miterlimit:4;" d="M 507.508962 -90.079343 L 513.742208 -90.079343 L 513.742208 -63.079376 L 507.508962 -63.079376 Z M 507.508962 -90.079343 " transform="matrix(0.120949,0,0,0.120949,-5,42.855964)"/>
<path style="fill-rule:evenodd;fill:rgb(100%,100%,100%);fill-opacity:1;stroke-width:0.80467;stroke-linecap:butt;stroke-linejoin:miter;stroke:rgb(90.196078%,0%,0%);stroke-opacity:1;stroke-miterlimit:4;" d="M 479.992249 -90.079343 L 486.257792 -90.079343 L 486.257792 -63.079376 L 479.992249 -63.079376 Z M 479.992249 -90.079343 " transform="matrix(0.120949,0,0,0.120949,-5,42.855964)"/>
<path style="fill-rule:evenodd;fill:rgb(100%,100%,100%);fill-opacity:1;stroke-width:1.5543;stroke-linecap:butt;stroke-linejoin:miter;stroke:rgb(90.196078%,0%,0%);stroke-opacity:1;stroke-miterlimit:4;" d="M 245.002537 280.003893 L 240.004211 294.983694 L 299.984128 294.983694 L 294.985802 280.003893 Z M 245.002537 280.003893 " transform="matrix(0.0789327,0,0,0.0967449,18.661296,8.149343)"/>
<path style="fill-rule:evenodd;fill:rgb(100%,100%,100%);fill-opacity:1;stroke-width:1.9557;stroke-linecap:butt;stroke-linejoin:miter;stroke:rgb(90.196078%,0%,0%);stroke-opacity:1;stroke-miterlimit:4;" d="M 245.019533 280.003893 L 239.969612 294.983694 L 300.016329 294.983694 L 294.966408 280.003893 Z M 245.019533 280.003893 " transform="matrix(0.0495057,0,0,0.0967449,26.631849,8.149343)"/>
<path style="fill-rule:evenodd;fill:rgb(100%,100%,100%);fill-opacity:1;stroke-width:1.148575;stroke-linecap:butt;stroke-linejoin:miter;stroke:rgb(90.196078%,0%,0%);stroke-opacity:1;stroke-miterlimit:4;" d="M 338.791461 -113.978836 L 404.644253 -113.978836 L 404.644253 -62.982486 L 338.791461 -62.982486 Z M 338.791461 -113.978836 " transform="matrix(0.120949,0,0,0.120949,-5,42.855964)"/>
<path style="fill-rule:evenodd;fill:rgb(100%,100%,100%);fill-opacity:1;stroke-width:1.0398;stroke-linecap:butt;stroke-linejoin:miter;stroke:rgb(90.196078%,0%,0%);stroke-opacity:1;stroke-miterlimit:4;" d="M 391.273455 -90.079343 L 397.506702 -90.079343 L 397.506702 -63.079376 L 391.273455 -63.079376 Z M 391.273455 -90.079343 " transform="matrix(0.120949,0,0,0.120949,-5,42.855964)"/>
<path style="fill-rule:evenodd;fill:rgb(100%,100%,100%);fill-opacity:1;stroke-width:1.0402;stroke-linecap:butt;stroke-linejoin:miter;stroke:rgb(90.196078%,0%,0%);stroke-opacity:1;stroke-miterlimit:4;" d="M 347.769919 -90.079343 L 354.035462 -90.079343 L 354.035462 -63.079376 L 347.769919 -63.079376 Z M 347.769919 -90.079343 " transform="matrix(0.120949,0,0,0.120949,-5,42.855964)"/>
<path style="fill-rule:evenodd;fill:rgb(100%,100%,100%);fill-opacity:1;stroke-width:0.89065;stroke-linecap:butt;stroke-linejoin:miter;stroke:rgb(90.196078%,0%,0%);stroke-opacity:1;stroke-miterlimit:4;" d="M 356.102445 -126.316142 L 387.979201 -126.316142 L 387.979201 -63.014782 L 356.102445 -63.014782 Z M 356.102445 -126.316142 " transform="matrix(0.120949,0,0,0.120949,-5,42.855964)"/>
<path style="fill-rule:evenodd;fill:rgb(100%,100%,100%);fill-opacity:1;stroke-width:1.0398;stroke-linecap:butt;stroke-linejoin:miter;stroke:rgb(90.196078%,0%,0%);stroke-opacity:1;stroke-miterlimit:4;" d="M 380.034234 -90.079343 L 386.267481 -90.079343 L 386.267481 -63.079376 L 380.034234 -63.079376 Z M 380.034234 -90.079343 " transform="matrix(0.120949,0,0,0.120949,-5,42.855964)"/>
<path style="fill-rule:evenodd;fill:rgb(100%,100%,100%);fill-opacity:1;stroke-width:1.0402;stroke-linecap:butt;stroke-linejoin:miter;stroke:rgb(90.196078%,0%,0%);stroke-opacity:1;stroke-miterlimit:4;" d="M 359.041437 -90.079343 L 365.274683 -90.079343 L 365.274683 -63.079376 L 359.041437 -63.079376 Z M 359.041437 -90.079343 " transform="matrix(0.120949,0,0,0.120949,-5,42.855964)"/>
<path style="fill-rule:evenodd;fill:rgb(100%,100%,100%);fill-opacity:1;stroke-width:1.25;stroke-linecap:butt;stroke-linejoin:miter;stroke:rgb(90.196078%,0%,0%);stroke-opacity:1;stroke-miterlimit:4;" d="M 358.169428 217.131253 L 371.637115 240.098343 L 385.912218 217.131253 Z M 358.169428 217.131253 " transform="matrix(0.120949,0,0,0.102388,-5,6.576883)"/>
<path style="fill-rule:evenodd;fill:rgb(100%,100%,100%);fill-opacity:1;stroke-width:1.1785;stroke-linecap:butt;stroke-linejoin:miter;stroke:rgb(90.196078%,0%,0%);stroke-opacity:1;stroke-miterlimit:4;" d="M 487.581953 -113.978836 L 505.312793 -113.978836 L 505.312793 -51.000443 L 487.581953 -51.000443 Z M 487.581953 -113.978836 " transform="matrix(0.120949,0,0,0.120949,-5,42.855964)"/>
<path style="fill-rule:evenodd;fill:rgb(100%,100%,100%);fill-opacity:1;stroke-width:1.1779;stroke-linecap:butt;stroke-linejoin:miter;stroke:rgb(90.196078%,0%,0%);stroke-opacity:1;stroke-miterlimit:4;" d="M 490.553241 -113.978836 L 502.341504 -113.978836 L 502.341504 -51.000443 L 490.553241 -51.000443 Z M 490.553241 -113.978836 " transform="matrix(0.120949,0,0,0.120949,-5,42.855964)"/>
<path style="fill-rule:evenodd;fill:rgb(100%,100%,100%);fill-opacity:1;stroke-width:1.1225;stroke-linecap:butt;stroke-linejoin:miter;stroke:rgb(90.196078%,0%,0%);stroke-opacity:1;stroke-miterlimit:4;" d="M 244.988183 280.002643 L 239.997364 294.982444 L 299.991717 294.982444 L 295.000898 280.002643 Z M 244.988183 280.002643 " transform="matrix(0.149493,0,0,0.0967449,-15.21392,8.149464)"/>
<path style="fill-rule:evenodd;fill:rgb(100%,100%,100%);fill-opacity:1;stroke-width:1.6368;stroke-linecap:butt;stroke-linejoin:miter;stroke:rgb(90.196078%,0%,0%);stroke-opacity:1;stroke-miterlimit:4;" d="M 244.979927 280.002643 L 239.977871 294.982444 L 300.00255 294.982444 L 295.000493 280.002643 Z M 244.979927 280.002643 " transform="matrix(0.0702836,0,0,0.0967449,5.988962,8.149464)"/>
<path style="fill-rule:evenodd;fill:rgb(100%,100%,100%);fill-opacity:1;stroke-width:2.0493;stroke-linecap:butt;stroke-linejoin:miter;stroke:rgb(90.196078%,0%,0%);stroke-opacity:1;stroke-miterlimit:4;" d="M 245.040296 280.002643 L 239.988098 294.982444 L 300.004727 294.982444 L 295.039636 280.002643 Z M 245.040296 280.002643 " transform="matrix(0.0448443,0,0,0.0967449,12.847267,8.149464)"/>
<path style="fill-rule:evenodd;fill:rgb(100%,100%,100%);fill-opacity:1;stroke-width:1.114525;stroke-linecap:butt;stroke-linejoin:miter;stroke:rgb(90.196078%,0%,0%);stroke-opacity:1;stroke-miterlimit:4;" d="M 217.905242 -113.978836 L 279.914737 -113.978836 L 279.914737 -62.982486 L 217.905242 -62.982486 Z M 217.905242 -113.978836 " transform="matrix(0.120949,0,0,0.120949,-5,42.855964)"/>
<path style="fill-rule:evenodd;fill:rgb(100%,100%,100%);fill-opacity:1;stroke-width:0.80467;stroke-linecap:butt;stroke-linejoin:miter;stroke:rgb(90.196078%,0%,0%);stroke-opacity:1;stroke-miterlimit:4;" d="M 229.984175 -90.079343 L 236.249717 -90.079343 L 236.249717 -63.079376 L 229.984175 -63.079376 Z M 229.984175 -90.079343 " transform="matrix(0.120949,0,0,0.120949,-5,42.855964)"/>
<path style="fill-rule:evenodd;fill:rgb(100%,100%,100%);fill-opacity:1;stroke-width:0.80467;stroke-linecap:butt;stroke-linejoin:miter;stroke:rgb(90.196078%,0%,0%);stroke-opacity:1;stroke-miterlimit:4;" d="M 258.760456 -90.079343 L 264.993702 -90.079343 L 264.993702 -63.079376 L 258.760456 -63.079376 Z M 258.760456 -90.079343 " transform="matrix(0.120949,0,0,0.120949,-5,42.855964)"/>
<path style="fill-rule:evenodd;fill:rgb(100%,100%,100%);fill-opacity:1;stroke-width:1.1785;stroke-linecap:butt;stroke-linejoin:miter;stroke:rgb(90.196078%,0%,0%);stroke-opacity:1;stroke-miterlimit:4;" d="M 239.156412 -113.978836 L 256.887253 -113.978836 L 256.887253 -51.000443 L 239.156412 -51.000443 Z M 239.156412 -113.978836 " transform="matrix(0.120949,0,0,0.120949,-5,42.855964)"/>
<path style="fill-rule:evenodd;fill:rgb(100%,100%,100%);fill-opacity:1;stroke-width:1.1779;stroke-linecap:butt;stroke-linejoin:miter;stroke:rgb(90.196078%,0%,0%);stroke-opacity:1;stroke-miterlimit:4;" d="M 242.095404 -113.978836 L 253.915964 -113.978836 L 253.915964 -51.000443 L 242.095404 -51.000443 Z M 242.095404 -113.978836 " transform="matrix(0.120949,0,0,0.120949,-5,42.855964)"/>
<path style="fill-rule:evenodd;fill:rgb(100%,100%,100%);fill-opacity:1;stroke-width:1.199163;stroke-linecap:butt;stroke-linejoin:miter;stroke:rgb(90.196078%,0%,0%);stroke-opacity:1;stroke-miterlimit:4;" d="M 209.05597 228.336824 L 535.025676 228.336824 L 535.025676 240.351164 L 209.05597 240.351164 Z M 209.05597 228.336824 " transform="matrix(0.120949,0,0,0.120949,-5,0.00002703)"/>
<path style="fill-rule:evenodd;fill:rgb(100%,100%,100%);fill-opacity:1;stroke-width:1.25;stroke-linecap:butt;stroke-linejoin:miter;stroke:rgb(90.196078%,0%,0%);stroke-opacity:1;stroke-miterlimit:4;" d="M 187.506568 328.54225 L 593.760053 328.54225 L 593.760053 346.055289 L 187.506568 346.055289 Z M 187.506568 328.54225 " transform="matrix(0.126585,0,0,0.106617,-9.450447,5.960095)"/>
<path style="fill-rule:evenodd;fill:rgb(100%,100%,100%);fill-opacity:1;stroke-width:1.122325;stroke-linecap:butt;stroke-linejoin:miter;stroke:rgb(90.196078%,0%,0%);stroke-opacity:1;stroke-miterlimit:4;" d="M 226.264971 284.796291 L 553.736448 284.796291 L 553.736448 302.30933 L 226.264971 302.30933 Z M 226.264971 284.796291 " transform="matrix(0.126585,0,0,0.106617,-9.450447,5.960095)"/>
<path style="fill-rule:evenodd;fill:rgb(100%,100%,100%);fill-opacity:1;stroke-width:1.139325;stroke-linecap:butt;stroke-linejoin:miter;stroke:rgb(90.196078%,0%,0%);stroke-opacity:1;stroke-miterlimit:4;" d="M 221.235019 288.570021 L 558.735541 288.570021 L 558.735541 306.046422 L 221.235019 306.046422 Z M 221.235019 288.570021 " transform="matrix(0.126585,0,0,0.106617,-9.450447,5.960095)"/>
<path style="fill-rule:evenodd;fill:rgb(100%,100%,100%);fill-opacity:1;stroke-width:1.25;stroke-linecap:butt;stroke-linejoin:miter;stroke:rgb(90.196078%,0%,0%);stroke-opacity:1;stroke-miterlimit:4;" d="M 187.506568 328.54225 L 593.760053 328.54225 L 593.760053 346.055289 L 187.506568 346.055289 Z M 187.506568 328.54225 " transform="matrix(0.126585,0,0,0.106617,-9.450447,5.960095)"/>
<path style="fill-rule:evenodd;fill:rgb(100%,100%,100%);fill-opacity:1;stroke-width:1.17055;stroke-linecap:butt;stroke-linejoin:miter;stroke:rgb(90.196078%,0%,0%);stroke-opacity:1;stroke-miterlimit:4;" d="M 212.502035 298.572238 L 568.764586 298.572238 L 568.764586 316.048639 L 212.502035 316.048639 Z M 212.502035 298.572238 " transform="matrix(0.126585,0,0,0.106617,-9.450447,5.960095)"/>
<path style="fill-rule:evenodd;fill:rgb(100%,100%,100%);fill-opacity:1;stroke-width:1.210925;stroke-linecap:butt;stroke-linejoin:miter;stroke:rgb(90.196078%,0%,0%);stroke-opacity:1;stroke-miterlimit:4;" d="M 200.004301 311.065849 L 581.26232 311.065849 L 581.26232 328.54225 L 200.004301 328.54225 Z M 200.004301 311.065849 " transform="matrix(0.126585,0,0,0.106617,-9.450447,5.960095)"/>
<path style="fill-rule:evenodd;fill:rgb(100%,100%,100%);fill-opacity:1;stroke-width:1.287125;stroke-linecap:butt;stroke-linejoin:miter;stroke:rgb(90.196078%,0%,0%);stroke-opacity:1;stroke-miterlimit:4;" d="M 287.516626 283.576413 L 306.247621 283.576413 L 306.247621 346.046617 L 287.516626 346.046617 Z M 287.516626 283.576413 " transform="matrix(0.114282,0,0,0.104487,-8.928431,6.697988)"/>
<path style="fill-rule:evenodd;fill:rgb(100%,100%,100%);fill-opacity:1;stroke-width:1.050963;stroke-linecap:butt;stroke-linejoin:miter;stroke:rgb(90.196078%,0%,0%);stroke-opacity:1;stroke-miterlimit:4;" d="M 290.627065 283.576413 L 303.103002 283.576413 L 303.103002 346.046617 L 290.627065 346.046617 Z M 290.627065 283.576413 " transform="matrix(0.114282,0,0,0.104487,-8.928431,6.697988)"/>
<path style="fill-rule:evenodd;fill:rgb(100%,100%,100%);fill-opacity:1;stroke-width:1.287125;stroke-linecap:butt;stroke-linejoin:miter;stroke:rgb(90.196078%,0%,0%);stroke-opacity:1;stroke-miterlimit:4;" d="M 287.490891 283.576119 L 306.256068 283.576119 L 306.256068 346.046323 L 287.490891 346.046323 Z M 287.490891 283.576119 " transform="matrix(0.114282,0,0,0.104487,21.070604,6.698018)"/>
<path style="fill-rule:evenodd;fill:rgb(100%,100%,100%);fill-opacity:1;stroke-width:1.050963;stroke-linecap:butt;stroke-linejoin:miter;stroke:rgb(90.196078%,0%,0%);stroke-opacity:1;stroke-miterlimit:4;" d="M 290.635511 283.576119 L 303.111448 283.576119 L 303.111448 346.046323 L 290.635511 346.046323 Z M 290.635511 283.576119 " transform="matrix(0.114282,0,0,0.104487,21.070604,6.698018)"/>
<path style="fill-rule:evenodd;fill:rgb(100%,100%,100%);fill-opacity:1;stroke-width:1.2011;stroke-linecap:butt;stroke-linejoin:miter;stroke:rgb(90.196078%,0%,0%);stroke-opacity:1;stroke-miterlimit:4;" d="M 365.500759 240.351164 L 379.743565 240.351164 L 379.743565 354.325908 L 365.500759 354.325908 Z M 365.500759 240.351164 " transform="matrix(0.120949,0,0,0.120949,-5,0.00002703)"/>
<path style="fill-rule:evenodd;fill:rgb(100%,100%,100%);fill-opacity:1;stroke-width:1.25;stroke-linecap:butt;stroke-linejoin:miter;stroke:rgb(90.196078%,0%,0%);stroke-opacity:1;stroke-miterlimit:4;" d="M 217.904129 220.297812 L 218.10948 183.367341 C 218.10948 183.367341 221.46355 190.61609 247.611604 192.218446 C 272.356425 191.264663 276.46345 186.839111 277.592881 182.909525 L 276.566125 220.450417 Z M 217.904129 220.297812 " transform="matrix(0.114134,0,0,0.102388,26.590726,6.576883)"/>
<path style="fill-rule:evenodd;fill:rgb(100%,100%,100%);fill-opacity:1;stroke-width:3.5278;stroke-linecap:butt;stroke-linejoin:miter;stroke:rgb(90.196078%,0%,0%);stroke-opacity:1;stroke-miterlimit:4;" d="M 330.949296 208.542966 L 312.490974 188.085717 C 318.643748 182.8099 330.014697 191.854158 330.014697 191.854158 C 330.014697 191.854158 336.167471 168.382156 362.491999 158.584211 C 388.816526 168.382156 394.9693 191.854158 394.9693 191.854158 C 394.9693 191.854158 406.340249 182.8099 412.493023 188.085717 L 394.112584 208.542966 Z M 330.949296 208.542966 " transform="matrix(0.0501552,0,0,0.0362799,36.795696,17.141108)"/>
<path style="fill-rule:evenodd;fill:rgb(100%,100%,100%);fill-opacity:1;stroke-width:2.615;stroke-linecap:butt;stroke-linejoin:miter;stroke:rgb(90.196078%,0%,0%);stroke-opacity:1;stroke-miterlimit:4;" d="M 330.920953 208.540461 L 312.528396 188.083017 C 318.639278 182.776387 330.022294 191.928401 330.022294 191.928401 C 330.022294 191.928401 336.193087 168.394651 362.493845 158.550467 C 388.794603 168.394651 394.965396 191.928401 394.965396 191.928401 C 394.965396 191.928401 406.348412 182.776387 412.519205 188.083017 L 394.066737 208.540461 Z M 330.920953 208.540461 " transform="matrix(0.0652013,0,0,0.0507914,31.341491,16.036841)"/>
<path style="fill-rule:evenodd;fill:rgb(100%,100%,100%);fill-opacity:1;stroke-width:3.3833;stroke-linecap:butt;stroke-linejoin:miter;stroke:rgb(90.196078%,0%,0%);stroke-opacity:1;stroke-miterlimit:4;" d="M 0.00204048 280.495252 C 0.82066 280.495252 30.12724 332.853983 0.00204048 333.589129 C -30.123159 334.405958 0.00204048 282.128909 0.00204048 280.495252 Z M 0.00204048 280.495252 " transform="matrix(0.0477175,0,0,0.0478221,54.995996,5.496275)"/>
<path style="fill-rule:evenodd;fill:rgb(100%,100%,100%);fill-opacity:1;stroke-width:5.9629;stroke-linecap:butt;stroke-linejoin:miter;stroke:rgb(90.196078%,0%,0%);stroke-opacity:1;stroke-miterlimit:4;" d="M 330.906602 208.570158 L 312.474905 188.059981 C 318.652562 182.727335 329.995145 191.956914 329.995145 191.956914 C 329.995145 191.956914 336.172802 168.370211 362.503797 158.525326 C 388.834793 168.370211 394.911177 191.956914 394.911177 191.956914 C 394.911177 191.956914 406.355033 182.727335 412.532689 188.059981 L 394.100992 208.570158 Z M 330.906602 208.570158 " transform="matrix(0.0385715,0,0,0.0190454,41.017699,18.113631)"/>
<path style="fill-rule:evenodd;fill:rgb(100%,100%,100%);fill-opacity:1;stroke-width:8.3211;stroke-linecap:butt;stroke-linejoin:miter;stroke:rgb(90.196078%,0%,0%);stroke-opacity:1;stroke-miterlimit:4;" d="M 330.957709 208.521476 L 329.971611 191.908232 C 329.971611 191.908232 336.085419 168.321528 362.512848 158.476643 C 388.743056 168.321528 394.856865 191.908232 394.856865 191.908232 L 394.067986 208.521476 Z M 330.957709 208.521476 " transform="matrix(0.0198066,0,0,0.0190454,47.819853,18.430964)"/>
<path style="fill-rule:evenodd;fill:rgb(100%,100%,100%);fill-opacity:1;stroke-width:5.0956;stroke-linecap:butt;stroke-linejoin:miter;stroke:rgb(90.196078%,0%,0%);stroke-opacity:1;stroke-miterlimit:4;" d="M 330.950117 208.557836 L 330.062629 191.945183 C 330.062629 191.945183 336.176437 168.410592 362.505255 158.566057 C 388.834074 168.410592 394.947882 191.945183 394.947882 191.945183 L 394.060394 208.557836 Z M 330.950117 208.557836 " transform="matrix(0.0396132,0,0,0.0253948,40.640007,18.059184)"/>
<path style="fill-rule:evenodd;fill:rgb(100%,100%,100%);fill-opacity:1;stroke-width:5.0956;stroke-linecap:butt;stroke-linejoin:miter;stroke:rgb(90.196078%,0%,0%);stroke-opacity:1;stroke-miterlimit:4;" d="M 330.950117 208.627969 L 330.062629 191.861495 C 330.062629 191.861495 336.176437 168.480725 362.505255 158.63619 C 388.834074 168.480725 394.947882 191.861495 394.947882 191.861495 L 394.060394 208.627969 Z M 330.950117 208.627969 " transform="matrix(0.0396132,0,0,0.0253948,40.640007,18.694122)"/>
<path style="fill-rule:evenodd;fill:rgb(100%,100%,100%);fill-opacity:1;stroke-width:3.6515;stroke-linecap:butt;stroke-linejoin:miter;stroke:rgb(90.196078%,0%,0%);stroke-opacity:1;stroke-miterlimit:4;" d="M 330.906602 208.550697 L 312.474905 188.092523 C 318.652562 182.785703 329.995145 191.861134 329.995145 191.861134 C 329.995145 191.861134 336.172802 168.403453 362.503797 158.558918 C 388.834793 168.403453 394.911177 191.861134 394.911177 191.861134 C 394.911177 191.861134 406.355033 182.785703 412.532689 188.092523 L 394.100992 208.550697 Z M 330.906602 208.550697 " transform="matrix(0.0385715,0,0,0.0507896,41.017699,15.302325)"/>
<path style="fill-rule:evenodd;fill:rgb(100%,100%,100%);fill-opacity:1;stroke-width:3.6515;stroke-linecap:butt;stroke-linejoin:miter;stroke:rgb(90.196078%,0%,0%);stroke-opacity:1;stroke-miterlimit:4;" d="M 330.906602 208.546587 L 312.474905 188.088412 C 318.652562 182.781593 329.995145 191.933934 329.995145 191.933934 C 329.995145 191.933934 336.172802 168.399342 362.503797 158.554807 C 388.834793 168.399342 394.911177 191.933934 394.911177 191.933934 C 394.911177 191.933934 406.355033 182.781593 412.532689 188.088412 L 394.100992 208.546587 Z M 330.906602 208.546587 " transform="matrix(0.0385715,0,0,0.0507896,41.017699,16.572065)"/>
<path style="fill-rule:evenodd;fill:rgb(100%,100%,100%);fill-opacity:1;stroke-width:3.2227;stroke-linecap:butt;stroke-linejoin:miter;stroke:rgb(90.196078%,0%,0%);stroke-opacity:1;stroke-miterlimit:4;" d="M 330.950117 208.577234 L 330.062629 191.903053 C 330.062629 191.903053 336.176437 168.399226 362.505255 158.554691 C 388.834074 168.399226 394.947882 191.903053 394.947882 191.903053 L 394.060394 208.577234 Z M 330.950117 208.577234 " transform="matrix(0.0396132,0,0,0.063487,40.640007,15.828369)"/>
<path style="fill-rule:evenodd;fill:rgb(100%,100%,100%);fill-opacity:1;stroke-width:4.2164;stroke-linecap:butt;stroke-linejoin:miter;stroke:rgb(90.196078%,0%,0%);stroke-opacity:1;stroke-miterlimit:4;" d="M 330.906602 208.585168 L 312.474905 188.07572 C 318.652562 182.845811 329.995145 191.869968 329.995145 191.869968 C 329.995145 191.869968 336.172802 168.38665 362.503797 158.542115 C 388.834793 168.38665 394.911177 191.869968 394.911177 191.869968 C 394.911177 191.869968 406.355033 182.845811 412.532689 188.07572 L 394.100992 208.585168 Z M 330.906602 208.585168 " transform="matrix(0.0385715,0,0,0.0380922,41.017699,21.124844)"/>
<path style="fill-rule:evenodd;fill:rgb(100%,100%,100%);fill-opacity:1;stroke-width:3.5278;stroke-linecap:butt;stroke-linejoin:miter;stroke:rgb(90.196078%,0%,0%);stroke-opacity:1;stroke-miterlimit:4;" d="M 330.920314 208.585801 L 312.461992 188.128553 C 318.614766 182.852736 330.063599 191.896993 330.063599 191.896993 C 330.063599 191.896993 336.216373 168.424992 362.463017 158.519377 C 388.787544 168.424992 394.940318 191.896993 394.940318 191.896993 C 394.940318 191.896993 406.389151 182.852736 412.464042 188.128553 L 394.083603 208.585801 Z M 330.920314 208.585801 " transform="matrix(0.0501552,0,0,0.0362799,6.840118,16.870022)"/>
<path style="fill-rule:evenodd;fill:rgb(100%,100%,100%);fill-opacity:1;stroke-width:2.615;stroke-linecap:butt;stroke-linejoin:miter;stroke:rgb(90.196078%,0%,0%);stroke-opacity:1;stroke-miterlimit:4;" d="M 330.898659 208.571058 L 312.506102 188.113615 C 318.616984 182.806985 330.059911 191.882091 330.059911 191.882091 C 330.059911 191.882091 336.170793 168.425248 362.471551 158.581065 C 388.83222 168.425248 394.943102 191.882091 394.943102 191.882091 C 394.943102 191.882091 406.386029 182.806985 412.496911 188.113615 L 394.104354 208.571058 Z M 330.898659 208.571058 " transform="matrix(0.0652013,0,0,0.0507914,1.385913,15.765756)"/>
<path style="fill-rule:evenodd;fill:rgb(100%,100%,100%);fill-opacity:1;stroke-width:1.25;stroke-linecap:butt;stroke-linejoin:miter;stroke:rgb(90.196078%,0%,0%);stroke-opacity:1;stroke-miterlimit:4;" d="M 217.936084 220.297812 L 218.10721 183.367341 C 218.10721 183.367341 221.46128 190.61609 247.609335 192.218446 C 272.354156 191.264663 276.46118 186.839111 277.590612 182.909525 L 276.563856 220.450417 Z M 217.936084 220.297812 " transform="matrix(0.114134,0,0,0.102388,-3.108233,6.576883)"/>
<path style="fill-rule:evenodd;fill:rgb(100%,100%,100%);fill-opacity:1;stroke-width:3.3833;stroke-linecap:butt;stroke-linejoin:miter;stroke:rgb(90.196078%,0%,0%);stroke-opacity:1;stroke-miterlimit:4;" d="M -0.00804966 280.495252 C 0.81057 280.495252 30.11715 332.853983 -0.00804966 333.589129 C -30.133249 334.405958 -0.00804966 282.128909 -0.00804966 280.495252 Z M -0.00804966 280.495252 " transform="matrix(0.0477175,0,0,0.0478221,24.996478,5.496275)"/>
<path style="fill-rule:evenodd;fill:rgb(100%,100%,100%);fill-opacity:1;stroke-width:5.9629;stroke-linecap:butt;stroke-linejoin:miter;stroke:rgb(90.196078%,0%,0%);stroke-opacity:1;stroke-miterlimit:4;" d="M 330.89412 208.570158 L 312.462423 188.059981 C 318.640079 182.727335 330.083935 191.956914 330.083935 191.956914 C 330.083935 191.956914 336.160319 168.370211 362.491315 158.525326 C 388.822311 168.370211 394.999967 191.956914 394.999967 191.956914 C 394.999967 191.956914 406.34255 182.727335 412.520207 188.059981 L 394.08851 208.570158 Z M 330.89412 208.570158 " transform="matrix(0.0385715,0,0,0.0190454,11.01818,18.113631)"/>
<path style="fill-rule:evenodd;fill:rgb(100%,100%,100%);fill-opacity:1;stroke-width:8.3211;stroke-linecap:butt;stroke-linejoin:miter;stroke:rgb(90.196078%,0%,0%);stroke-opacity:1;stroke-miterlimit:4;" d="M 330.933401 208.521476 L 329.947302 191.908232 C 329.947302 191.908232 336.25833 168.321528 362.488539 158.476643 C 388.718748 168.321528 395.029775 191.908232 395.029775 191.908232 L 394.043677 208.521476 Z M 330.933401 208.521476 " transform="matrix(0.0198066,0,0,0.0190454,17.820335,18.430964)"/>
<path style="fill-rule:evenodd;fill:rgb(100%,100%,100%);fill-opacity:1;stroke-width:5.0956;stroke-linecap:butt;stroke-linejoin:miter;stroke:rgb(90.196078%,0%,0%);stroke-opacity:1;stroke-miterlimit:4;" d="M 330.937963 208.557836 L 330.050474 191.945183 C 330.050474 191.945183 336.164282 168.410592 362.493101 158.566057 C 388.82192 168.410592 394.935728 191.945183 394.935728 191.945183 L 394.048239 208.557836 Z M 330.937963 208.557836 " transform="matrix(0.0396132,0,0,0.0253948,10.640488,18.059184)"/>
<path style="fill-rule:evenodd;fill:rgb(100%,100%,100%);fill-opacity:1;stroke-width:5.0956;stroke-linecap:butt;stroke-linejoin:miter;stroke:rgb(90.196078%,0%,0%);stroke-opacity:1;stroke-miterlimit:4;" d="M 330.937963 208.627969 L 330.050474 191.861495 C 330.050474 191.861495 336.164282 168.480725 362.493101 158.63619 C 388.82192 168.480725 394.935728 191.861495 394.935728 191.861495 L 394.048239 208.627969 Z M 330.937963 208.627969 " transform="matrix(0.0396132,0,0,0.0253948,10.640488,18.694122)"/>
<path style="fill-rule:evenodd;fill:rgb(100%,100%,100%);fill-opacity:1;stroke-width:3.6515;stroke-linecap:butt;stroke-linejoin:miter;stroke:rgb(90.196078%,0%,0%);stroke-opacity:1;stroke-miterlimit:4;" d="M 330.89412 208.550697 L 312.462423 188.092523 C 318.640079 182.785703 330.083935 191.861134 330.083935 191.861134 C 330.083935 191.861134 336.160319 168.403453 362.491315 158.558918 C 388.822311 168.403453 394.999967 191.861134 394.999967 191.861134 C 394.999967 191.861134 406.34255 182.785703 412.520207 188.092523 L 394.08851 208.550697 Z M 330.89412 208.550697 " transform="matrix(0.0385715,0,0,0.0507896,11.01818,15.302325)"/>
<path style="fill-rule:evenodd;fill:rgb(100%,100%,100%);fill-opacity:1;stroke-width:3.6515;stroke-linecap:butt;stroke-linejoin:miter;stroke:rgb(90.196078%,0%,0%);stroke-opacity:1;stroke-miterlimit:4;" d="M 330.89412 208.546587 L 312.462423 188.088412 C 318.640079 182.781593 330.083935 191.933934 330.083935 191.933934 C 330.083935 191.933934 336.160319 168.399342 362.491315 158.554807 C 388.822311 168.399342 394.999967 191.933934 394.999967 191.933934 C 394.999967 191.933934 406.34255 182.781593 412.520207 188.088412 L 394.08851 208.546587 Z M 330.89412 208.546587 " transform="matrix(0.0385715,0,0,0.0507896,11.01818,16.572065)"/>
<path style="fill-rule:evenodd;fill:rgb(100%,100%,100%);fill-opacity:1;stroke-width:3.2227;stroke-linecap:butt;stroke-linejoin:miter;stroke:rgb(90.196078%,0%,0%);stroke-opacity:1;stroke-miterlimit:4;" d="M 330.937963 208.577234 L 330.050474 191.903053 C 330.050474 191.903053 336.164282 168.399226 362.493101 158.554691 C 388.82192 168.399226 394.935728 191.903053 394.935728 191.903053 L 394.048239 208.577234 Z M 330.937963 208.577234 " transform="matrix(0.0396132,0,0,0.063487,10.640488,15.828369)"/>
<path style="fill-rule:evenodd;fill:rgb(100%,100%,100%);fill-opacity:1;stroke-width:4.2164;stroke-linecap:butt;stroke-linejoin:miter;stroke:rgb(90.196078%,0%,0%);stroke-opacity:1;stroke-miterlimit:4;" d="M 330.89412 208.585168 L 312.462423 188.07572 C 318.640079 182.845811 330.083935 191.869968 330.083935 191.869968 C 330.083935 191.869968 336.160319 168.38665 362.491315 158.542115 C 388.822311 168.38665 394.999967 191.869968 394.999967 191.869968 C 394.999967 191.869968 406.34255 182.845811 412.520207 188.07572 L 394.08851 208.585168 Z M 330.89412 208.585168 " transform="matrix(0.0385715,0,0,0.0380922,11.01818,21.124844)"/>
<path style="fill-rule:evenodd;fill:rgb(100%,100%,100%);fill-opacity:1;stroke-width:1.2256;stroke-linecap:butt;stroke-linejoin:miter;stroke:rgb(90.196078%,0%,0%);stroke-opacity:1;stroke-miterlimit:4;" d="M 335.981656 226.269841 L 408.132287 226.269841 C 411.684914 226.269841 414.559313 229.176536 414.559313 232.729163 C 414.559313 236.281791 411.684914 239.188486 408.132287 239.188486 L 335.981656 239.188486 C 332.429028 239.188486 329.522333 236.281791 329.522333 232.729163 C 329.522333 229.176536 332.429028 226.269841 335.981656 226.269841 Z M 335.981656 226.269841 " transform="matrix(0.120949,0,0,0.120949,-5,0.00002703)"/>
<path style="fill-rule:evenodd;fill:rgb(100%,100%,100%);fill-opacity:1;stroke-width:1.5789;stroke-linecap:butt;stroke-linejoin:miter;stroke:rgb(90.196078%,0%,0%);stroke-opacity:1;stroke-miterlimit:4;" d="M 353.233168 -212.600607 L 354.331253 -269.313458 C 354.331253 -269.313458 351.036998 -255.404384 341.218828 -255.404384 L 190.264463 -255.404384 C 180.446293 -255.404384 177.152039 -269.313458 177.152039 -269.313458 L 178.250124 -212.600607 Z M 353.233168 -212.600607 " transform="matrix(0.0604746,0,0,0.0907119,23.927425,47.570564)"/>
<path style="fill-rule:evenodd;fill:rgb(100%,100%,100%);fill-opacity:1;stroke-width:2.3995;stroke-linecap:butt;stroke-linejoin:miter;stroke:rgb(90.196078%,0%,0%);stroke-opacity:1;stroke-miterlimit:4;" d="M 510.523198 70.196 L 510.926905 44.610182 C 510.926905 44.610182 534.422691 41.629856 531.19303 35.275576 C 527.882627 28.921296 499.623091 43.260601 499.623091 43.260601 L 386.261983 43.260601 C 386.261983 43.260601 357.921706 28.921296 354.611303 35.275576 C 351.381642 41.629856 374.958169 44.610182 374.958169 44.610182 L 375.361876 70.196 Z M 510.523198 70.196 " transform="matrix(0.0483797,0,0,0.069466,18.570578,21.072985)"/>
<path style="fill-rule:evenodd;fill:rgb(100%,100%,100%);fill-opacity:1;stroke-width:2.1904;stroke-linecap:butt;stroke-linejoin:miter;stroke:rgb(90.196078%,0%,0%);stroke-opacity:1;stroke-miterlimit:4;" d="M 510.485028 70.220967 L 510.888735 44.63515 C 510.888735 44.63515 534.438348 41.598591 531.208687 35.300544 C 527.911741 28.946264 499.584921 43.285568 499.584921 43.285568 L 386.27764 43.285568 C 386.27764 43.285568 357.883536 28.946264 354.653874 35.300544 C 351.356929 41.598591 374.906542 44.63515 374.906542 44.63515 L 375.310249 70.220967 Z M 510.485028 70.220967 " transform="matrix(0.0580556,0,0,0.069466,14.285348,22.524376)"/>
<path style="fill-rule:evenodd;fill:rgb(100%,100%,100%);fill-opacity:1;stroke-width:6.2465;stroke-linecap:butt;stroke-linejoin:miter;stroke:rgb(90.196078%,0%,0%);stroke-opacity:1;stroke-miterlimit:4;" d="M 510.466954 70.204891 L 510.964399 44.596224 C 510.964399 44.596224 534.34431 41.627103 531.110918 35.317721 C 527.877526 28.884626 504.00017 16.884429 469.427747 4.141952 C 445.052946 -1.672576 500.518055 -22.208995 448.286338 -23.569842 C 400.282902 -22.703849 442.814443 -0.188016 427.144928 5.131659 C 388.344224 16.884429 358.000083 28.884626 354.517968 35.317721 C 351.284576 41.627103 374.91321 44.596224 374.91321 44.596224 L 375.410655 70.204891 Z M 510.466954 70.204891 " transform="matrix(0.0157053,0,0,0.031575,32.998611,16.216874)"/>
<path style="fill-rule:evenodd;fill:rgb(100%,100%,100%);fill-opacity:1;stroke-width:3.152;stroke-linecap:butt;stroke-linejoin:miter;stroke:rgb(90.196078%,0%,0%);stroke-opacity:1;stroke-miterlimit:4;" d="M 510.470878 70.208913 L 510.926852 44.642137 C 510.926852 44.642137 534.409494 41.618109 531.217678 35.295143 C 527.911869 28.972177 499.527511 43.267579 499.527511 43.267579 L 386.218064 43.267579 C 386.218064 43.267579 357.947699 28.972177 354.641891 35.295143 C 351.336082 41.618109 374.932717 44.642137 374.932717 44.642137 L 375.388691 70.208913 Z M 510.470878 70.208913 " transform="matrix(0.0342673,0,0,0.0568365,24.820025,18.958793)"/>
<path style="fill-rule:evenodd;fill:rgb(100%,100%,100%);fill-opacity:1;stroke-width:2.8773;stroke-linecap:butt;stroke-linejoin:miter;stroke:rgb(90.196078%,0%,0%);stroke-opacity:1;stroke-miterlimit:4;" d="M 510.470312 70.205019 L 510.945262 44.638242 C 510.945262 44.638242 534.502791 41.614215 531.17814 35.291249 C 527.948478 28.968283 499.546458 43.263685 499.546458 43.263685 L 386.223345 43.263685 C 386.223345 43.263685 357.916315 28.968283 354.686653 35.291249 C 351.362002 41.614215 374.919531 44.638242 374.919531 44.638242 L 375.299491 70.205019 Z M 510.470312 70.205019 " transform="matrix(0.0411227,0,0,0.0568365,21.785409,20.146514)"/>
<path style="fill-rule:evenodd;fill:rgb(100%,100%,100%);fill-opacity:1;stroke-width:4.7552;stroke-linecap:butt;stroke-linejoin:miter;stroke:rgb(90.196078%,0%,0%);stroke-opacity:1;stroke-miterlimit:4;" d="M 510.427193 70.178469 L 510.955692 44.570337 C 510.955692 44.570337 534.385842 41.635018 531.214845 35.258289 C 527.86768 28.982778 499.504867 43.254504 499.504867 43.254504 L 386.229781 43.254504 C 386.229781 43.254504 357.866968 28.982778 354.69597 35.258289 C 351.348806 41.635018 374.955122 44.570337 374.955122 44.570337 L 375.307455 70.178469 Z M 510.427193 70.178469 " transform="matrix(0.0221736,0,0,0.0385925,30.178075,18.080702)"/>
<path style="fill-rule:evenodd;fill:rgb(100%,100%,100%);fill-opacity:1;stroke-width:4.3408;stroke-linecap:butt;stroke-linejoin:miter;stroke:rgb(90.196078%,0%,0%);stroke-opacity:1;stroke-miterlimit:4;" d="M 510.470256 70.226729 L 510.910665 44.618597 C 510.910665 44.618597 534.39911 41.582059 531.169449 35.306549 C 527.939787 28.92982 499.60685 43.302764 499.60685 43.302764 L 386.275102 43.302764 C 386.275102 43.302764 357.942166 28.92982 354.712504 35.306549 C 351.33604 41.582059 374.971288 44.618597 374.971288 44.618597 L 375.264894 70.226729 Z M 510.470256 70.226729 " transform="matrix(0.0266088,0,0,0.0385925,28.21386,18.887433)"/>
<path style="fill-rule:evenodd;fill:rgb(100%,100%,100%);fill-opacity:1;stroke-width:6.2465;stroke-linecap:butt;stroke-linejoin:miter;stroke:rgb(90.196078%,0%,0%);stroke-opacity:1;stroke-miterlimit:4;" d="M 510.430471 70.268097 L 510.927916 44.659429 C 510.927916 44.659429 534.55655 41.566595 531.074436 35.257213 C 527.841044 28.947831 499.486683 43.298582 499.486683 43.298582 L 386.317961 43.298582 C 386.317961 43.298582 357.9636 28.947831 354.730208 35.257213 C 351.248094 41.566595 374.876728 44.659429 374.876728 44.659429 L 375.374173 70.268097 Z M 510.430471 70.268097 " transform="matrix(0.0157053,0,0,0.031575,33.042153,16.906285)"/>
<path style="fill-rule:evenodd;fill:rgb(100%,100%,100%);fill-opacity:1;stroke-width:5.7021;stroke-linecap:butt;stroke-linejoin:miter;stroke:rgb(90.196078%,0%,0%);stroke-opacity:1;stroke-miterlimit:4;" d="M 510.528848 70.260924 L 510.943359 44.652256 C 510.943359 44.652256 534.363221 41.559422 531.25439 35.25004 C 527.938303 28.940658 499.544311 43.291409 499.544311 43.291409 L 386.175596 43.291409 C 386.175596 43.291409 357.988859 28.940658 354.672772 35.25004 C 351.356685 41.559422 374.983803 44.652256 374.983803 44.652256 L 375.398314 70.260924 Z M 510.528848 70.260924 " transform="matrix(0.0188475,0,0,0.031575,31.651236,17.566667)"/>
<path style="fill-rule:evenodd;fill:rgb(100%,100%,100%);fill-opacity:1;stroke-width:5.4435;stroke-linecap:butt;stroke-linejoin:miter;stroke:rgb(90.196078%,0%,0%);stroke-opacity:1;stroke-miterlimit:4;" d="M 330.853978 208.56577 L 312.442521 188.10834 C 318.640437 182.724805 330.124811 191.876814 330.124811 191.876814 C 330.124811 191.876814 336.140436 168.368714 362.572725 158.498901 C 388.822723 168.368714 395.020639 191.876814 395.020639 191.876814 C 395.020639 191.876814 406.322722 182.724805 412.520638 188.10834 L 394.109181 208.56577 Z M 330.853978 208.56577 " transform="matrix(0.0214286,0,0,0.0217678,32.230584,15.280302)"/>
<path style="fill-rule:evenodd;fill:rgb(100%,100%,100%);fill-opacity:1;stroke-width:5.4435;stroke-linecap:butt;stroke-linejoin:miter;stroke:rgb(90.196078%,0%,0%);stroke-opacity:1;stroke-miterlimit:4;" d="M 330.883091 208.613484 L 312.523125 188.156054 C 318.643113 182.77252 330.101816 191.924528 330.101816 191.924528 C 330.101816 191.924528 336.221804 168.416429 362.524734 158.546616 C 388.827663 168.416429 394.947652 191.924528 394.947652 191.924528 C 394.947652 191.924528 406.406354 182.77252 412.526343 188.156054 L 394.036164 208.613484 Z M 330.883091 208.613484 " transform="matrix(0.029999,0,0,0.0217678,29.124608,16.005826)"/>
<path style="fill-rule:evenodd;fill:rgb(100%,100%,100%);fill-opacity:1;stroke-width:4.4097;stroke-linecap:butt;stroke-linejoin:miter;stroke:rgb(90.196078%,0%,0%);stroke-opacity:1;stroke-miterlimit:4;" d="M 330.870499 208.619923 L 312.526625 188.162012 C 318.679228 182.778351 330.072939 191.930574 330.072939 191.930574 C 330.072939 191.930574 336.225543 168.377058 362.545014 158.551877 C 388.864486 168.377058 394.903152 191.930574 394.903152 191.930574 C 394.903152 191.930574 406.4108 182.778351 412.449467 188.162012 L 394.105593 208.619923 Z M 330.870499 208.619923 " transform="matrix(0.0342843,0,0,0.029023,27.57041,15.76163)"/>
<path style="fill-rule:evenodd;fill:rgb(100%,100%,100%);fill-opacity:1;stroke-width:3.5278;stroke-linecap:butt;stroke-linejoin:miter;stroke:rgb(90.196078%,0%,0%);stroke-opacity:1;stroke-miterlimit:4;" d="M 330.906458 208.584588 L 312.494482 188.126965 C 318.601424 182.851052 330.086123 191.895475 330.086123 191.895475 C 330.086123 191.895475 336.193065 168.423045 362.534952 158.517249 C 388.785691 168.423045 394.983782 191.895475 394.983782 191.895475 C 394.983782 191.895475 406.377332 182.851052 412.484275 188.126965 L 394.072298 208.584588 Z M 330.906458 208.584588 " transform="matrix(0.0428559,0,0,0.0362793,24.463225,15.807705)"/>
<path style="fill-rule:evenodd;fill:rgb(100%,100%,100%);fill-opacity:1;stroke-width:1.4582;stroke-linecap:butt;stroke-linejoin:miter;stroke:rgb(90.196078%,0%,0%);stroke-opacity:1;stroke-miterlimit:4;" d="M 358.166415 217.110132 L 371.636749 240.115371 L 385.911804 217.110132 Z M 358.166415 217.110132 " transform="matrix(0.111646,0,0,0.0815032,-1.538559,6.961085)"/>
<path style="fill-rule:evenodd;fill:rgb(100%,100%,100%);fill-opacity:1;stroke-width:3.0506;stroke-linecap:butt;stroke-linejoin:miter;stroke:rgb(90.196078%,0%,0%);stroke-opacity:1;stroke-miterlimit:4;" d="M 330.930431 208.515276 L 312.473054 188.129005 C 318.625513 182.815048 330.018955 191.897083 330.018955 191.897083 C 330.018955 191.897083 336.171414 168.419055 362.528245 158.564081 C 388.809119 168.419055 394.961578 191.897083 394.961578 191.897083 C 394.961578 191.897083 406.355021 182.815048 412.50748 188.129005 L 394.050103 208.611893 L 330.930431 208.611893 Z M 330.930431 208.515276 " transform="matrix(0.0514276,0,0,0.0404301,21.35604,16.43299)"/>
<path style="fill-rule:evenodd;fill:rgb(100%,100%,100%);fill-opacity:1;stroke-width:1.25;stroke-linecap:butt;stroke-linejoin:miter;stroke:rgb(90.196078%,0%,0%);stroke-opacity:1;stroke-miterlimit:4;" d="M 358.169587 217.1423 L 371.637274 240.109391 L 385.912377 217.1423 Z M 358.169587 217.1423 " transform="matrix(0.120949,0,0,0.102388,-5.000019,4.485908)"/>
<path style="fill-rule:evenodd;fill:rgb(100%,100%,100%);fill-opacity:1;stroke-width:2.615;stroke-linecap:butt;stroke-linejoin:miter;stroke:rgb(90.196078%,0%,0%);stroke-opacity:1;stroke-miterlimit:4;" d="M 330.897331 208.56638 L 312.527463 188.108675 C 318.627381 182.801977 330.055963 191.8772 330.055963 191.8772 C 330.055963 191.8772 336.155881 168.420057 362.518745 158.575748 C 388.811496 168.420057 394.981528 191.8772 394.981528 191.8772 C 394.981528 191.8772 406.339996 182.801977 412.510028 188.108675 L 394.070046 208.56638 Z M 330.897331 208.56638 " transform="matrix(0.0557128,0,0,0.0507908,19.803052,16.387223)"/>
<path style="fill-rule:evenodd;fill:rgb(100%,100%,100%);fill-opacity:1;stroke-width:2.615;stroke-linecap:butt;stroke-linejoin:miter;stroke:rgb(90.196078%,0%,0%);stroke-opacity:1;stroke-miterlimit:4;" d="M 330.897331 208.578379 L 312.527463 188.120674 C 318.627381 182.813976 330.055963 191.889199 330.055963 191.889199 C 330.055963 191.889199 336.155881 168.432056 362.518745 158.587746 C 388.811496 168.432056 394.981528 191.889199 394.981528 191.889199 C 394.981528 191.889199 406.339996 182.813976 412.510028 188.120674 L 394.070046 208.578379 Z M 330.897331 208.578379 " transform="matrix(0.0557128,0,0,0.0507908,19.803052,18.476457)"/>
<path style="fill-rule:evenodd;fill:rgb(100%,100%,100%);fill-opacity:1;stroke-width:1.0398;stroke-linecap:butt;stroke-linejoin:miter;stroke:rgb(90.196078%,0%,0%);stroke-opacity:1;stroke-miterlimit:4;" d="M 285.340568 -90.079343 L 291.573814 -90.079343 L 291.573814 -63.079376 L 285.340568 -63.079376 Z M 285.340568 -90.079343 " transform="matrix(0.120949,0,0,0.120949,-5,42.855964)"/>
<path style="fill-rule:evenodd;fill:rgb(100%,100%,100%);fill-opacity:1;stroke-width:1.0398;stroke-linecap:butt;stroke-linejoin:miter;stroke:rgb(90.196078%,0%,0%);stroke-opacity:1;stroke-miterlimit:4;" d="M 306.591739 -90.079343 L 312.824985 -90.079343 L 312.824985 -63.079376 L 306.591739 -63.079376 Z M 306.591739 -90.079343 " transform="matrix(0.120949,0,0,0.120949,-5,42.855964)"/>
<path style="fill-rule:evenodd;fill:rgb(100%,100%,100%);fill-opacity:1;stroke-width:1.0398;stroke-linecap:butt;stroke-linejoin:miter;stroke:rgb(90.196078%,0%,0%);stroke-opacity:1;stroke-miterlimit:4;" d="M 296.579789 -90.079343 L 302.845332 -90.079343 L 302.845332 -63.079376 L 296.579789 -63.079376 Z M 296.579789 -90.079343 " transform="matrix(0.120949,0,0,0.120949,-5,42.855964)"/>
<path style="fill-rule:evenodd;fill:rgb(100%,100%,100%);fill-opacity:1;stroke-width:1.0398;stroke-linecap:butt;stroke-linejoin:miter;stroke:rgb(90.196078%,0%,0%);stroke-opacity:1;stroke-miterlimit:4;" d="M 410.134677 -90.079343 L 416.40022 -90.079343 L 416.40022 -63.079376 L 410.134677 -63.079376 Z M 410.134677 -90.079343 " transform="matrix(0.120949,0,0,0.120949,-5,42.855964)"/>
<path style="fill-rule:evenodd;fill:rgb(100%,100%,100%);fill-opacity:1;stroke-width:1.0398;stroke-linecap:butt;stroke-linejoin:miter;stroke:rgb(90.196078%,0%,0%);stroke-opacity:1;stroke-miterlimit:4;" d="M 452.637018 -90.079343 L 458.902561 -90.079343 L 458.902561 -63.079376 L 452.637018 -63.079376 Z M 452.637018 -90.079343 " transform="matrix(0.120949,0,0,0.120949,-5,42.855964)"/>
<path style="fill-rule:evenodd;fill:rgb(100%,100%,100%);fill-opacity:1;stroke-width:1.0398;stroke-linecap:butt;stroke-linejoin:miter;stroke:rgb(90.196078%,0%,0%);stroke-opacity:1;stroke-miterlimit:4;" d="M 431.385848 -90.079343 L 437.65139 -90.079343 L 437.65139 -63.079376 L 431.385848 -63.079376 Z M 431.385848 -90.079343 " transform="matrix(0.120949,0,0,0.120949,-5,42.855964)"/>
<path style="fill-rule:evenodd;fill:rgb(100%,100%,100%);fill-opacity:1;stroke-width:1.0398;stroke-linecap:butt;stroke-linejoin:miter;stroke:rgb(90.196078%,0%,0%);stroke-opacity:1;stroke-miterlimit:4;" d="M 421.373898 -90.079343 L 427.639441 -90.079343 L 427.639441 -63.079376 L 421.373898 -63.079376 Z M 421.373898 -90.079343 " transform="matrix(0.120949,0,0,0.120949,-5,42.855964)"/>
<path style="fill-rule:evenodd;fill:rgb(100%,100%,100%);fill-opacity:1;stroke-width:1.0398;stroke-linecap:butt;stroke-linejoin:miter;stroke:rgb(90.196078%,0%,0%);stroke-opacity:1;stroke-miterlimit:4;" d="M 441.397797 -90.079343 L 447.631044 -90.079343 L 447.631044 -63.079376 L 441.397797 -63.079376 Z M 441.397797 -90.079343 " transform="matrix(0.120949,0,0,0.120949,-5,42.855964)"/>
<path style="fill-rule:evenodd;fill:rgb(100%,100%,100%);fill-opacity:1;stroke-width:1.0398;stroke-linecap:butt;stroke-linejoin:miter;stroke:rgb(90.196078%,0%,0%);stroke-opacity:1;stroke-miterlimit:4;" d="M 327.842909 -90.079343 L 334.076155 -90.079343 L 334.076155 -63.079376 L 327.842909 -63.079376 Z M 327.842909 -90.079343 " transform="matrix(0.120949,0,0,0.120949,-5,42.855964)"/>
<path style="fill-rule:evenodd;fill:rgb(100%,100%,100%);fill-opacity:1;stroke-width:1.0398;stroke-linecap:butt;stroke-linejoin:miter;stroke:rgb(90.196078%,0%,0%);stroke-opacity:1;stroke-miterlimit:4;" d="M 316.603688 -90.079343 L 322.836934 -90.079343 L 322.836934 -63.079376 L 316.603688 -63.079376 Z M 316.603688 -90.079343 " transform="matrix(0.120949,0,0,0.120949,-5,42.855964)"/>
</g>
</svg>
