<?xml version="1.0" encoding="UTF-8"?>
<svg xmlns="http://www.w3.org/2000/svg" xmlns:xlink="http://www.w3.org/1999/xlink" width="80pt" height="60pt" viewBox="0 0 80 60" version="1.1">
<g id="surface1">
<path style=" stroke:none;fill-rule:evenodd;fill:rgb(100%,91.372549%,0%);fill-opacity:1;" d="M -3.25 0.0273438 L 83.191406 0.0273438 L 83.191406 59.945312 L -3.25 59.945312 Z M -3.25 0.0273438 "/>
<path style=" stroke:none;fill-rule:evenodd;fill:rgb(20.784314%,63.137255%,0%);fill-opacity:1;" d="M -3.296875 0.0273438 L -3.195312 43.222656 L 64.066406 0 Z M -3.296875 0.0273438 "/>
<path style=" stroke:none;fill-rule:evenodd;fill:rgb(78.039216%,0%,0%);fill-opacity:1;" d="M 83.296875 59.945312 L 83.140625 15.03125 L 15.289062 59.980469 Z M 83.296875 59.945312 "/>
<path style=" stroke:none;fill-rule:evenodd;fill:rgb(0%,0%,0%);fill-opacity:1;" d="M -3.253906 46.476562 L -3.195312 60 L 11.480469 59.980469 L 83.171875 11.917969 L 83.089844 0.160156 L 68.589844 0.0273438 Z M -3.253906 46.476562 "/>
<path style=" stroke:none;fill-rule:evenodd;fill:rgb(100%,100%,100%);fill-opacity:1;" d="M 53.972656 18.355469 L 52.8125 13.402344 L 56.71875 16.574219 L 61.175781 13.6875 L 59.128906 18.53125 L 63.046875 21.695312 L 57.875 21.515625 L 55.835938 26.359375 L 54.683594 21.40625 L 49.511719 21.234375 Z M 53.972656 18.355469 "/>
<path style=" stroke:none;fill-rule:evenodd;fill:rgb(100%,100%,100%);fill-opacity:1;" d="M 21.71875 39.320312 L 20.554688 34.371094 L 24.464844 37.542969 L 28.917969 34.65625 L 26.875 39.496094 L 30.789062 42.664062 L 25.617188 42.480469 L 23.582031 47.324219 L 22.429688 42.371094 L 17.257812 42.199219 Z M 21.71875 39.320312 "/>
</g>
</svg>
