<?xml version="1.0" encoding="UTF-8"?>
<svg xmlns="http://www.w3.org/2000/svg" xmlns:xlink="http://www.w3.org/1999/xlink" width="80pt" height="60pt" viewBox="0 0 80 60" version="1.1">
<g id="surface1">
<path style=" stroke:none;fill-rule:evenodd;fill:rgb(100%,0%,0%);fill-opacity:1;" d="M -5 45 L 84.996094 45 L 84.996094 60 L -5 60 Z M -5 45 "/>
<path style=" stroke:none;fill-rule:evenodd;fill:rgb(100%,0%,0%);fill-opacity:1;" d="M -5 0 L 84.996094 0 L 84.996094 15 L -5 15 Z M -5 0 "/>
<path style=" stroke:none;fill-rule:evenodd;fill:rgb(100%,100%,100%);fill-opacity:1;" d="M -5 15 L 84.996094 15 L 84.996094 45 L -5 45 Z M -5 15 "/>
<path style=" stroke:none;fill-rule:nonzero;fill:rgb(0%,47.45098%,0%);fill-opacity:1;" d="M 39.542969 15.230469 C 38.628906 17.054688 38.015625 17.054688 36.492188 18.273438 C 35.882812 18.882812 34.96875 19.1875 36.1875 19.796875 C 34.96875 20.40625 34.355469 20.710938 33.746094 21.929688 L 34.050781 22.234375 C 34.050781 22.234375 35.210938 21.664062 35.273438 21.929688 C 35.476562 22.171875 33.746094 23.105469 33.523438 23.25 C 33.300781 23.390625 32.222656 24.0625 32.222656 24.0625 C 30.695312 25.28125 29.78125 24.976562 28.863281 26.800781 L 31.914062 26.496094 C 32.527344 28.628906 30.390625 28.933594 28.863281 29.847656 L 26.425781 31.371094 C 27.035156 33.503906 28.863281 32.285156 30.390625 31.675781 L 30.695312 31.980469 L 30.695312 32.589844 L 27.644531 34.113281 C 27.644531 34.113281 24.042969 36.171875 23.984375 36.242188 C 23.960938 36.355469 23.984375 36.851562 23.984375 36.851562 C 25.203125 37.15625 27.035156 37.460938 28.253906 36.851562 C 29.78125 36.242188 30.085938 35.632812 31.914062 35.632812 C 29.78125 37.15625 28.253906 37.765625 25.8125 38.070312 L 25.8125 39.289062 C 27.644531 39.289062 28.863281 39.289062 30.390625 38.984375 L 34.355469 37.765625 C 35.273438 37.765625 36.1875 38.679688 35.882812 39.59375 C 34.964844 42.945312 31.304688 42.335938 30.085938 45.078125 L 34.96875 43.25 C 36.1875 42.640625 37.40625 42.03125 38.933594 42.335938 C 40.761719 42.945312 40.761719 44.164062 43.203125 44.773438 L 42.59375 43.25 C 43.203125 43.554688 43.8125 43.554688 44.425781 43.859375 C 45.949219 44.46875 46.253906 45.078125 48.085938 44.773438 C 46.558594 42.945312 46.253906 43.25 45.035156 42.03125 C 43.8125 40.203125 43.203125 37.460938 45.035156 37.15625 L 47.171875 37.765625 C 49.304688 38.070312 49.304688 37.460938 52.355469 38.679688 C 54.1875 39.289062 54.796875 40.203125 56.933594 39.59375 C 56.019531 37.460938 52.660156 35.9375 50.527344 35.332031 C 52.964844 33.808594 52.355469 35.9375 55.710938 35.027344 L 55.710938 34.417969 C 53.273438 32.589844 52.355469 31.066406 49 31.066406 C 49 31.066406 54.1875 30.457031 54.1875 30.457031 L 54.1875 29.847656 C 54.1875 29.847656 49.070312 28.507812 48.953125 28.457031 C 48.988281 28.304688 49.113281 28.0625 49.453125 27.929688 C 50.425781 28.558594 53.363281 28.488281 53.53125 28.476562 C 53.445312 27.726562 52.050781 27.105469 50.832031 26.496094 C 50.832031 26.496094 45.605469 23.277344 45.578125 22.992188 C 45.683594 22.175781 47.726562 23.121094 49.917969 23.757812 C 49.304688 22.539062 48.085938 21.929688 46.863281 21.625 L 48.695312 21.320312 C 47.476562 18.578125 44.425781 18.882812 42.59375 17.664062 C 41.375 16.75 41.375 16.140625 39.542969 15.230469 Z M 39.542969 15.230469 "/>
<path style="fill-rule:evenodd;fill:rgb(100%,100%,100%);fill-opacity:1;stroke-width:3.219;stroke-linecap:round;stroke-linejoin:round;stroke:rgb(100%,100%,100%);stroke-opacity:1;stroke-miterlimit:4;" d="M 223.966667 303.066662 C 225.9 296.866662 228.433333 291.399995 216.833333 286.099995 C 205.233333 280.833329 222.633333 307.233329 223.966667 303.066662 Z M 223.966667 303.066662 " transform="matrix(0.117188,0,0,0.117188,10,0.00000054885)"/>
<path style="fill-rule:evenodd;fill:rgb(100%,100%,100%);fill-opacity:1;stroke-width:3.219;stroke-linecap:round;stroke-linejoin:round;stroke:rgb(100%,100%,100%);stroke-opacity:1;stroke-miterlimit:4;" d="M 237.7 290.666662 C 235.366667 290.999995 234.133333 299.499995 238.8 301.833329 C 244 302.666662 239.733333 290.766662 237.7 290.666662 Z M 237.7 290.666662 " transform="matrix(0.117188,0,0,0.117188,10,0.00000054885)"/>
<path style="fill-rule:evenodd;fill:rgb(100%,100%,100%);fill-opacity:1;stroke-width:3.219;stroke-linecap:round;stroke-linejoin:round;stroke:rgb(100%,100%,100%);stroke-opacity:1;stroke-miterlimit:4;" d="M 251.233333 289.766662 C 248.766667 290.466662 248.666667 302.466662 257.233333 300.333329 C 265.766667 298.199995 257.1 288.766662 251.233333 289.766662 Z M 251.233333 289.766662 " transform="matrix(0.117188,0,0,0.117188,10,0.00000054885)"/>
<path style="fill-rule:evenodd;fill:rgb(100%,100%,100%);fill-opacity:1;stroke-width:3.219;stroke-linecap:round;stroke-linejoin:round;stroke:rgb(100%,100%,100%);stroke-opacity:1;stroke-miterlimit:4;" d="M 266.966667 258.999995 C 268.8 256.066662 266.866667 243.999995 259.566667 249.066662 C 252.233333 254.133329 264.633333 259.833329 266.966667 258.999995 Z M 266.966667 258.999995 " transform="matrix(0.117188,0,0,0.117188,10,0.00000054885)"/>
<path style="fill-rule:evenodd;fill:rgb(100%,100%,100%);fill-opacity:1;stroke-width:3.219;stroke-linecap:round;stroke-linejoin:round;stroke:rgb(100%,100%,100%);stroke-opacity:1;stroke-miterlimit:4;" d="M 251 248.966662 C 253.233333 248.133329 253.466667 240.733329 247.033333 242.666662 C 240.633333 244.599995 249.3 250.499995 251 248.966662 Z M 251 248.966662 " transform="matrix(0.117188,0,0,0.117188,10,0.00000054885)"/>
<path style="fill-rule:evenodd;fill:rgb(100%,100%,100%);fill-opacity:1;stroke-width:3.219;stroke-linecap:round;stroke-linejoin:round;stroke:rgb(100%,100%,100%);stroke-opacity:1;stroke-miterlimit:4;" d="M 236.566667 251.899995 C 236.566667 251.899995 232.1 245.699995 228.633333 247.033329 C 224.266667 251.199995 236.9 251.999995 236.566667 251.899995 Z M 236.566667 251.899995 " transform="matrix(0.117188,0,0,0.117188,10,0.00000054885)"/>
<path style="fill-rule:evenodd;fill:rgb(100%,100%,100%);fill-opacity:1;stroke-width:3.219;stroke-linecap:round;stroke-linejoin:round;stroke:rgb(100%,100%,100%);stroke-opacity:1;stroke-miterlimit:4;" d="M 187 271.699995 C 188.9 271.866662 203.033333 269.366662 207.9 263.866662 C 212.766667 258.399995 182.766667 266.233329 182.766667 266.333329 C 182.766667 266.433329 185.6 271.166662 187 271.699995 Z M 187 271.699995 " transform="matrix(0.117188,0,0,0.117188,10,0.00000054885)"/>
<path style="fill-rule:evenodd;fill:rgb(100%,100%,100%);fill-opacity:1;stroke-width:3.219;stroke-linecap:round;stroke-linejoin:round;stroke:rgb(100%,100%,100%);stroke-opacity:1;stroke-miterlimit:4;" d="M 328.1 236.733329 C 328.833333 235.433329 320.566667 229.566662 315.7 231.866662 C 314.433333 236.199995 328.066667 237.633329 328.1 236.733329 Z M 328.1 236.733329 " transform="matrix(0.117188,0,0,0.117188,10,0.00000054885)"/>
<path style="fill-rule:evenodd;fill:rgb(100%,100%,100%);fill-opacity:1;stroke-width:3.219;stroke-linecap:round;stroke-linejoin:round;stroke:rgb(100%,100%,100%);stroke-opacity:1;stroke-miterlimit:4;" d="M 300.333333 222.766662 C 301.866667 220.533329 296.766667 211.399995 286.6 216.466662 C 276.433333 221.533329 297.3 226.299995 300.333333 222.766662 Z M 300.333333 222.766662 " transform="matrix(0.117188,0,0,0.117188,10,0.00000054885)"/>
<path style="fill-rule:evenodd;fill:rgb(100%,100%,100%);fill-opacity:1;stroke-width:3.219;stroke-linecap:round;stroke-linejoin:round;stroke:rgb(100%,100%,100%);stroke-opacity:1;stroke-miterlimit:4;" d="M 268.2 217.366662 C 268.2 217.366662 270.733333 209.166662 276.833333 210.766662 C 283.766667 216.066662 268.5 217.699995 268.2 217.366662 Z M 268.2 217.366662 " transform="matrix(0.117188,0,0,0.117188,10,0.00000054885)"/>
<path style="fill-rule:evenodd;fill:rgb(100%,100%,100%);fill-opacity:1;stroke-width:3.219;stroke-linecap:round;stroke-linejoin:round;stroke:rgb(100%,100%,100%);stroke-opacity:1;stroke-miterlimit:4;" d="M 262.2 211.199995 C 261.3 208.866662 254.866667 210.266662 247.566667 215.033329 C 240.233333 219.833329 264.433333 216.466662 262.2 211.199995 Z M 262.2 211.199995 " transform="matrix(0.117188,0,0,0.117188,10,0.00000054885)"/>
<path style="fill-rule:evenodd;fill:rgb(100%,100%,100%);fill-opacity:1;stroke-width:3.219;stroke-linecap:round;stroke-linejoin:round;stroke:rgb(100%,100%,100%);stroke-opacity:1;stroke-miterlimit:4;" d="M 280.9 189.066662 C 280.9 189.066662 287.433333 186.133329 289.366667 189.066662 C 292.1 193.433329 280.8 189.166662 280.9 189.066662 Z M 280.9 189.066662 " transform="matrix(0.117188,0,0,0.117188,10,0.00000054885)"/>
<path style="fill-rule:evenodd;fill:rgb(100%,100%,100%);fill-opacity:1;stroke-width:3.219;stroke-linecap:round;stroke-linejoin:round;stroke:rgb(100%,100%,100%);stroke-opacity:1;stroke-miterlimit:4;" d="M 275.433333 186.199995 C 274.133333 183.566662 266.9 183.299995 267.1 187.133329 C 265.866667 190.099995 276.466667 189.566662 275.433333 186.199995 Z M 275.433333 186.199995 " transform="matrix(0.117188,0,0,0.117188,10,0.00000054885)"/>
<path style="fill-rule:evenodd;fill:rgb(100%,100%,100%);fill-opacity:1;stroke-width:3.219;stroke-linecap:round;stroke-linejoin:round;stroke:rgb(100%,100%,100%);stroke-opacity:1;stroke-miterlimit:4;" d="M 258.233333 186.199995 C 257.533333 184.699995 247.266667 186.233329 244.2 192.399995 C 249.1 194.799995 260.466667 190.066662 258.233333 186.199995 Z M 258.233333 186.199995 " transform="matrix(0.117188,0,0,0.117188,10,0.00000054885)"/>
<path style="fill-rule:evenodd;fill:rgb(100%,100%,100%);fill-opacity:1;stroke-width:3.219;stroke-linecap:round;stroke-linejoin:round;stroke:rgb(100%,100%,100%);stroke-opacity:1;stroke-miterlimit:4;" d="M 236.266667 192.499995 C 236.266667 192.499995 222.766667 200.766662 221.933333 206.833329 C 222.333333 212.066662 238.7 197.366662 238.7 197.366662 C 238.7 197.366662 240.133333 191.599995 236.266667 192.499995 Z M 236.266667 192.499995 " transform="matrix(0.117188,0,0,0.117188,10,0.00000054885)"/>
<path style="fill-rule:evenodd;fill:rgb(100%,100%,100%);fill-opacity:1;stroke-width:3.219;stroke-linecap:round;stroke-linejoin:round;stroke:rgb(100%,100%,100%);stroke-opacity:1;stroke-miterlimit:4;" d="M 221.333333 184.999995 C 221.7 183.333329 228 179.433329 228.533333 179.733329 C 229.033333 181.399995 223.4 185.999995 221.333333 184.999995 Z M 221.333333 184.999995 " transform="matrix(0.117188,0,0,0.117188,10,0.00000054885)"/>
<path style="fill-rule:evenodd;fill:rgb(100%,100%,100%);fill-opacity:1;stroke-width:3.219;stroke-linecap:round;stroke-linejoin:round;stroke:rgb(100%,100%,100%);stroke-opacity:1;stroke-miterlimit:4;" d="M 225.6 216.566662 C 225.9 214.133329 209.533333 214.333329 215.733333 221.833329 C 220.9 228.133329 226.7 217.699995 225.6 216.566662 Z M 225.6 216.566662 " transform="matrix(0.117188,0,0,0.117188,10,0.00000054885)"/>
<path style="fill-rule:evenodd;fill:rgb(100%,100%,100%);fill-opacity:1;stroke-width:3.219;stroke-linecap:round;stroke-linejoin:round;stroke:rgb(100%,100%,100%);stroke-opacity:1;stroke-miterlimit:4;" d="M 210.7 227.366662 C 209.833333 225.699995 208.6 221.299995 206.366667 220.899995 C 204.533333 220.799995 194.7 222.833329 193.933333 224.499995 C 193.533333 225.833329 198 233.933329 199.533333 234.133329 C 201.266667 234.866662 210.4 228.166662 210.7 227.366662 Z M 210.7 227.366662 " transform="matrix(0.117188,0,0,0.117188,10,0.00000054885)"/>
<path style="fill-rule:evenodd;fill:rgb(100%,100%,100%);fill-opacity:1;stroke-width:3.219;stroke-linecap:round;stroke-linejoin:round;stroke:rgb(100%,100%,100%);stroke-opacity:1;stroke-miterlimit:4;" d="M 299.033333 282.466662 C 299.533333 280.733329 316.266667 274.966662 322.033333 280.499995 C 328.833333 289.833329 298.6 285.399995 299.033333 282.466662 Z M 299.033333 282.466662 " transform="matrix(0.117188,0,0,0.117188,10,0.00000054885)"/>
<path style="fill-rule:evenodd;fill:rgb(100%,100%,100%);fill-opacity:1;stroke-width:3.219;stroke-linecap:round;stroke-linejoin:round;stroke:rgb(100%,100%,100%);stroke-opacity:1;stroke-miterlimit:4;" d="M 345 293.399995 C 348.666667 287.199995 333.733333 279.833329 327.4 286.933329 C 329.566667 295.433329 342.033333 298.533329 345 293.399995 Z M 345 293.399995 " transform="matrix(0.117188,0,0,0.117188,10,0.00000054885)"/>
</g>
</svg>
