<?xml version="1.0" encoding="UTF-8"?>
<svg xmlns="http://www.w3.org/2000/svg" xmlns:xlink="http://www.w3.org/1999/xlink" width="80pt" height="60pt" viewBox="0 0 80 60" version="1.1">
<g id="surface1">
<rect x="0" y="0" width="80" height="60" style="fill:rgb(39.607843%,81.176471%,100%);fill-opacity:1;stroke:none;"/>
<path style=" stroke:none;fill-rule:evenodd;fill:rgb(100%,100%,100%);fill-opacity:1;" d="M 39.863281 5.25 L 60.195312 54.660156 L 19.871094 54.773438 Z M 39.863281 5.25 "/>
<path style=" stroke:none;fill-rule:evenodd;fill:rgb(0%,0%,0%);fill-opacity:1;" d="M 39.886719 12.066406 L 57.46875 54.5625 L 22.597656 54.660156 Z M 39.886719 12.066406 "/>
<path style=" stroke:none;fill-rule:evenodd;fill:rgb(100%,80.784314%,0%);fill-opacity:1;" d="M 39.863281 30.011719 L 60.195312 54.71875 L 19.871094 54.773438 Z M 39.863281 30.011719 "/>
</g>
</svg>
