<?xml version="1.0" encoding="UTF-8"?>
<svg xmlns="http://www.w3.org/2000/svg" xmlns:xlink="http://www.w3.org/1999/xlink" width="80pt" height="60pt" viewBox="0 0 80 60" version="1.1">
<g id="surface1">
<rect x="0" y="0" width="80" height="60" style="fill:rgb(100%,80%,0%);fill-opacity:1;stroke:none;"/>
<path style=" stroke:none;fill-rule:evenodd;fill:rgb(100%,40%,0%);fill-opacity:1;" d="M 30.203125 5.335938 L 55.464844 5.335938 L 55.464844 55.738281 L 30.203125 55.738281 Z M 30.203125 5.335938 "/>
<path style=" stroke:none;fill-rule:evenodd;fill:rgb(0%,40%,0%);fill-opacity:1;" d="M 5.332031 5.335938 L 30.226562 5.335938 L 30.226562 55.746094 L 5.332031 55.746094 Z M 5.332031 5.335938 "/>
<path style=" stroke:none;fill-rule:evenodd;fill:rgb(60%,10.588235%,20%);fill-opacity:1;" d="M 30.300781 21.449219 L 76.285156 21.449219 L 76.285156 55.800781 L 30.300781 55.800781 Z M 30.300781 21.449219 "/>
<path style="fill-rule:evenodd;fill:rgb(100%,80%,0%);fill-opacity:1;stroke-width:1.25;stroke-linecap:round;stroke-linejoin:round;stroke:rgb(60%,10.588235%,20%);stroke-opacity:1;stroke-miterlimit:4;" d="M 267.947717 101.333153 L 271.489401 101.435514 C 271.489401 101.435514 267.476857 104.792949 268.398104 109.358242 C 272.594898 103.155176 274.13031 104.342561 274.13031 104.342561 C 272.861036 105.714196 270.404376 107.618108 272.308288 111.814901 C 273.946061 107.536219 277.323968 104.260673 277.323968 104.260673 C 277.323968 104.260673 276.423193 108.989743 278.429465 113.370786 C 279.882989 108.989743 282.339648 105.263809 282.339648 105.263809 C 282.339648 105.263809 281.97115 109.992879 284.079782 111.733013 C 285.717556 110.279489 286.80258 106.533083 286.80258 106.533083 C 286.80258 106.533083 289.914349 111.999151 291.818261 112.818037 C 293.374145 109.092103 293.374145 106.164584 293.374145 106.164584 C 293.374145 106.164584 299.740988 110.729877 304.85903 108.088967 C 300.293737 106.451194 298.737852 102.622899 298.737852 102.622899 C 298.737852 102.622899 307.029079 106.266945 310.591236 104.629172 C 307.13144 101.96779 299.024463 98.057607 299.024463 98.057607 C 299.024463 98.057607 305.043279 100.248128 306.762941 99.69538 C 305.944054 98.507994 303.303145 97.054471 303.303145 97.054471 " transform="matrix(0.190808,0,0,0.190808,-2.716375,18.012494)"/>
<path style=" stroke:none;fill-rule:nonzero;fill:rgb(100%,80%,0%);fill-opacity:1;" d="M 57.90625 28.867188 C 60.003906 28.675781 63.242188 30.386719 64.960938 31.53125 C 64.960938 31.148438 64.960938 30.769531 65.339844 30.578125 C 65.722656 30.386719 66.296875 30.769531 66.105469 31.339844 C 65.53125 32.671875 63.242188 31.148438 62.484375 30.769531 L 62.863281 31.53125 C 61.71875 31.339844 61.527344 31.148438 60.765625 30.199219 C 60.578125 30.957031 60.578125 31.148438 59.621094 31.148438 C 59.980469 30.585938 60.101562 30.394531 59.621094 29.816406 L 59.433594 30.957031 L 58.480469 29.628906 L 58.480469 30.957031 C 58.289062 30.769531 57.527344 30.199219 57.144531 30.199219 C 56.574219 30.007812 56.191406 31.148438 56 31.722656 C 56.574219 31.148438 56.761719 30.769531 57.714844 31.148438 C 57.199219 31.636719 57.351562 32.222656 57.90625 32.671875 C 57.90625 32.671875 58.007812 31.878906 58.066406 31.699219 C 58.371094 31.925781 59.015625 32.777344 59.8125 32.863281 C 60.386719 32.863281 60.957031 32.671875 61.527344 32.484375 C 63.433594 32.292969 67.628906 32.671875 66.675781 35.527344 C 66.484375 36.101562 66.296875 36.480469 65.914062 36.863281 C 68.582031 37.816406 66.296875 41.242188 65.722656 42.953125 C 65.339844 44.476562 65.605469 45.691406 67.484375 45.496094 C 67.105469 46.257812 66.484375 46.382812 65.722656 46.382812 C 65.722656 46.382812 65.816406 46.839844 66.308594 47.054688 C 65.492188 47.785156 66.589844 48.882812 66.105469 49.429688 C 65.285156 49.820312 64.199219 49.238281 64.199219 49.238281 L 64.144531 49.777344 C 64.144531 49.777344 62.703125 49.679688 62.671875 49.617188 C 62.671875 49.617188 63.082031 48.851562 63.054688 48.835938 C 62.671875 49.40625 62.308594 49.738281 61.527344 49.617188 C 61.527344 49.617188 61.589844 49.257812 62.015625 48.804688 C 61.4375 49.382812 61.375 49.632812 60.765625 49.617188 C 60.765625 48.664062 61.335938 47.523438 62.484375 47.90625 C 62.671875 47.90625 63.273438 48.378906 63.558594 48.074219 C 63.785156 47.746094 63.652344 46.632812 63.652344 46.253906 C 63.769531 44.570312 63.433594 44.667969 62.484375 43.714844 C 61.71875 43.144531 61.160156 42.269531 60.210938 42.082031 C 59.253906 41.890625 57.714844 42.953125 56.953125 43.335938 C 55.046875 44.476562 53.332031 45.238281 51.234375 45.621094 C 51.234375 45.621094 51.277344 45.523438 51.277344 45.332031 C 51.277344 45.203125 53.335938 43.601562 53.695312 40.789062 C 53.128906 43.566406 51.128906 45.03125 51.054688 45.546875 C 50.980469 46.0625 50.570312 46.945312 50.519531 47 C 50.769531 46.851562 51.5625 46.464844 52.566406 46.382812 C 52.351562 47.574219 51.234375 47.332031 51.042969 47.90625 C 51.042969 48.476562 51.808594 49.238281 51.042969 49.617188 L 47.996094 49.617188 C 47.996094 49.996094 48.464844 48.96875 48.484375 48.789062 C 48.074219 49.039062 47.816406 49.691406 46.917969 49.625 C 46.949219 49.378906 47.378906 48.996094 47.308594 48.84375 C 46.792969 49.320312 46.550781 49.722656 45.894531 49.617188 C 46.085938 49.046875 46.085938 48.285156 46.851562 48.285156 C 47.421875 48.09375 47.996094 48.476562 48.375 47.90625 C 49.136719 46.953125 48.234375 44.871094 48.046875 43.726562 C 48.046875 42.773438 48.050781 42.59375 47.804688 41.433594 L 47.996094 44.859375 C 47.230469 44.285156 46.46875 43.90625 45.894531 43.144531 C 44.5625 41.433594 44.945312 39.527344 46.660156 38.386719 C 47.421875 37.816406 47.835938 37.515625 48.789062 37.136719 C 48.597656 36.566406 49.058594 36.144531 48.382812 35.964844 C 48.179688 36.320312 47.984375 36.703125 47.597656 36.671875 L 47.804688 35.71875 C 47.804688 35.71875 47.117188 35.761719 47.253906 36.992188 C 46.460938 36.609375 46.851562 35.71875 46.851562 35.71875 L 46.46875 35.71875 C 46.46875 35.71875 46.464844 36.851562 45.84375 37.082031 C 46.011719 36.550781 46.085938 35.71875 46.085938 35.71875 C 46.085938 35.71875 45.066406 36.9375 44.472656 36.542969 C 44.820312 36.148438 45.09375 36.082031 45.042969 35.605469 C 45 35.128906 44.753906 34.515625 44.707031 34.421875 C 44.925781 34.523438 46.363281 34.953125 47.265625 34.507812 C 47.203125 34.804688 47.230469 35.148438 47.230469 35.148438 C 48.183594 34.957031 48.375 34.957031 49.328125 35.335938 C 49.136719 34.007812 48.375 33.816406 47.613281 32.863281 L 47.613281 33.625 C 46.851562 33.433594 46.660156 33.246094 46.277344 32.484375 L 45.707031 32.863281 C 44.703125 32.269531 43.960938 30.863281 45.386719 30.945312 C 46.238281 31.050781 45.515625 31.722656 45.515625 31.722656 C 45.515625 31.722656 47.699219 31.035156 48.566406 30.957031 C 48.566406 30.957031 48.3125 30.425781 47.507812 30.335938 C 48.175781 29.832031 48.847656 29.671875 49.328125 30.726562 C 49.808594 30.753906 50.253906 30.179688 49.96875 29.429688 C 50.675781 29.417969 51.027344 29.867188 51.347656 30.339844 C 51.613281 30.386719 51.878906 30.109375 51.816406 29.164062 C 52.484375 29.734375 52.8125 29.910156 52.855469 30.390625 C 53.421875 30.515625 53.808594 30.386719 54.664062 30.007812 C 54.476562 30.769531 54.476562 30.957031 53.714844 31.339844 C 54.25 32.003906 54.308594 32.808594 54.195312 33.097656 C 54.007812 33.046875 53.960938 33.03125 53.828125 32.996094 C 53.871094 33.292969 53.929688 34.101562 53.902344 34.578125 L 53.523438 34.578125 C 53.523438 35.050781 54.09375 36.289062 54.09375 36.289062 L 53.714844 36.863281 C 55.046875 36.289062 56.382812 36.480469 57.714844 36.101562 C 59.242188 35.910156 60.765625 35.335938 62.484375 35.335938 C 63.625 35.335938 63.625 35.910156 65.152344 35.910156 L 65.152344 34.957031 C 65.152344 34.195312 64.578125 33.433594 63.625 33.246094 C 63.054688 33.246094 62.101562 33.625 61.527344 33.816406 C 60.765625 34.007812 59.621094 34.007812 58.859375 34.007812 C 56.382812 33.625 56.777344 33.382812 55.914062 32.921875 C 55.394531 33.058594 55.105469 33.496094 54.847656 34.269531 C 54.371094 33.570312 54.476562 32.671875 55.046875 32.292969 C 54.476562 30.199219 56 29.246094 57.90625 28.867188 Z M 57.90625 28.867188 "/>
<path style="fill-rule:nonzero;fill:rgb(100%,80%,0%);fill-opacity:1;stroke-width:1;stroke-linecap:butt;stroke-linejoin:round;stroke:rgb(60%,10.588235%,20%);stroke-opacity:1;stroke-miterlimit:4;" d="M 320.724957 146.69947 C 318.718685 143.690062 311.717205 138.694854 313.723477 133.720118 C 316.712413 128.724909 333.70431 120.740765 336.693246 131.713845 C 337.696382 134.702782 334.625557 142.645981 333.622421 145.65539 C 335.137361 145.266419 336.816079 142.932592 341.729398 143.771951 C 340.828623 147.702606 334.830279 150.712014 334.830279 150.712014 C 335.444444 153.373396 330.715374 165.636222 330.715374 165.636222 L 317.715549 165.636222 L 319.721821 161.64415 L 316.712413 165.636222 L 311.717205 165.636222 L 315.729749 160.641014 C 315.729749 160.641014 310.980207 166.188971 306.94719 165.963777 C 307.950327 158.000105 312.720341 156.669414 319.721821 159.65835 C 320.724957 155.666278 322.710757 150.67107 320.724957 146.69947 Z M 320.724957 146.69947 " transform="matrix(0.190808,0,0,0.190808,-2.716375,18.012494)"/>
<path style="fill-rule:evenodd;fill:rgb(100%,80%,0%);fill-opacity:1;stroke-width:1.25;stroke-linecap:butt;stroke-linejoin:miter;stroke:rgb(60%,10.588235%,20%);stroke-opacity:1;stroke-miterlimit:4;" d="M 267.210719 71.546153 C 265.880028 72.36504 266.965053 77.85158 269.032741 76.909861 C 271.612234 75.763419 268.234327 70.911516 267.210719 71.546153 Z M 267.210719 71.546153 " transform="matrix(0.190808,0,0,0.190808,-2.716375,18.012494)"/>
<path style="fill-rule:evenodd;fill:rgb(100%,80%,0%);fill-opacity:1;stroke-width:1.25;stroke-linecap:round;stroke-linejoin:round;stroke:rgb(60%,10.588235%,20%);stroke-opacity:1;stroke-miterlimit:4;" d="M 268.479993 69.806019 C 270.957125 71.546153 274.867308 76.193335 279.698739 75.927197 C 276.054694 72.917788 276.791692 70.727267 276.791692 70.727267 C 278.695603 72.999677 285.082919 75.087838 287.171079 74.187063 C 284.71442 72.36504 284.264032 72.180791 283.711284 70.440657 C 286.618331 70.809156 290.262376 71.443793 293.189896 70.174518 " transform="matrix(0.190808,0,0,0.190808,-2.716375,18.012494)"/>
<path style="fill-rule:evenodd;fill:rgb(100%,80%,0%);fill-opacity:1;stroke-width:1.25;stroke-linecap:round;stroke-linejoin:round;stroke:rgb(60%,10.588235%,20%);stroke-opacity:1;stroke-miterlimit:4;" d="M 273.229535 100.248128 L 273.495673 96.051335 C 273.495673 96.051335 276.238943 102.43865 278.245216 102.520539 C 276.975941 97.873357 277.508218 94.147423 277.508218 94.147423 " transform="matrix(0.190808,0,0,0.190808,-2.716375,18.012494)"/>
<path style="fill-rule:evenodd;fill:rgb(100%,80%,0%);fill-opacity:1;stroke-width:1.25;stroke-linecap:round;stroke-linejoin:round;stroke:rgb(60%,10.588235%,20%);stroke-opacity:1;stroke-miterlimit:4;" d="M 279.616851 95.150559 C 279.616851 95.150559 285.082919 105.18192 287.723828 103.523675 C 283.711284 99.98199 284.161671 95.334809 284.161671 95.334809 C 284.161671 95.334809 285.983694 101.517403 291.367873 103.441786 C 291.736372 99.98199 289.279712 94.331673 289.279712 94.331673 C 289.279712 94.331673 293.742644 102.172512 296.015054 102.356761 C 297.468578 100.534739 296.91583 98.610355 296.91583 98.610355 " transform="matrix(0.190808,0,0,0.190808,-2.716375,18.012494)"/>
<path style="fill-rule:evenodd;fill:rgb(100%,80%,0%);fill-opacity:1;stroke-width:1.25;stroke-linecap:round;stroke-linejoin:round;stroke:rgb(60%,10.588235%,20%);stroke-opacity:1;stroke-miterlimit:4;" d="M 275.338168 88.230968 L 279.33024 93.328537 L 279.98535 86.490834 C 279.98535 86.490834 283.895533 89.582131 284.632531 89.500242 C 285.349057 89.397881 283.527034 82.212151 283.527034 82.212151 C 283.527034 82.212151 288.808853 90.216768 289.177351 90.05299 C 289.54585 89.868741 289.7301 82.10979 289.7301 82.10979 C 289.7301 82.10979 293.742644 93.144287 295.114279 93.041926 C 296.465442 92.960038 296.117415 91.506514 296.117415 91.506514 " transform="matrix(0.190808,0,0,0.190808,-2.716375,18.012494)"/>
<path style="fill-rule:evenodd;fill:rgb(100%,80%,0%);fill-opacity:1;stroke-width:1.25;stroke-linecap:round;stroke-linejoin:round;stroke:rgb(60%,10.588235%,20%);stroke-opacity:1;stroke-miterlimit:4;" d="M 272.32876 79.284632 C 272.32876 79.284632 278.511354 84.934949 279.145991 84.56645 C 279.8011 84.218423 276.607442 78.015357 276.607442 78.015357 C 276.607442 78.015357 280.149127 81.393265 281.520762 81.659403 C 282.892397 81.925541 281.97115 77.27836 281.97115 77.27836 C 281.97115 77.27836 286.167943 80.840516 286.904941 80.656267 C 287.621467 80.472017 287.27344 77.27836 287.27344 77.27836 C 287.27344 77.27836 289.996238 80.02163 290.180488 80.02163 C 290.364737 80.02163 289.627739 72.180791 289.627739 72.180791 C 289.627739 72.180791 295.748916 78.649995 296.199304 78.568106 " transform="matrix(0.190808,0,0,0.190808,-2.716375,18.012494)"/>
<path style="fill-rule:evenodd;fill:rgb(100%,80%,0%);fill-opacity:1;stroke-width:1.25;stroke-linecap:round;stroke-linejoin:round;stroke:rgb(60%,10.588235%,20%);stroke-opacity:1;stroke-miterlimit:4;" d="M 247.536968 81.290904 C 247.803107 81.741291 248.826715 89.807324 261.294263 86.531778 C 262.481649 85.897141 261.969845 88.783716 261.908428 89.623075 C 262.461177 89.541186 268.418576 87.412081 272.513009 90.421489 C 272.04215 87.084526 271.141374 84.85306 267.579218 82.928677 C 265.839084 82.560178 264.590282 83.460953 264.590282 83.460953 C 264.590282 83.460953 249.543241 83.563314 247.536968 81.290904 Z M 247.536968 81.290904 " transform="matrix(0.190808,0,0,0.190808,-2.716375,18.012494)"/>
<path style="fill-rule:nonzero;fill:rgb(100%,80%,0%);fill-opacity:1;stroke-width:1;stroke-linecap:round;stroke-linejoin:round;stroke:rgb(60%,10.588235%,20%);stroke-opacity:1;stroke-miterlimit:4;" d="M 240.719738 132.614621 C 240.515016 133.535868 239.859907 133.802006 237.99694 136.504332 C 238.815826 137.650773 242.644121 139.431852 243.667729 138.490132 C 244.609449 137.978328 244.670865 135.501196 244.670865 135.501196 C 246.677138 138.490132 250.19835 143.219202 254.190422 144.201866 C 257.179358 145.205002 260.188766 143.219202 260.188766 140.230266 C 260.188766 137.24133 255.664418 132.409899 253.678618 130.403627 C 248.68341 124.425755 249.113325 113.104648 239.655185 114.681004 C 239.614241 114.762893 239.245742 116.052639 238.324494 116.277833 C 239.081964 117.731357 239.51188 118.959687 237.689857 119.430547 C 239.102437 120.822654 239.32763 121.82579 237.52608 122.521844 C 238.611105 123.995839 239.900851 124.528116 237.382775 125.79739 C 240.023684 128.376883 240.596905 132.164233 240.719738 132.614621 " transform="matrix(0.190808,0,0,0.190808,-2.716375,18.012494)"/>
<path style="fill-rule:evenodd;fill:rgb(100%,80%,0%);fill-opacity:1;stroke-width:1.25;stroke-linecap:butt;stroke-linejoin:miter;stroke:rgb(60%,10.588235%,20%);stroke-opacity:1;stroke-miterlimit:4;" d="M 238.263078 48.044108 C 235.25367 52.384207 234.946587 100.268601 235.867835 109.91099 C 232.878899 111.876318 227.269525 111.057431 225.713641 110.422794 C 226.450639 107.003943 229.030132 51.46296 238.263078 48.044108 Z M 238.263078 48.044108 " transform="matrix(0.190808,0,0,0.190808,-2.716375,18.012494)"/>
<path style=" stroke:none;fill-rule:evenodd;fill:rgb(100%,80%,0%);fill-opacity:1;" d="M 41.125 45.90625 C 41.125 45.90625 38.59375 46.261719 39.660156 44.757812 C 40.570312 44.363281 40.550781 45.292969 40.214844 45.609375 C 40.628906 45.65625 40.90625 45.382812 40.964844 44.976562 C 40.453125 44.285156 41.183594 43.828125 41.144531 43.828125 C 39.382812 44.222656 39.144531 43.019531 39.796875 42.820312 C 40.621094 42.867188 40.359375 43.128906 40.6875 43.375 C 41.28125 42.828125 41.636719 42.773438 41.992188 43.335938 C 42.347656 42.78125 42.863281 42.839844 42.882812 42.898438 C 43.457031 43.867188 42.191406 43.925781 41.675781 43.808594 C 42.113281 44.285156 41.933594 44.738281 41.796875 45.074219 C 41.808594 45.402344 42.058594 45.457031 42.46875 45.589844 C 41.597656 43.1875 45.535156 46.226562 41.578125 45.925781 C 41.585938 46.03125 41.589844 46.136719 41.597656 46.242188 C 41.921875 46.300781 42.144531 46.378906 42.25 46.714844 C 42.113281 46.898438 41.894531 46.925781 41.558594 46.792969 C 41.558594 46.792969 41.757812 47.347656 41.402344 47.507812 C 41.105469 47.328125 41.0625 46.894531 41.0625 46.894531 C 40.898438 47.097656 40.65625 46.964844 40.453125 46.792969 C 40.636719 46.339844 41.15625 46.558594 41.125 45.90625 Z M 41.125 45.90625 "/>
<path style=" stroke:none;fill-rule:evenodd;fill:rgb(100%,80%,0%);fill-opacity:1;" d="M 38.949219 38.589844 C 39.101562 37.902344 40.695312 37.988281 39.9375 38.726562 C 40.445312 39.539062 42 39.417969 42.585938 38.964844 C 42.09375 38.023438 43.4375 38.226562 43.378906 38.945312 C 43.214844 40.21875 38.777344 40.046875 38.949219 38.589844 Z M 38.949219 38.589844 "/>
<path style="fill-rule:nonzero;fill:rgb(100%,80%,0%);fill-opacity:1;stroke-width:1;stroke-linecap:butt;stroke-linejoin:miter;stroke:rgb(60%,10.588235%,20%);stroke-opacity:1;stroke-miterlimit:4;" d="M 384.270557 171.429845 C 386.768161 176.097499 391.190148 187.131995 393.626336 189.772905 C 395.919218 191.840593 401.630952 191.594927 403.391558 189.2611 C 403.391558 189.2611 407.056076 193.048451 408.530072 194.17442 C 409.410375 193.88781 409.963123 193.048451 409.963123 193.048451 C 408.468655 191.410678 406.441911 190.509903 405.438775 187.500494 C 406.933243 185.514694 407.752129 181.645455 406.748993 178.656519 C 402.388422 171.327484 387.832713 174.214059 384.270557 171.429845 Z M 384.270557 171.429845 " transform="matrix(0.190808,0,0,0.190808,-2.716375,18.012494)"/>
<path style="fill-rule:nonzero;fill:rgb(100%,80%,0%);fill-opacity:1;stroke-width:1;stroke-linecap:butt;stroke-linejoin:miter;stroke:rgb(60%,10.588235%,20%);stroke-opacity:1;stroke-miterlimit:4;" d="M 202.805289 44.27723 C 200.307685 39.630049 195.885697 28.57508 193.449509 25.954643 C 191.136155 23.886954 185.424421 24.13262 183.663815 26.466447 C 183.663815 26.466447 180.019769 22.679096 178.525301 21.553127 C 177.644998 21.839738 177.112722 22.679096 177.112722 22.679096 C 178.60719 24.316869 180.633934 25.217645 181.63707 28.227053 C 180.142602 30.212853 179.323716 34.082092 180.326852 37.071028 C 184.687423 44.400063 199.22266 41.513488 202.805289 44.27723 Z M 202.805289 44.27723 " transform="matrix(0.190808,0,0,0.190808,-2.716375,18.012494)"/>
<path style="fill-rule:nonzero;fill:rgb(100%,80%,0%);fill-opacity:1;stroke-width:1;stroke-linecap:butt;stroke-linejoin:miter;stroke:rgb(60%,10.588235%,20%);stroke-opacity:1;stroke-miterlimit:4;" d="M 201.310821 170.733791 C 196.663639 173.210923 185.60867 177.632911 182.988233 180.089571 C 180.920545 182.382453 181.166211 188.094187 183.500037 189.854793 C 183.500037 189.854793 179.712687 193.519311 178.586718 194.993307 C 178.873328 195.87361 179.712687 196.426358 179.712687 196.426358 C 181.329988 194.93189 182.251235 192.905146 185.240171 191.90201 C 187.246443 193.396478 191.115683 194.215364 194.104619 193.212228 C 201.433654 188.831185 198.547078 174.295948 201.310821 170.733791 Z M 201.310821 170.733791 " transform="matrix(0.190808,0,0,0.190808,-2.716375,18.012494)"/>
<path style="fill-rule:nonzero;fill:rgb(100%,80%,0%);fill-opacity:1;stroke-width:1;stroke-linecap:butt;stroke-linejoin:miter;stroke:rgb(60%,10.588235%,20%);stroke-opacity:1;stroke-miterlimit:4;" d="M 384.659528 44.27723 C 387.13666 39.630049 391.558647 28.57508 394.015307 25.954643 C 396.308189 23.886954 402.019923 24.13262 403.780529 26.445975 C 403.780529 26.445975 407.445047 22.679096 408.919043 21.553127 C 409.799346 21.839738 410.331622 22.679096 410.331622 22.679096 C 408.857626 24.296397 406.81041 25.217645 405.827746 28.206581 C 407.301742 30.212853 408.120628 34.082092 407.137964 37.071028 C 402.756921 44.400063 388.221684 41.513488 384.659528 44.27723 Z M 384.659528 44.27723 " transform="matrix(0.190808,0,0,0.190808,-2.716375,18.012494)"/>
<path style="fill-rule:evenodd;fill:rgb(100%,80%,0%);fill-opacity:1;stroke-width:1.25;stroke-linecap:butt;stroke-linejoin:round;stroke:rgb(100%,80%,0%);stroke-opacity:1;stroke-miterlimit:4;" d="M 222.090068 116.032167 C 221.905818 117.547108 225.529391 118.202217 229.234853 118.222689 C 232.960787 118.243161 236.76861 117.628996 236.932387 116.564444 C 236.973331 114.681004 233.697785 116.277833 229.951379 116.257361 C 226.204973 116.216417 223.072732 114.762893 222.090068 116.032167 Z M 222.090068 116.032167 " transform="matrix(0.190808,0,0,0.190808,-2.716375,18.012494)"/>
<path style="fill-rule:evenodd;fill:rgb(100%,80%,0%);fill-opacity:1;stroke-width:1.25;stroke-linecap:butt;stroke-linejoin:round;stroke:rgb(100%,80%,0%);stroke-opacity:1;stroke-miterlimit:4;" d="M 222.39715 120.249433 C 222.438095 121.662013 226.041196 122.010039 229.234853 122.091928 C 232.408039 122.194289 235.622169 121.559652 236.195389 120.536044 C 235.642641 118.918743 232.100956 120.269905 229.234853 120.331322 C 226.348278 120.413211 223.15462 118.918743 222.39715 120.249433 Z M 222.39715 120.249433 " transform="matrix(0.190808,0,0,0.190808,-2.716375,18.012494)"/>
<path style="fill-rule:evenodd;fill:rgb(100%,80%,0%);fill-opacity:1;stroke-width:1.25;stroke-linecap:butt;stroke-linejoin:round;stroke:rgb(100%,80%,0%);stroke-opacity:1;stroke-miterlimit:4;" d="M 223.420758 124.016312 C 223.175092 125.080864 226.348278 125.858806 229.275798 125.879279 C 232.182845 125.899751 236.338694 124.773782 236.359167 123.62734 C 236.174917 122.706093 232.100956 123.934423 229.357686 124.036784 C 226.593944 124.118672 223.420758 123.033648 223.420758 124.016312 Z M 223.420758 124.016312 " transform="matrix(0.190808,0,0,0.190808,-2.716375,18.012494)"/>
<path style="fill-rule:evenodd;fill:rgb(100%,80%,0%);fill-opacity:1;stroke-width:1.25;stroke-linecap:butt;stroke-linejoin:round;stroke:rgb(100%,80%,0%);stroke-opacity:1;stroke-miterlimit:4;" d="M 223.072732 127.885551 C 223.318398 128.929631 226.921499 129.29813 230.094684 129.052464 C 233.247398 128.806798 236.461527 127.824134 236.748138 126.698165 C 236.58436 126.002112 232.960787 127.250914 229.951379 127.414691 C 226.941971 127.557996 223.031787 127.046192 223.072732 127.885551 Z M 223.072732 127.885551 " transform="matrix(0.190808,0,0,0.190808,-2.716375,18.012494)"/>
</g>
</svg>
