<?xml version="1.0" encoding="UTF-8"?>
<svg xmlns="http://www.w3.org/2000/svg" xmlns:xlink="http://www.w3.org/1999/xlink" width="80pt" height="60pt" viewBox="0 0 80 60" version="1.1">
<g id="surface1">
<rect x="0" y="0" width="80" height="60" style="fill:rgb(92.156863%,0%,7.45098%);fill-opacity:1;stroke:none;"/>
<path style=" stroke:none;fill-rule:evenodd;fill:rgb(4.313725%,31.372549%,20.784314%);fill-opacity:1;" d="M 46.375 38.964844 L 25.53125 53.539062 L 30.902344 37.09375 L 33.691406 39.113281 L 31.691406 45.121094 L 45.285156 35.324219 Z M 48.515625 29.445312 L 55.789062 53.898438 L 42.128906 43.699219 L 44.9375 41.710938 L 49.800781 45.355469 L 44.71875 29.308594 Z M 39.890625 24.589844 L 65.5 24.617188 L 51.542969 34.683594 L 50.425781 31.425781 L 55.617188 27.953125 L 38.6875 28.191406 Z M 32.648438 31.125 L 40.757812 6.636719 L 46.339844 23.472656 L 42.894531 23.515625 L 40.839844 17.070312 L 35.695312 33.394531 Z M 36.804688 39.925781 L 16.144531 24.761719 L 33.585938 24.628906 L 32.566406 27.917969 L 26.09375 27.890625 L 39.898438 37.726562 Z M 36.804688 39.925781 "/>
</g>
</svg>
