<?xml version="1.0" encoding="UTF-8"?>
<svg xmlns="http://www.w3.org/2000/svg" xmlns:xlink="http://www.w3.org/1999/xlink" width="80pt" height="60pt" viewBox="0 0 80 60" version="1.1">
<g id="surface1">
<rect x="0" y="0" width="80" height="60" style="fill:rgb(9.803922%,61.568627%,0%);fill-opacity:1;stroke:none;"/>
<path style=" stroke:none;fill-rule:evenodd;fill:rgb(99.607843%,100%,100%);fill-opacity:1;" d="M 39.847656 33.597656 C 38.4375 34.578125 36.960938 35.449219 35.550781 36.429688 C 33.785156 36.554688 32.070312 36.574219 30.25 36.484375 C 30.25 36.484375 26.445312 35.839844 25.480469 34.179688 C 25.425781 34.019531 26.710938 33.429688 26.710938 33.429688 C 28.660156 34.804688 30.820312 36.019531 34.855469 35.839844 C 29.875 35.394531 26.5 32.644531 25.480469 30.109375 C 28.175781 28.214844 32.640625 28.253906 36.300781 30.859375 C 35.160156 29.429688 31.335938 27.839844 28.480469 28.289062 C 28.070312 27.859375 27.710938 27.324219 27.300781 26.894531 C 30.585938 26.164062 35.160156 28.269531 36.835938 30.003906 C 35.070312 27.164062 33.785156 23.949219 35.875 20.039062 C 36.285156 20.429688 36.75 20.824219 37.160156 21.214844 C 35.585938 24.089844 36.160156 27.449219 37.425781 29.789062 C 35.230469 25.253906 36.996094 20.769531 39.890625 18.589844 C 43.265625 20.628906 44.230469 26.039062 42.246094 29.894531 C 43.371094 29.25 44.285156 24.429688 42.730469 21.214844 C 43.085938 20.789062 43.445312 20.359375 43.800781 19.929688 C 46.140625 23.089844 44.730469 28.179688 42.785156 30.109375 C 44.265625 28.824219 48.105469 26.304688 52.585938 26.894531 C 52.230469 27.324219 51.65625 27.699219 51.300781 28.125 C 47.621094 27.984375 44.640625 29.554688 43.320312 30.914062 C 46.550781 28.769531 51.015625 27.699219 54.300781 30.109375 C 52.78125 34.164062 48.480469 35.375 44.925781 35.734375 C 47.945312 35.964844 50.746094 35.074219 53.015625 33.484375 C 53.445312 33.714844 53.871094 33.949219 54.300781 34.179688 C 53.335938 35.089844 51.945312 36 49.960938 36.269531 C 48.050781 36.519531 46.246094 36.449219 44.335938 36.484375 C 42.855469 35.519531 41.332031 34.5625 39.847656 33.597656 Z M 39.847656 33.597656 "/>
<path style=" stroke:none;fill-rule:evenodd;fill:rgb(100%,100%,100%);fill-opacity:1;" d="M 39.847656 34.546875 L 36.175781 37.308594 L 26.324219 37.273438 C 26.445312 37.667969 26.824219 38.175781 27.046875 38.410156 L 36.820312 38.445312 L 39.847656 36.097656 L 42.765625 38.410156 L 52.652344 38.410156 C 52.9375 38.105469 53.238281 37.6875 53.503906 37.328125 L 43.484375 37.347656 Z M 39.847656 34.546875 "/>
<path style=" stroke:none;fill-rule:evenodd;fill:rgb(100%,100%,100%);fill-opacity:1;" d="M 34.203125 44.042969 C 37.035156 45.4375 43.042969 45.324219 45.757812 44.007812 Z M 34.203125 44.042969 "/>
<path style=" stroke:none;fill-rule:evenodd;fill:rgb(100%,100%,100%);fill-opacity:1;" d="M 27.699219 39.355469 C 27.8125 39.355469 51.988281 39.335938 51.988281 39.335938 C 51.566406 39.816406 51.066406 40.335938 50.550781 40.777344 L 28.945312 40.683594 C 28.539062 40.402344 28 39.746094 27.699219 39.355469 Z M 27.699219 39.355469 "/>
<path style=" stroke:none;fill-rule:evenodd;fill:rgb(100%,100%,100%);fill-opacity:1;" d="M 29.367188 41.097656 L 50.226562 41.15625 C 49.835938 41.457031 49.519531 41.820312 49.074219 42.046875 L 30.53125 42.03125 C 30.101562 41.800781 29.664062 41.410156 29.371094 41.097656 Z M 29.367188 41.097656 "/>
<path style=" stroke:none;fill-rule:evenodd;fill:rgb(100%,100%,100%);fill-opacity:1;" d="M 31.269531 42.652344 L 48.3125 42.609375 C 47.859375 42.902344 47.347656 43.210938 46.78125 43.484375 L 32.800781 43.484375 C 32.328125 43.320312 31.78125 42.96875 31.269531 42.652344 Z M 31.269531 42.652344 "/>
<path style=" stroke:none;fill-rule:evenodd;fill:rgb(99.607843%,71.764706%,0%);fill-opacity:1;" d="M 48.890625 18.539062 L 48.273438 17.636719 L 47.214844 17.898438 L 47.882812 17.035156 L 47.308594 16.109375 L 48.332031 16.476562 L 49.035156 15.640625 L 49.003906 16.734375 L 50.015625 17.144531 L 48.96875 17.449219 Z M 48.890625 18.539062 "/>
<path style=" stroke:none;fill-rule:evenodd;fill:rgb(99.607843%,71.764706%,0%);fill-opacity:1;" d="M 41.183594 17.253906 L 39.964844 16.421875 L 38.761719 17.273438 L 39.175781 15.859375 L 37.996094 14.976562 L 39.46875 14.933594 L 39.941406 13.535156 L 40.4375 14.925781 L 41.914062 14.945312 L 40.746094 15.84375 Z M 41.183594 17.253906 "/>
<path style=" stroke:none;fill-rule:evenodd;fill:rgb(99.607843%,71.764706%,0%);fill-opacity:1;" d="M 54 24.519531 L 52.992188 24.09375 L 52.246094 24.890625 L 52.339844 23.800781 L 51.351562 23.335938 L 52.414062 23.089844 L 52.550781 22.003906 L 53.117188 22.941406 L 54.1875 22.738281 L 53.472656 23.5625 Z M 54 24.519531 "/>
<path style=" stroke:none;fill-rule:evenodd;fill:rgb(99.607843%,71.764706%,0%);fill-opacity:1;" d="M 30.839844 18.523438 L 31.453125 17.621094 L 32.515625 17.882812 L 31.84375 17.019531 L 32.421875 16.09375 L 31.394531 16.460938 L 30.691406 15.625 L 30.726562 16.714844 L 29.714844 17.125 L 30.761719 17.433594 Z M 30.839844 18.523438 "/>
<path style=" stroke:none;fill-rule:evenodd;fill:rgb(99.607843%,71.764706%,0%);fill-opacity:1;" d="M 25.492188 24.480469 L 26.496094 24.054688 L 27.246094 24.851562 L 27.152344 23.761719 L 28.136719 23.296875 L 27.074219 23.050781 L 26.9375 21.964844 L 26.375 22.902344 L 25.300781 22.699219 L 26.015625 23.523438 Z M 25.492188 24.480469 "/>
</g>
</svg>
