<?xml version="1.0" encoding="UTF-8"?>
<svg xmlns="http://www.w3.org/2000/svg" xmlns:xlink="http://www.w3.org/1999/xlink" width="80pt" height="60pt" viewBox="0 0 80 60" version="1.1">
<g id="surface1">
<rect x="0" y="0" width="80" height="60" style="fill:rgb(95.686275%,7.843137%,3.137255%);fill-opacity:1;stroke:none;"/>
<path style=" stroke:none;fill-rule:evenodd;fill:rgb(12.941176%,52.941176%,23.137255%);fill-opacity:1;" d="M 0 40 L 80 40 L 80 60 L 0 60 Z M 0 40 "/>
<path style=" stroke:none;fill-rule:evenodd;fill:rgb(0%,0%,0%);fill-opacity:1;" d="M 0 0 L 80 0 L 80 20 L 0 20 Z M 0 0 "/>
<path style=" stroke:none;fill-rule:evenodd;fill:rgb(95.294118%,8.235294%,3.529412%);fill-opacity:1;" d="M 27.558594 17.632812 C 30.347656 11.476562 38.121094 8.527344 44.914062 11.058594 C 48.332031 12.332031 50.757812 14.527344 52.160156 17.628906 L 27.5625 17.632812 Z M 27.558594 17.632812 "/>
<path style=" stroke:none;fill-rule:evenodd;fill:rgb(95.294118%,8.235294%,3.529412%);fill-opacity:1;" d="M 24.3125 18.429688 C 21.382812 18.230469 18.265625 17.621094 17.757812 17.453125 C 17.25 17.285156 17.230469 17.003906 17.292969 16.789062 C 17.355469 16.574219 17.679688 16.332031 18.058594 16.421875 C 18.769531 16.59375 21.65625 17.285156 24.3125 18.429688 Z M 24.3125 18.429688 "/>
<path style=" stroke:none;fill-rule:evenodd;fill:rgb(95.294118%,8.235294%,3.529412%);fill-opacity:1;" d="M 39.890625 7.6875 C 39.367188 5.066406 39.234375 2.179688 39.285156 1.691406 C 39.335938 1.203125 39.628906 1.113281 39.875 1.117188 C 40.121094 1.117188 40.460938 1.339844 40.460938 1.695312 C 40.457031 2.363281 40.445312 5.070312 39.890625 7.6875 Z M 39.890625 7.6875 "/>
<path style=" stroke:none;fill-rule:evenodd;fill:rgb(95.294118%,8.235294%,3.529412%);fill-opacity:1;" d="M 41.335938 7.75 C 41.058594 5.097656 41.199219 2.210938 41.296875 1.726562 C 41.394531 1.246094 41.695312 1.179688 41.9375 1.199219 C 42.183594 1.21875 42.503906 1.46875 42.46875 1.824219 C 42.402344 2.488281 42.132812 5.183594 41.335938 7.75 Z M 41.335938 7.75 "/>
<path style=" stroke:none;fill-rule:evenodd;fill:rgb(95.294118%,8.235294%,3.529412%);fill-opacity:1;" d="M 42.640625 7.910156 C 42.609375 5.246094 43.011719 2.378906 43.152344 1.90625 C 43.292969 1.429688 43.597656 1.390625 43.839844 1.429688 C 44.082031 1.464844 44.375 1.738281 44.308594 2.089844 C 44.183594 2.746094 43.667969 5.414062 42.640625 7.910156 Z M 42.640625 7.910156 "/>
<path style=" stroke:none;fill-rule:evenodd;fill:rgb(95.294118%,8.235294%,3.529412%);fill-opacity:1;" d="M 44.019531 8.191406 C 44.242188 5.53125 44.921875 2.707031 45.109375 2.246094 C 45.292969 1.789062 45.601562 1.769531 45.839844 1.828125 C 46.074219 1.882812 46.34375 2.179688 46.242188 2.523438 C 46.054688 3.167969 45.285156 5.785156 44.019531 8.191406 Z M 44.019531 8.191406 "/>
<path style=" stroke:none;fill-rule:evenodd;fill:rgb(95.294118%,8.235294%,3.529412%);fill-opacity:1;" d="M 45.375 8.582031 C 45.859375 5.953125 46.8125 3.195312 47.042969 2.75 C 47.273438 2.308594 47.582031 2.316406 47.8125 2.390625 C 48.042969 2.46875 48.28125 2.78125 48.144531 3.117188 C 47.894531 3.742188 46.871094 6.285156 45.375 8.582031 Z M 45.375 8.582031 "/>
<path style=" stroke:none;fill-rule:evenodd;fill:rgb(95.294118%,8.235294%,3.529412%);fill-opacity:1;" d="M 46.636719 9.058594 C 47.367188 6.476562 48.578125 3.804688 48.847656 3.378906 C 49.121094 2.957031 49.429688 2.988281 49.648438 3.082031 C 49.871094 3.175781 50.078125 3.507812 49.914062 3.828125 C 49.605469 4.433594 48.34375 6.890625 46.636719 9.058594 Z M 46.636719 9.058594 "/>
<path style=" stroke:none;fill-rule:evenodd;fill:rgb(95.294118%,8.235294%,3.529412%);fill-opacity:1;" d="M 47.882812 9.652344 C 48.859375 7.136719 50.320312 4.570312 50.632812 4.167969 C 50.945312 3.765625 51.246094 3.824219 51.460938 3.933594 C 51.671875 4.042969 51.847656 4.390625 51.652344 4.699219 C 51.285156 5.277344 49.792969 7.625 47.882812 9.652344 Z M 47.882812 9.652344 "/>
<path style=" stroke:none;fill-rule:evenodd;fill:rgb(95.294118%,8.235294%,3.529412%);fill-opacity:1;" d="M 49.058594 10.335938 C 50.273438 7.90625 51.976562 5.464844 52.324219 5.089844 C 52.671875 4.714844 52.972656 4.792969 53.171875 4.921875 C 53.371094 5.050781 53.511719 5.410156 53.289062 5.699219 C 52.867188 6.246094 51.15625 8.464844 49.058594 10.335938 Z M 49.058594 10.335938 "/>
<path style=" stroke:none;fill-rule:evenodd;fill:rgb(95.294118%,8.235294%,3.529412%);fill-opacity:1;" d="M 50.167969 11.109375 C 51.609375 8.789062 53.542969 6.488281 53.925781 6.144531 C 54.308594 5.796875 54.597656 5.898438 54.785156 6.042969 C 54.972656 6.183594 55.078125 6.554688 54.824219 6.828125 C 54.355469 7.339844 52.433594 9.414062 50.167969 11.109375 Z M 50.167969 11.109375 "/>
<path style=" stroke:none;fill-rule:evenodd;fill:rgb(95.294118%,8.235294%,3.529412%);fill-opacity:1;" d="M 51.199219 11.96875 C 52.859375 9.773438 55.003906 7.636719 55.421875 7.320312 C 55.835938 7.007812 56.113281 7.132812 56.285156 7.289062 C 56.460938 7.445312 56.527344 7.824219 56.253906 8.074219 C 55.734375 8.546875 53.621094 10.460938 51.199219 11.972656 Z M 51.199219 11.96875 "/>
<path style=" stroke:none;fill-rule:evenodd;fill:rgb(95.294118%,8.235294%,3.529412%);fill-opacity:1;" d="M 52.144531 12.914062 C 54.011719 10.855469 56.359375 8.898438 56.800781 8.617188 C 57.246094 8.339844 57.511719 8.484375 57.667969 8.65625 C 57.824219 8.824219 57.855469 9.207031 57.558594 9.433594 C 56.996094 9.863281 54.707031 11.605469 52.144531 12.914062 Z M 52.144531 12.914062 "/>
<path style=" stroke:none;fill-rule:evenodd;fill:rgb(95.294118%,8.235294%,3.529412%);fill-opacity:1;" d="M 52.960938 13.878906 C 55.011719 11.972656 57.527344 10.199219 57.996094 9.953125 C 58.464844 9.707031 58.714844 9.875 58.855469 10.058594 C 58.996094 10.238281 58.996094 10.621094 58.675781 10.824219 C 58.074219 11.210938 55.632812 12.769531 52.960938 13.878906 Z M 52.960938 13.878906 "/>
<path style=" stroke:none;fill-rule:evenodd;fill:rgb(95.294118%,8.235294%,3.529412%);fill-opacity:1;" d="M 53.699219 14.929688 C 55.921875 13.1875 58.597656 11.617188 59.085938 11.40625 C 59.578125 11.199219 59.808594 11.386719 59.933594 11.578125 C 60.054688 11.769531 60.015625 12.148438 59.679688 12.328125 C 59.042969 12.664062 56.464844 14.03125 53.699219 14.929688 Z M 53.699219 14.929688 "/>
<path style=" stroke:none;fill-rule:evenodd;fill:rgb(95.294118%,8.235294%,3.529412%);fill-opacity:1;" d="M 54.382812 16.125 C 56.773438 14.574219 59.597656 13.234375 60.105469 13.070312 C 60.617188 12.902344 60.828125 13.109375 60.933594 13.308594 C 61.035156 13.511719 60.957031 13.886719 60.601562 14.035156 C 59.9375 14.316406 57.226562 15.460938 54.382812 16.125 Z M 54.382812 16.125 "/>
<path style=" stroke:none;fill-rule:evenodd;fill:rgb(95.294118%,8.235294%,3.529412%);fill-opacity:1;" d="M 54.902344 17.277344 C 57.433594 15.921875 60.375 14.804688 60.898438 14.679688 C 61.417969 14.554688 61.613281 14.773438 61.695312 14.984375 C 61.78125 15.191406 61.667969 15.558594 61.300781 15.683594 C 60.609375 15.910156 57.804688 16.839844 54.902344 17.277344 Z M 54.902344 17.277344 "/>
<path style=" stroke:none;fill-rule:evenodd;fill:rgb(95.294118%,8.235294%,3.529412%);fill-opacity:1;" d="M 55.324219 18.5 C 57.976562 17.351562 61.011719 16.476562 61.546875 16.390625 C 62.078125 16.308594 62.25 16.542969 62.3125 16.757812 C 62.375 16.972656 62.226562 17.332031 61.851562 17.421875 C 61.140625 17.59375 58.253906 18.296875 55.324219 18.5 Z M 55.324219 18.5 "/>
<path style=" stroke:none;fill-rule:evenodd;fill:rgb(95.294118%,8.235294%,3.529412%);fill-opacity:1;" d="M 38.480469 7.738281 C 37.691406 5.171875 37.261719 2.308594 37.265625 1.816406 C 37.265625 1.328125 37.550781 1.214844 37.792969 1.195312 C 38.039062 1.175781 38.402344 1.371094 38.433594 1.722656 C 38.5 2.386719 38.761719 5.085938 38.480469 7.738281 Z M 38.480469 7.738281 "/>
<path style=" stroke:none;fill-rule:evenodd;fill:rgb(95.294118%,8.235294%,3.529412%);fill-opacity:1;" d="M 37.09375 7.902344 C 36.058594 5.40625 35.359375 2.585938 35.3125 2.097656 C 35.265625 1.609375 35.539062 1.476562 35.777344 1.4375 C 36.019531 1.398438 36.402344 1.5625 36.46875 1.914062 C 36.597656 2.570312 37.121094 5.234375 37.09375 7.902344 Z M 37.09375 7.902344 "/>
<path style=" stroke:none;fill-rule:evenodd;fill:rgb(95.294118%,8.235294%,3.529412%);fill-opacity:1;" d="M 35.714844 8.175781 C 34.441406 5.773438 33.46875 3.023438 33.375 2.539062 C 33.28125 2.054688 33.539062 1.902344 33.777344 1.84375 C 34.011719 1.785156 34.40625 1.917969 34.507812 2.261719 C 34.703125 2.902344 35.480469 5.519531 35.714844 8.175781 Z M 35.714844 8.175781 "/>
<path style=" stroke:none;fill-rule:evenodd;fill:rgb(95.294118%,8.235294%,3.529412%);fill-opacity:1;" d="M 34.414062 8.542969 C 32.921875 6.25 31.695312 3.582031 31.558594 3.109375 C 31.417969 2.632812 31.660156 2.457031 31.890625 2.382812 C 32.121094 2.308594 32.527344 2.410156 32.660156 2.742188 C 32.914062 3.371094 33.933594 5.914062 34.414062 8.542969 Z M 34.414062 8.542969 "/>
<path style=" stroke:none;fill-rule:evenodd;fill:rgb(95.294118%,8.235294%,3.529412%);fill-opacity:1;" d="M 33.144531 9.015625 C 31.4375 6.84375 29.964844 4.28125 29.78125 3.820312 C 29.601562 3.359375 29.824219 3.167969 30.046875 3.074219 C 30.269531 2.980469 30.683594 3.050781 30.847656 3.371094 C 31.15625 3.976562 32.414062 6.433594 33.144531 9.015625 Z M 33.144531 9.015625 "/>
<path style=" stroke:none;fill-rule:evenodd;fill:rgb(95.294118%,8.235294%,3.529412%);fill-opacity:1;" d="M 31.859375 9.617188 C 29.945312 7.59375 28.226562 5.164062 27.996094 4.71875 C 27.769531 4.273438 27.976562 4.0625 28.1875 3.949219 C 28.398438 3.839844 28.816406 3.875 29.015625 4.183594 C 29.382812 4.757812 30.878906 7.105469 31.859375 9.617188 Z M 31.859375 9.617188 "/>
<path style=" stroke:none;fill-rule:evenodd;fill:rgb(95.294118%,8.235294%,3.529412%);fill-opacity:1;" d="M 30.691406 10.289062 C 28.59375 8.421875 26.644531 6.136719 26.375 5.710938 C 26.105469 5.285156 26.292969 5.058594 26.492188 4.929688 C 26.691406 4.804688 27.113281 4.808594 27.339844 5.097656 C 27.761719 5.644531 29.476562 7.863281 30.691406 10.289062 Z M 30.691406 10.289062 "/>
<path style=" stroke:none;fill-rule:evenodd;fill:rgb(95.294118%,8.235294%,3.529412%);fill-opacity:1;" d="M 29.597656 11.035156 C 27.328125 9.339844 25.175781 7.210938 24.867188 6.808594 C 24.558594 6.402344 24.722656 6.164062 24.910156 6.023438 C 25.097656 5.878906 25.515625 5.851562 25.769531 6.125 C 26.238281 6.632812 28.15625 8.710938 29.597656 11.035156 Z M 29.597656 11.035156 "/>
<path style=" stroke:none;fill-rule:evenodd;fill:rgb(95.294118%,8.235294%,3.529412%);fill-opacity:1;" d="M 28.535156 11.902344 C 26.109375 10.398438 23.753906 8.449219 23.40625 8.074219 C 23.058594 7.699219 23.199219 7.445312 23.371094 7.289062 C 23.542969 7.132812 23.960938 7.070312 24.238281 7.320312 C 24.757812 7.792969 26.871094 9.707031 28.535156 11.902344 Z M 28.535156 11.902344 "/>
<path style=" stroke:none;fill-rule:evenodd;fill:rgb(95.294118%,8.235294%,3.529412%);fill-opacity:1;" d="M 27.613281 12.792969 C 25.058594 11.476562 22.53125 9.71875 22.152344 9.367188 C 21.769531 9.019531 21.886719 8.757812 22.042969 8.589844 C 22.203125 8.417969 22.609375 8.324219 22.910156 8.554688 C 23.472656 8.984375 25.753906 10.730469 27.613281 12.792969 Z M 27.613281 12.792969 "/>
<path style=" stroke:none;fill-rule:evenodd;fill:rgb(95.294118%,8.235294%,3.529412%);fill-opacity:1;" d="M 26.734375 13.8125 C 24.058594 12.707031 21.371094 11.15625 20.957031 10.839844 C 20.542969 10.523438 20.632812 10.253906 20.773438 10.074219 C 20.914062 9.890625 21.3125 9.765625 21.632812 9.96875 C 22.234375 10.351562 24.679688 11.90625 26.734375 13.8125 Z M 26.734375 13.8125 "/>
<path style=" stroke:none;fill-rule:evenodd;fill:rgb(95.294118%,8.235294%,3.529412%);fill-opacity:1;" d="M 25.945312 14.914062 C 23.171875 14.035156 20.339844 12.710938 19.894531 12.429688 C 19.453125 12.148438 19.515625 11.871094 19.636719 11.679688 C 19.757812 11.488281 20.140625 11.328125 20.480469 11.503906 C 21.117188 11.835938 23.710938 13.1875 25.945312 14.914062 Z M 25.945312 14.914062 "/>
<path style=" stroke:none;fill-rule:evenodd;fill:rgb(95.294118%,8.235294%,3.529412%);fill-opacity:1;" d="M 25.292969 16.035156 C 22.441406 15.378906 19.492188 14.285156 19.023438 14.039062 C 18.558594 13.792969 18.589844 13.511719 18.695312 13.3125 C 18.796875 13.109375 19.164062 12.921875 19.519531 13.070312 C 20.1875 13.351562 22.894531 14.492188 25.292969 16.035156 Z M 25.292969 16.035156 "/>
<path style=" stroke:none;fill-rule:evenodd;fill:rgb(95.294118%,8.235294%,3.529412%);fill-opacity:1;" d="M 24.765625 17.160156 C 21.867188 16.71875 18.828125 15.851562 18.335938 15.644531 C 17.847656 15.433594 17.855469 15.152344 17.941406 14.945312 C 18.023438 14.738281 18.371094 14.519531 18.742188 14.644531 C 19.429688 14.871094 22.238281 15.800781 24.765625 17.160156 Z M 24.765625 17.160156 "/>
<path style=" stroke:none;fill-rule:evenodd;fill:rgb(95.294118%,8.235294%,3.529412%);fill-opacity:1;" d="M 24.3125 18.429688 C 21.382812 18.230469 18.265625 17.621094 17.757812 17.453125 C 17.25 17.285156 17.230469 17.003906 17.292969 16.789062 C 17.355469 16.574219 17.679688 16.332031 18.058594 16.421875 C 18.769531 16.59375 21.65625 17.285156 24.3125 18.429688 Z M 24.3125 18.429688 "/>
<path style=" stroke:none;fill-rule:evenodd;fill:rgb(0%,0%,0%);fill-opacity:1;" d="M 16.171875 17.691406 L 63.828125 17.691406 L 63.828125 19.261719 L 16.171875 19.261719 Z M 16.171875 17.691406 "/>
</g>
</svg>
