<?xml version="1.0" encoding="UTF-8"?>
<svg xmlns="http://www.w3.org/2000/svg" xmlns:xlink="http://www.w3.org/1999/xlink" width="80pt" height="60pt" viewBox="0 0 80 60" version="1.1">
<g id="surface1">
<path style=" stroke:none;fill-rule:evenodd;fill:rgb(90.980392%,0%,3.137255%);fill-opacity:1;" d="M 0.113281 0 L 80.113281 0 L 80.113281 60 L 0.113281 60 Z M 0.113281 0 "/>
<path style=" stroke:none;fill-rule:evenodd;fill:rgb(100%,100%,100%);fill-opacity:1;" d="M 0.113281 4.285156 L 80.113281 4.285156 L 80.113281 8.570312 L 0.113281 8.570312 Z M 0.113281 4.285156 "/>
<path style=" stroke:none;fill-rule:evenodd;fill:rgb(100%,100%,100%);fill-opacity:1;" d="M 0.113281 12.859375 L 80.113281 12.859375 L 80.113281 17.144531 L 0.113281 17.144531 Z M 0.113281 12.859375 "/>
<path style=" stroke:none;fill-rule:evenodd;fill:rgb(100%,100%,100%);fill-opacity:1;" d="M 0.113281 21.429688 L 80.113281 21.429688 L 80.113281 25.714844 L 0.113281 25.714844 Z M 0.113281 21.429688 "/>
<path style=" stroke:none;fill-rule:evenodd;fill:rgb(100%,100%,100%);fill-opacity:1;" d="M 0.113281 30 L 80.113281 30 L 80.113281 34.285156 L 0.113281 34.285156 Z M 0.113281 30 "/>
<path style=" stroke:none;fill-rule:evenodd;fill:rgb(100%,100%,100%);fill-opacity:1;" d="M 0.113281 38.570312 L 80.113281 38.570312 L 80.113281 42.855469 L 0.113281 42.855469 Z M 0.113281 38.570312 "/>
<path style=" stroke:none;fill-rule:evenodd;fill:rgb(100%,100%,100%);fill-opacity:1;" d="M 0.113281 47.140625 L 80.113281 47.140625 L 80.113281 51.429688 L 0.113281 51.429688 Z M 0.113281 47.140625 "/>
<path style=" stroke:none;fill-rule:evenodd;fill:rgb(100%,100%,100%);fill-opacity:1;" d="M 0.113281 55.714844 L 80.113281 55.714844 L 80.113281 60 L 0.113281 60 Z M 0.113281 55.714844 "/>
<path style=" stroke:none;fill-rule:evenodd;fill:rgb(0%,2.352941%,53.72549%);fill-opacity:1;" d="M 0 0 L 30.644531 0 L 30.644531 17.671875 L 0 17.671875 Z M 0 0 "/>
<path style=" stroke:none;fill-rule:evenodd;fill:rgb(100%,93.333333%,0%);fill-opacity:1;" d="M 15.558594 15.023438 C 12.261719 16.855469 8.140625 15.617188 6.355469 12.292969 C 4.574219 8.96875 5.804688 4.816406 9.101562 3.019531 C 11.140625 1.910156 13.382812 1.886719 15.414062 2.980469 C 14.265625 2.703125 13.242188 2.71875 12.128906 3.050781 C 8.882812 4.011719 7.019531 7.476562 7.964844 10.78125 C 8.910156 14.085938 12.3125 15.984375 15.558594 15.023438 Z M 15.558594 15.023438 "/>
<path style=" stroke:none;fill-rule:evenodd;fill:rgb(100%,93.333333%,0%);fill-opacity:1;" d="M 21.121094 6.78125 L 24.601562 4.804688 L 21.835938 7.699219 L 25.832031 7.429688 L 22.082031 8.835938 L 25.800781 10.328125 L 21.8125 9.96875 L 24.515625 12.921875 L 21.078125 10.871094 L 22.230469 14.707031 L 20.023438 11.363281 L 19.398438 15.320312 L 18.859375 11.351562 L 16.582031 14.644531 L 17.816406 10.835938 L 14.335938 12.8125 L 17.101562 9.917969 L 13.105469 10.191406 L 16.855469 8.78125 L 13.136719 7.292969 L 17.125 7.648438 L 14.421875 4.695312 L 17.859375 6.746094 L 16.707031 2.914062 L 18.914062 6.253906 L 19.539062 2.300781 L 20.078125 6.265625 L 22.355469 2.972656 Z M 21.121094 6.78125 "/>
</g>
</svg>
