<?xml version="1.0" encoding="UTF-8"?>
<svg xmlns="http://www.w3.org/2000/svg" xmlns:xlink="http://www.w3.org/1999/xlink" width="80pt" height="60pt" viewBox="0 0 80 60" version="1.1">
<g id="surface1">
<rect x="0" y="0" width="80" height="60" style="fill:rgb(100%,100%,100%);fill-opacity:1;stroke:none;"/>
<path style=" stroke:none;fill-rule:evenodd;fill:rgb(100%,100%,100%);fill-opacity:1;" d="M 11.558594 0 L 71.207031 0 L 71.207031 60 L 11.558594 60 Z M 11.558594 0 "/>
<path style=" stroke:none;fill-rule:evenodd;fill:rgb(85.882353%,0%,0%);fill-opacity:1;" d="M 40.382812 0.457031 L 85.132812 0.457031 L 85.132812 28.167969 L 40.382812 28.167969 Z M 40.382812 0.457031 "/>
<path style=" stroke:none;fill-rule:evenodd;fill:rgb(0%,0%,67.058824%);fill-opacity:1;" d="M 0.402344 28.167969 L 40.386719 28.167969 L 40.386719 60 L 0.402344 60 Z M 0.402344 28.167969 "/>
<path style=" stroke:none;fill-rule:evenodd;fill:rgb(0%,0%,67.058824%);fill-opacity:1;" d="M 26.851562 22.207031 L 21.605469 18.539062 L 16.386719 22.242188 L 18.328125 16.226562 L 13.117188 12.511719 L 19.5625 12.460938 L 21.5625 6.464844 L 23.605469 12.445312 L 30.050781 12.453125 L 24.867188 16.203125 Z M 26.851562 22.207031 "/>
<path style=" stroke:none;fill-rule:evenodd;fill:rgb(84.705882%,0%,0%);fill-opacity:1;" d="M 64.605469 51.734375 L 59.3125 48.269531 L 54.042969 51.769531 L 56.003906 46.078125 L 50.746094 42.566406 L 57.25 42.515625 L 59.269531 36.84375 L 61.328125 42.503906 L 67.835938 42.511719 L 62.605469 46.058594 Z M 64.605469 51.734375 "/>
</g>
</svg>
