<?xml version="1.0" encoding="UTF-8"?>
<svg xmlns="http://www.w3.org/2000/svg" xmlns:xlink="http://www.w3.org/1999/xlink" width="80pt" height="60pt" viewBox="0 0 80 60" version="1.1">
<g id="surface1">
<path style=" stroke:none;fill-rule:evenodd;fill:rgb(0%,0%,83.921569%);fill-opacity:1;" d="M 0 59.433594 L 115.714844 0 L 0 0 Z M 0 59.433594 "/>
<path style=" stroke:none;fill-rule:evenodd;fill:rgb(0%,37.647059%,0%);fill-opacity:1;" d="M 120 0 L 3.183594 60 L 120 60 Z M 120 0 "/>
<path style=" stroke:none;fill-rule:evenodd;fill:rgb(100%,80%,0%);fill-opacity:1;" d="M 120 0 L 113.570312 0 L 0 56.878906 L 0 60 L 6.429688 60 L 120 3.234375 Z M 120 0 "/>
<path style=" stroke:none;fill-rule:evenodd;fill:rgb(100%,100%,100%);fill-opacity:1;" d="M 8.367188 1.070312 L 9.757812 5.105469 L 14.265625 5.101562 L 10.613281 7.59375 L 12.011719 11.628906 L 8.367188 9.128906 L 4.722656 11.625 L 6.117188 7.59375 L 2.46875 5.101562 L 6.976562 5.105469 Z M 8.367188 1.070312 "/>
<path style=" stroke:none;fill-rule:evenodd;fill:rgb(100%,100%,100%);fill-opacity:1;" d="M 30.765625 1.070312 L 32.15625 5.105469 L 36.664062 5.101562 L 33.015625 7.59375 L 34.410156 11.628906 L 30.765625 9.128906 L 27.121094 11.625 L 28.519531 7.59375 L 24.867188 5.101562 L 29.375 5.105469 Z M 30.765625 1.070312 "/>
<path style=" stroke:none;fill-rule:evenodd;fill:rgb(100%,100%,100%);fill-opacity:1;" d="M 30.765625 18 L 32.15625 22.035156 L 36.664062 22.035156 L 33.015625 24.523438 L 34.410156 28.558594 L 30.765625 26.0625 L 27.121094 28.558594 L 28.519531 24.523438 L 24.867188 22.03125 L 29.375 22.035156 Z M 30.765625 18 "/>
<path style=" stroke:none;fill-rule:evenodd;fill:rgb(100%,100%,100%);fill-opacity:1;" d="M 19.632812 9.632812 L 21.023438 13.667969 L 25.53125 13.667969 L 21.878906 16.15625 L 23.277344 20.191406 L 19.632812 17.695312 L 15.984375 20.191406 L 17.382812 16.15625 L 13.734375 13.664062 L 18.242188 13.667969 Z M 19.632812 9.632812 "/>
<path style=" stroke:none;fill-rule:evenodd;fill:rgb(100%,100%,100%);fill-opacity:1;" d="M 8.367188 18 L 9.757812 22.035156 L 14.265625 22.035156 L 10.613281 24.523438 L 12.011719 28.558594 L 8.367188 26.0625 L 4.722656 28.558594 L 6.117188 24.523438 L 2.46875 22.03125 L 6.976562 22.035156 Z M 8.367188 18 "/>
</g>
</svg>
