<?xml version="1.0" encoding="UTF-8"?>
<svg xmlns="http://www.w3.org/2000/svg" xmlns:xlink="http://www.w3.org/1999/xlink" width="80pt" height="60pt" viewBox="0 0 80 60" version="1.1">
<g id="surface1">
<rect x="0" y="0" width="80" height="60" style="fill:rgb(100%,0%,0%);fill-opacity:1;stroke:none;"/>
<path style=" stroke:none;fill-rule:evenodd;fill:rgb(0%,60%,0%);fill-opacity:1;" d="M 0 60 L 116.265625 40 L 116.265625 60 Z M 0 60 "/>
<path style=" stroke:none;fill-rule:evenodd;fill:rgb(100%,100%,100%);fill-opacity:1;" d="M 0 60 L 116.265625 20 L 116.265625 40 Z M 0 60 "/>
<path style=" stroke:none;fill-rule:evenodd;fill:rgb(0%,0%,60%);fill-opacity:1;" d="M 0 60 L 0 0 L 38.753906 0 Z M 0 60 "/>
<path style=" stroke:none;fill-rule:evenodd;fill:rgb(100%,100%,0%);fill-opacity:1;" d="M 0 60 L 38.753906 0 L 77.511719 0 Z M 0 60 "/>
</g>
</svg>
