<?xml version="1.0" encoding="UTF-8"?>
<svg xmlns="http://www.w3.org/2000/svg" xmlns:xlink="http://www.w3.org/1999/xlink" width="80pt" height="60pt" viewBox="0 0 80 60" version="1.1">
<g id="surface1">
<rect x="0" y="0" width="80" height="60" style="fill:rgb(100%,100%,100%);fill-opacity:1;stroke:none;"/>
<path style=" stroke:none;fill-rule:evenodd;fill:rgb(87.058824%,16.078431%,9.411765%);fill-opacity:1;" d="M -5.5 40 L 114.5 40 L 114.5 60 L -5.5 60 Z M -5.5 40 "/>
<path style=" stroke:none;fill-rule:evenodd;fill:rgb(3.137255%,22.352941%,61.176471%);fill-opacity:1;" d="M -5.5 20 L 114.5 20 L 114.5 40 L -5.5 40 Z M -5.5 20 "/>
<path style=" stroke:none;fill-rule:evenodd;fill:rgb(87.058824%,16.078431%,9.411765%);fill-opacity:1;" d="M 28.527344 10.894531 C 28.058594 18.121094 27.785156 22.078125 26.6875 23.910156 C 25.496094 25.878906 24.339844 27.320312 19.699219 29.054688 C 15.058594 27.320312 13.902344 25.878906 12.710938 23.910156 C 11.609375 22.078125 11.339844 18.121094 10.871094 10.894531 L 11.554688 10.664062 C 12.9375 10.242188 13.964844 9.90625 14.730469 9.753906 C 15.820312 9.523438 16.746094 9.261719 19.679688 9.203125 C 22.613281 9.25 23.546875 9.527344 24.636719 9.761719 C 25.394531 9.921875 26.46875 10.238281 27.839844 10.667969 Z M 28.527344 10.894531 "/>
<path style=" stroke:none;fill-rule:evenodd;fill:rgb(3.137255%,22.352941%,61.176471%);fill-opacity:1;" d="M 27.851562 10.660156 C 27.40625 17.867188 27.035156 21.167969 26.453125 22.757812 C 25.324219 25.476562 23.539062 26.964844 19.695312 28.386719 C 15.851562 26.964844 14.066406 25.472656 12.9375 22.753906 C 12.355469 21.167969 11.988281 17.875 11.554688 10.648438 C 12.90625 10.226562 13.96875 9.898438 14.730469 9.746094 C 15.820312 9.515625 16.746094 9.246094 19.679688 9.195312 C 22.613281 9.246094 23.550781 9.515625 24.644531 9.746094 C 25.40625 9.898438 26.488281 10.226562 27.851562 10.65625 Z M 27.851562 10.660156 "/>
<path style=" stroke:none;fill-rule:evenodd;fill:rgb(100%,80%,0%);fill-opacity:1;" d="M 19.691406 12.867188 L 19.875 13.300781 L 20.683594 13.414062 L 20.160156 13.730469 L 20.667969 14.070312 L 19.929688 14.191406 L 19.703125 14.585938 L 19.453125 14.179688 L 18.75 14.082031 L 19.226562 13.734375 L 18.734375 13.417969 L 19.511719 13.300781 Z M 19.691406 12.867188 "/>
<path style=" stroke:none;fill-rule:evenodd;fill:rgb(100%,100%,100%);fill-opacity:1;" d="M 26.171875 21.050781 L 25.722656 20.695312 L 25.398438 20.160156 L 24.765625 19.609375 L 24.433594 19.050781 L 23.796875 18.484375 L 23.488281 17.925781 L 23.148438 17.652344 L 22.925781 17.441406 L 22.351562 17.941406 L 22.039062 18.488281 L 21.648438 18.84375 L 21.222656 18.507812 L 20.898438 17.9375 L 19.695312 15.804688 L 18.492188 17.9375 L 18.167969 18.507812 L 17.742188 18.84375 L 17.351562 18.488281 L 17.039062 17.941406 L 16.464844 17.441406 L 16.242188 17.652344 L 15.902344 17.925781 L 15.59375 18.484375 L 14.957031 19.050781 L 14.625 19.609375 L 13.992188 20.160156 L 13.664062 20.695312 L 13.21875 21.058594 C 13.449219 23.035156 14.710938 24.585938 15.398438 25.296875 C 16.167969 26.039062 17.746094 27.039062 19.679688 27.695312 C 21.621094 27.050781 23.222656 26.039062 23.992188 25.296875 C 24.679688 24.585938 25.941406 23.035156 26.171875 21.050781 Z M 26.171875 21.050781 "/>
<path style=" stroke:none;fill-rule:evenodd;fill:rgb(100%,80%,0%);fill-opacity:1;" d="M 21.625 9.832031 L 21.808594 10.265625 L 22.617188 10.378906 L 22.09375 10.695312 L 22.601562 11.035156 L 21.863281 11.15625 L 21.636719 11.550781 L 21.382812 11.144531 L 20.683594 11.046875 L 21.160156 10.699219 L 20.667969 10.382812 L 21.445312 10.265625 L 21.621094 9.832031 Z M 21.625 9.832031 "/>
<path style=" stroke:none;fill-rule:evenodd;fill:rgb(100%,80%,0%);fill-opacity:1;" d="M 17.757812 9.824219 L 17.941406 10.261719 L 18.753906 10.371094 L 18.226562 10.6875 L 18.734375 11.027344 L 17.996094 11.152344 L 17.773438 11.546875 L 17.519531 11.140625 L 16.816406 11.039062 L 17.296875 10.691406 L 16.804688 10.378906 L 17.582031 10.257812 Z M 17.757812 9.824219 "/>
<path style=" stroke:none;fill-rule:evenodd;fill:rgb(3.137255%,22.352941%,61.176471%);fill-opacity:1;" d="M 25.171875 23.792969 L 24.296875 23.796875 L 23.488281 23.734375 L 22.507812 23.253906 L 21.40625 23.261719 L 20.453125 23.726562 L 19.699219 23.796875 L 18.945312 23.726562 L 17.992188 23.261719 L 16.886719 23.253906 L 15.910156 23.734375 L 15.101562 23.796875 L 14.214844 23.78125 L 13.789062 23.058594 L 13.804688 23.042969 L 15.113281 23.257812 L 15.921875 23.199219 L 16.898438 22.71875 L 18 22.726562 L 18.957031 23.191406 L 19.710938 23.257812 L 20.460938 23.191406 L 21.417969 22.726562 L 22.519531 22.71875 L 23.5 23.199219 L 24.304688 23.257812 L 25.582031 23.035156 L 25.597656 23.066406 Z M 25.171875 23.792969 "/>
<path style=" stroke:none;fill-rule:evenodd;fill:rgb(3.137255%,22.352941%,61.176471%);fill-opacity:1;" d="M 15.039062 24.90625 L 15.902344 24.847656 L 16.882812 24.367188 L 17.984375 24.375 L 18.9375 24.839844 L 19.691406 24.90625 L 20.445312 24.839844 L 21.402344 24.375 L 22.503906 24.367188 L 23.480469 24.847656 L 24.359375 24.90625 L 24.925781 24.207031 L 24.90625 24.191406 L 24.300781 24.371094 L 23.492188 24.308594 L 22.515625 23.828125 L 21.410156 23.835938 L 20.457031 24.304688 L 19.703125 24.371094 L 18.949219 24.304688 L 17.996094 23.835938 L 16.894531 23.828125 L 15.914062 24.308594 L 15.105469 24.371094 L 14.511719 24.21875 L 14.503906 24.25 L 15.035156 24.90625 Z M 15.039062 24.90625 "/>
</g>
</svg>
