<?xml version="1.0" encoding="UTF-8"?>
<svg xmlns="http://www.w3.org/2000/svg" xmlns:xlink="http://www.w3.org/1999/xlink" width="80pt" height="60pt" viewBox="0 0 80 60" version="1.1">
<defs>
<g>
<symbol overflow="visible" id="glyph0-0">
<path style="stroke:none;" d="M 0.09375 0.359375 L 0.09375 -1.40625 L 1.09375 -1.40625 L 1.09375 0.359375 Z M 0.21875 0.25 L 0.984375 0.25 L 0.984375 -1.296875 L 0.21875 -1.296875 Z M 0.21875 0.25 "/>
</symbol>
<symbol overflow="visible" id="glyph0-1">
<path style="stroke:none;" d="M 0.09375 0 L 0.09375 -0.125 L 0.28125 -0.125 L 0.28125 -1.34375 L 0.09375 -1.34375 L 0.09375 -1.453125 L 0.84375 -1.453125 L 0.84375 -1.34375 L 0.65625 -1.34375 L 0.65625 -0.140625 L 1.234375 -0.140625 L 1.234375 -0.359375 L 1.359375 -0.359375 L 1.359375 0 Z M 0.09375 0 "/>
</symbol>
<symbol overflow="visible" id="glyph0-2">
<path style="stroke:none;" d=""/>
</symbol>
<symbol overflow="visible" id="glyph0-3">
<path style="stroke:none;" d="M 0.09375 0 L 0.09375 -0.125 L 0.28125 -0.125 L 0.28125 -1.34375 L 0.09375 -1.34375 L 0.09375 -1.453125 L 0.84375 -1.453125 L 0.84375 -1.34375 L 0.65625 -1.34375 L 0.65625 -0.125 L 0.84375 -0.125 L 0.84375 0 Z M 0.09375 0 "/>
</symbol>
<symbol overflow="visible" id="glyph0-4">
<path style="stroke:none;" d="M 0.09375 0 L 0.09375 -0.125 L 0.28125 -0.125 L 0.28125 -1.34375 L 0.09375 -1.34375 L 0.09375 -1.453125 L 0.953125 -1.453125 C 1.128906 -1.453125 1.265625 -1.421875 1.359375 -1.359375 C 1.453125 -1.304688 1.5 -1.21875 1.5 -1.09375 C 1.5 -1.007812 1.46875 -0.941406 1.40625 -0.890625 C 1.34375 -0.835938 1.25 -0.804688 1.125 -0.796875 C 1.269531 -0.785156 1.378906 -0.742188 1.453125 -0.671875 C 1.535156 -0.609375 1.578125 -0.523438 1.578125 -0.421875 C 1.578125 -0.273438 1.519531 -0.164062 1.40625 -0.09375 C 1.300781 -0.03125 1.132812 0 0.90625 0 Z M 0.65625 -0.84375 L 0.78125 -0.84375 C 0.894531 -0.84375 0.976562 -0.863281 1.03125 -0.90625 C 1.082031 -0.945312 1.109375 -1.007812 1.109375 -1.09375 C 1.109375 -1.175781 1.082031 -1.238281 1.03125 -1.28125 C 0.976562 -1.320312 0.894531 -1.34375 0.78125 -1.34375 L 0.65625 -1.34375 Z M 0.65625 -0.125 L 0.796875 -0.125 C 0.921875 -0.125 1.007812 -0.144531 1.0625 -0.1875 C 1.125 -0.238281 1.15625 -0.316406 1.15625 -0.421875 C 1.15625 -0.523438 1.125 -0.601562 1.0625 -0.65625 C 1.007812 -0.707031 0.921875 -0.734375 0.796875 -0.734375 L 0.65625 -0.734375 Z M 0.65625 -0.125 "/>
</symbol>
<symbol overflow="visible" id="glyph0-5">
<path style="stroke:none;" d="M 0.09375 0 L 0.09375 -0.125 L 0.28125 -0.125 L 0.28125 -1.34375 L 0.09375 -1.34375 L 0.09375 -1.453125 L 1.40625 -1.453125 L 1.40625 -1.109375 L 1.265625 -1.109375 L 1.265625 -1.328125 L 0.65625 -1.328125 L 0.65625 -0.859375 L 1.03125 -0.859375 L 1.03125 -1.046875 L 1.171875 -1.046875 L 1.171875 -0.53125 L 1.03125 -0.53125 L 1.03125 -0.71875 L 0.65625 -0.71875 L 0.65625 -0.140625 L 1.28125 -0.140625 L 1.28125 -0.34375 L 1.421875 -0.34375 L 1.421875 0 Z M 0.09375 0 "/>
</symbol>
<symbol overflow="visible" id="glyph0-6">
<path style="stroke:none;" d="M 1.0625 -0.71875 C 1.125 -0.707031 1.171875 -0.6875 1.203125 -0.65625 C 1.242188 -0.625 1.28125 -0.582031 1.3125 -0.53125 L 1.53125 -0.125 L 1.671875 -0.125 L 1.671875 0 L 1.1875 0 L 0.96875 -0.4375 C 0.914062 -0.53125 0.875 -0.585938 0.84375 -0.609375 C 0.8125 -0.640625 0.769531 -0.65625 0.71875 -0.65625 L 0.65625 -0.65625 L 0.65625 -0.125 L 0.84375 -0.125 L 0.84375 0 L 0.09375 0 L 0.09375 -0.125 L 0.28125 -0.125 L 0.28125 -1.34375 L 0.09375 -1.34375 L 0.09375 -1.453125 L 0.921875 -1.453125 C 1.097656 -1.453125 1.226562 -1.414062 1.3125 -1.34375 C 1.40625 -1.28125 1.453125 -1.1875 1.453125 -1.0625 C 1.453125 -0.96875 1.421875 -0.890625 1.359375 -0.828125 C 1.296875 -0.765625 1.195312 -0.726562 1.0625 -0.71875 Z M 0.65625 -0.765625 L 0.78125 -0.765625 C 0.875 -0.765625 0.941406 -0.789062 0.984375 -0.84375 C 1.035156 -0.894531 1.0625 -0.96875 1.0625 -1.0625 C 1.0625 -1.144531 1.035156 -1.210938 0.984375 -1.265625 C 0.941406 -1.316406 0.875 -1.34375 0.78125 -1.34375 L 0.65625 -1.34375 Z M 0.65625 -0.765625 "/>
</symbol>
<symbol overflow="visible" id="glyph0-7">
<path style="stroke:none;" d="M 0.359375 0 L 0.359375 -0.125 L 0.5625 -0.125 L 0.5625 -1.328125 L 0.15625 -1.328125 L 0.15625 -1.09375 L 0.015625 -1.09375 L 0.015625 -1.453125 L 1.46875 -1.453125 L 1.46875 -1.09375 L 1.34375 -1.09375 L 1.34375 -1.328125 L 0.9375 -1.328125 L 0.9375 -0.125 L 1.125 -0.125 L 1.125 0 Z M 0.359375 0 "/>
</symbol>
<symbol overflow="visible" id="glyph0-8">
<path style="stroke:none;" d="M -0.015625 0 L -0.015625 -0.125 L 0.109375 -0.125 L 0.65625 -1.453125 L 0.890625 -1.453125 L 1.4375 -0.125 L 1.578125 -0.125 L 1.578125 0 L 0.890625 0 L 0.890625 -0.125 L 1.03125 -0.125 L 0.921875 -0.421875 L 0.359375 -0.421875 L 0.25 -0.125 L 0.421875 -0.125 L 0.421875 0 Z M 0.421875 -0.53125 L 0.859375 -0.53125 L 0.640625 -1.09375 Z M 0.421875 -0.53125 "/>
</symbol>
<symbol overflow="visible" id="glyph0-9">
<path style="stroke:none;" d="M 0.15625 -0.078125 L 0.15625 -0.421875 L 0.28125 -0.421875 C 0.300781 -0.304688 0.34375 -0.222656 0.40625 -0.171875 C 0.476562 -0.117188 0.578125 -0.09375 0.703125 -0.09375 C 0.804688 -0.09375 0.882812 -0.109375 0.9375 -0.140625 C 0.988281 -0.179688 1.015625 -0.238281 1.015625 -0.3125 C 1.015625 -0.375 0.992188 -0.421875 0.953125 -0.453125 C 0.921875 -0.484375 0.847656 -0.515625 0.734375 -0.546875 L 0.515625 -0.59375 C 0.378906 -0.632812 0.28125 -0.6875 0.21875 -0.75 C 0.15625 -0.8125 0.125 -0.90625 0.125 -1.03125 C 0.125 -1.175781 0.171875 -1.285156 0.265625 -1.359375 C 0.367188 -1.441406 0.507812 -1.484375 0.6875 -1.484375 C 0.769531 -1.484375 0.851562 -1.472656 0.9375 -1.453125 C 1.03125 -1.441406 1.128906 -1.425781 1.234375 -1.40625 L 1.234375 -1.078125 L 1.109375 -1.078125 C 1.085938 -1.179688 1.046875 -1.253906 0.984375 -1.296875 C 0.921875 -1.335938 0.832031 -1.359375 0.71875 -1.359375 C 0.613281 -1.359375 0.535156 -1.34375 0.484375 -1.3125 C 0.441406 -1.28125 0.421875 -1.234375 0.421875 -1.171875 C 0.421875 -1.109375 0.4375 -1.0625 0.46875 -1.03125 C 0.5 -1 0.582031 -0.96875 0.71875 -0.9375 L 0.9375 -0.875 C 1.070312 -0.84375 1.171875 -0.789062 1.234375 -0.71875 C 1.296875 -0.644531 1.328125 -0.546875 1.328125 -0.421875 C 1.328125 -0.273438 1.273438 -0.160156 1.171875 -0.078125 C 1.066406 -0.00390625 0.914062 0.03125 0.71875 0.03125 C 0.625 0.03125 0.53125 0.0195312 0.4375 0 C 0.34375 -0.0078125 0.25 -0.0351562 0.15625 -0.078125 Z M 0.15625 -0.078125 "/>
</symbol>
</g>
</defs>
<g id="surface1">
<path style=" stroke:none;fill-rule:evenodd;fill:rgb(9.803922%,71.372549%,93.72549%);fill-opacity:1;" d="M 0 30 L 80 30 L 80 60 L 0 60 Z M 0 30 "/>
<path style=" stroke:none;fill-rule:evenodd;fill:rgb(100%,100%,100%);fill-opacity:1;" d="M 0 0 L 80 0 L 80 30 L 0 30 Z M 0 0 "/>
<path style="fill-rule:evenodd;fill:rgb(100%,86.666667%,0%);fill-opacity:1;stroke-width:1.333375;stroke-linecap:butt;stroke-linejoin:miter;stroke:rgb(49.019608%,42.352941%,0%);stroke-opacity:1;stroke-miterlimit:4;" d="M 469.455784 343.698595 C 500.955304 320.134928 534.874977 272.06955 495.12067 246.798643 C 487.710122 245.372816 479.455334 245.785556 475.478027 248.956145 C 473.376809 247.755448 471.70709 247.849253 469.605871 250.100558 C 468.123762 248.280753 466.641652 247.474035 463.583629 248.374557 C 457.467581 245.260251 451.933121 244.60362 444.653899 246.51723 C 410.058834 267.304286 431.239869 316.607883 469.455784 343.698595 Z M 469.455784 343.698595 " transform="matrix(0.208212,0,0,0.208212,-58.11375,-29.16)"/>
<path style="fill-rule:evenodd;fill:rgb(30.980392%,83.137255%,41.960784%);fill-opacity:1;stroke-width:1.333375;stroke-linecap:butt;stroke-linejoin:round;stroke:rgb(22.745098%,61.568627%,30.980392%);stroke-opacity:1;stroke-miterlimit:4;" d="M 527.708321 290.192562 C 527.708321 290.192562 531.235367 285.427298 531.366693 285.427298 C 534.912499 283.363601 535.268956 280.662034 535.268956 280.662034 C 538.814763 279.573903 537.726631 276.628444 537.970523 276.271988 C 539.677763 274.433421 539.058654 272.594855 538.814763 271.994507 C 538.814763 271.506724 540.03422 266.985352 538.32698 266.366242 C 538.420784 261.563457 535.437804 262.013718 533.073933 265.146785 C 530.559975 265.87846 529.978387 267.960917 530.87891 270.287267 C 527.576995 270.287267 527.445668 275.05253 528.439995 277.735336 C 524.031188 277.60401 526.470103 282.5006 526.357537 282.744492 C 524.894189 283.476166 527.445668 290.436453 527.708321 290.192562 Z M 527.708321 290.192562 " transform="matrix(0.208212,0,0,0.208212,-58.11375,-29.16)"/>
<path style="fill-rule:evenodd;fill:rgb(30.980392%,83.137255%,41.960784%);fill-opacity:1;stroke-width:1.333375;stroke-linecap:butt;stroke-linejoin:round;stroke:rgb(22.745098%,61.568627%,30.980392%);stroke-opacity:1;stroke-miterlimit:4;" d="M 499.942216 331.147566 C 500.673891 331.579066 501.424326 332.029327 502.156 332.479588 C 502.606262 334.149307 504.144654 335.218677 505.326589 334.937264 C 505.889416 337.488743 508.666026 337.132287 510.710962 335.668938 C 512.343159 338.032809 514.331812 338.070331 517.05214 337.244852 C 519.509816 339.045897 522.680405 338.2767 524.762862 336.400612 C 526.995407 338.220418 528.515039 336.888395 529.640692 334.937264 C 531.404214 335.368764 532.773759 335.087351 533.43039 333.342589 C 536.863631 333.061175 535.13763 329.834304 532.342259 328.445999 C 534.574803 326.494867 537.070001 322.461278 533.561716 321.860929 C 532.454824 321.035451 530.372366 321.204298 528.796452 321.973495 C 528.383713 320.191211 525.907276 319.74095 523.168188 321.729603 C 522.230143 319.74095 518.96575 320.678994 517.427358 322.104821 C 515.476226 320.37882 513.149877 320.37882 509.735397 322.348712 Z M 499.942216 331.147566 " transform="matrix(0.208212,0,0,0.208212,-58.11375,-29.16)"/>
<path style="fill-rule:evenodd;fill:rgb(30.980392%,83.137255%,41.960784%);fill-opacity:1;stroke-width:1.333375;stroke-linecap:butt;stroke-linejoin:round;stroke:rgb(22.745098%,61.568627%,30.980392%);stroke-opacity:1;stroke-miterlimit:4;" d="M 499.942216 325.894519 C 500.354956 323.643213 498.816564 319.572102 501.180435 319.178123 C 500.730174 315.425947 501.368043 311.185988 505.701807 311.598727 C 506.39596 308.052921 506.227112 304.751006 510.335745 304.263223 C 510.335745 304.263223 513.63766 292.762802 517.05214 300.717416 C 518.402924 303.043765 518.159032 306.833463 515.476226 306.083028 C 516.001531 308.934682 515.063487 311.429879 511.93042 311.354836 C 513.318725 313.343489 512.868464 316.063817 511.311311 317.339557 C 507.521613 320.191211 503.731915 323.042865 499.942216 325.894519 Z M 499.942216 325.894519 " transform="matrix(0.208212,0,0,0.208212,-58.11375,-29.16)"/>
<path style="fill-rule:evenodd;fill:rgb(30.980392%,83.137255%,41.960784%);fill-opacity:1;stroke-width:1.333375;stroke-linecap:butt;stroke-linejoin:round;stroke:rgb(22.745098%,61.568627%,30.980392%);stroke-opacity:1;stroke-miterlimit:4;" d="M 519.866272 311.598727 C 521.048208 311.354836 522.230143 311.092183 523.412079 310.848292 C 527.089212 308.409377 528.55256 307.433812 530.372366 310.116618 C 533.43039 309.478748 536.375848 309.797683 536.244522 312.199075 C 539.865372 312.442967 539.82785 314.769316 539.415111 316.607883 C 539.996698 319.815993 538.608393 324.018431 536.375848 318.915471 C 529.284235 314.600468 525.250645 315.182056 514.012877 317.696014 C 515.964009 315.669839 517.915141 313.624902 519.866272 311.598727 Z M 519.866272 311.598727 " transform="matrix(0.208212,0,0,0.208212,-58.11375,-29.16)"/>
<path style="fill-rule:evenodd;fill:rgb(30.980392%,83.137255%,41.960784%);fill-opacity:1;stroke-width:1.333375;stroke-linecap:butt;stroke-linejoin:round;stroke:rgb(22.745098%,61.568627%,30.980392%);stroke-opacity:1;stroke-miterlimit:4;" d="M 521.704839 308.03416 C 521.836165 307.921595 532.210932 305.220028 531.122801 302.049439 C 534.049499 301.561656 534.668608 298.634958 534.781173 298.634958 C 540.89722 296.683827 540.522003 293.13802 540.522003 293.13802 C 542.285526 291.261932 545.381071 289.385844 544.686918 286.046407 C 544.893288 282.256709 545.212223 279.93036 540.165546 282.369274 C 536.375848 282.012817 535.025065 284.207841 533.936933 287.509756 C 532.135889 285.389776 529.246713 288.766735 528.927778 291.787237 C 528.927778 291.787237 524.27508 296.308609 524.27508 296.421174 C 524.27508 296.5525 520.372816 303.644114 520.372816 303.644114 C 520.823077 305.107462 521.254578 306.570811 521.704839 308.03416 Z M 521.704839 308.03416 " transform="matrix(0.208212,0,0,0.208212,-58.11375,-29.16)"/>
<path style="fill-rule:evenodd;fill:rgb(30.980392%,83.137255%,41.960784%);fill-opacity:1;stroke-width:1.333375;stroke-linecap:butt;stroke-linejoin:round;stroke:rgb(22.745098%,61.568627%,30.980392%);stroke-opacity:1;stroke-miterlimit:4;" d="M 521.94873 299.985742 C 519.472294 298.109654 518.083989 295.858348 518.53425 293.625803 C 516.902053 291.43078 515.757639 290.079996 517.314793 288.128865 C 517.314793 288.128865 516.076574 283.720058 516.076574 283.607492 C 512.905985 282.388035 514.256769 279.686468 515.101009 278.710902 C 513.600138 276.647205 513.562616 274.433421 514.988443 272.48229 C 514.950922 268.580026 517.708771 270.043375 519.997599 272.48229 C 519.997599 272.48229 523.787297 275.165096 520.973164 277.622771 C 523.787297 278.598337 524.631536 281.037252 523.055622 282.012817 C 525.494537 283.119709 525.850994 285.314733 524.518971 286.778081 C 526.995407 288.785496 526.057363 291.261932 526.84532 293.494477 C 525.213124 295.670739 523.580927 297.82824 521.94873 299.985742 Z M 521.94873 299.985742 " transform="matrix(0.208212,0,0,0.208212,-58.11375,-29.16)"/>
<path style="fill-rule:evenodd;fill:rgb(30.980392%,83.137255%,41.960784%);fill-opacity:1;stroke-width:1.333375;stroke-linecap:butt;stroke-linejoin:round;stroke:rgb(22.745098%,61.568627%,30.980392%);stroke-opacity:1;stroke-miterlimit:4;" d="M 526.357537 281.768926 C 526.226211 281.656361 522.192622 276.515879 523.299514 276.140662 C 523.055622 274.564748 521.836165 272.838746 522.567839 271.262832 C 520.560425 269.255418 520.522903 266.910308 522.080056 265.03422 C 520.729273 263.195653 521.348382 260.756739 523.168188 259.162064 C 522.605361 256.141562 524.725341 255.447409 526.601429 254.884583 C 527.970973 250.044276 530.222279 251.301255 531.479258 254.997148 C 533.392868 256.666867 533.111455 259.199586 532.454824 261.113196 C 534.743651 262.670349 533.355346 264.583959 532.342259 265.390677 C 530.334844 270.850093 528.346191 276.30951 526.357537 281.768926 Z M 526.357537 281.768926 " transform="matrix(0.208212,0,0,0.208212,-58.11375,-29.16)"/>
<path style="fill-rule:evenodd;fill:rgb(30.980392%,83.137255%,41.960784%);fill-opacity:1;stroke-width:1.333375;stroke-linecap:butt;stroke-linejoin:round;stroke:rgb(22.745098%,61.568627%,30.980392%);stroke-opacity:1;stroke-miterlimit:4;" d="M 525.738428 255.972714 L 522.323948 252.558234 C 523.205709 250.738428 523.918623 247.549078 521.348382 246.08573 C 519.922555 242.633728 512.830942 238.337486 511.686528 246.573513 C 510.598397 244.078315 508.347091 241.639401 506.677373 244.491055 C 502.962718 241.320466 500.974065 242.296032 502.887675 246.329621 C 502.887675 246.329621 501.180435 249.012427 505.701807 251.094885 C 506.058264 251.451342 504.238458 255.972714 509.60407 256.10404 C 508.590983 257.642433 510.260701 259.799934 512.418203 259.649847 C 510.87981 261.563457 513.487573 263.589632 515.101009 262.820436 C 514.406856 264.940415 514.463139 265.953503 517.427358 266.253677 C 518.53425 267.510656 519.622381 268.767635 520.729273 270.043375 C 521.629795 271.262832 522.530318 272.48229 523.412079 273.701747 C 524.200036 267.792069 524.969232 261.882392 525.738428 255.972714 Z M 525.738428 255.972714 " transform="matrix(0.208212,0,0,0.208212,-58.11375,-29.16)"/>
<path style="fill:none;stroke-width:1.3333;stroke-linecap:round;stroke-linejoin:miter;stroke:rgb(22.745098%,61.568627%,30.980392%);stroke-opacity:1;stroke-miterlimit:4;" d="M 527.820886 288.03506 C 527.989734 287.866212 534.387195 273.176442 535.250195 268.673831 " transform="matrix(0.208212,0,0,0.208212,-58.11375,-29.16)"/>
<path style="fill:none;stroke-width:1.3333;stroke-linecap:round;stroke-linejoin:miter;stroke:rgb(22.745098%,61.568627%,30.980392%);stroke-opacity:1;stroke-miterlimit:4;" d="M 528.515039 261.957435 C 528.515039 261.957435 529.546887 273.870595 526.601429 282.688209 " transform="matrix(0.208212,0,0,0.208212,-58.11375,-29.16)"/>
<path style="fill:none;stroke-width:1.3333;stroke-linecap:round;stroke-linejoin:miter;stroke:rgb(22.745098%,61.568627%,30.980392%);stroke-opacity:1;stroke-miterlimit:4;" d="M 508.816113 249.856667 C 508.816113 249.856667 521.94873 262.463979 523.149427 267.641982 " transform="matrix(0.208212,0,0,0.208212,-58.11375,-29.16)"/>
<path style="fill:none;stroke-width:1.3333;stroke-linecap:round;stroke-linejoin:miter;stroke:rgb(22.745098%,61.568627%,30.980392%);stroke-opacity:1;stroke-miterlimit:4;" d="M 517.971423 248.468362 C 517.971423 248.468362 518.834424 258.843129 522.455274 269.030288 " transform="matrix(0.208212,0,0,0.208212,-58.11375,-29.16)"/>
<path style="fill:none;stroke-width:1.3333;stroke-linecap:round;stroke-linejoin:miter;stroke:rgb(22.745098%,61.568627%,30.980392%);stroke-opacity:1;stroke-miterlimit:4;" d="M 541.122351 286.140211 C 541.122351 286.140211 527.989734 297.209131 521.592274 306.870985 " transform="matrix(0.208212,0,0,0.208212,-58.11375,-29.16)"/>
<path style="fill:none;stroke-width:1.3333;stroke-linecap:round;stroke-linejoin:miter;stroke:rgb(22.745098%,61.568627%,30.980392%);stroke-opacity:1;stroke-miterlimit:4;" d="M 528.683887 324.86267 C 528.683887 324.86267 511.405115 327.282824 503.788197 327.451672 " transform="matrix(0.208212,0,0,0.208212,-58.11375,-29.16)"/>
<path style="fill:none;stroke-width:1.3333;stroke-linecap:round;stroke-linejoin:miter;stroke:rgb(22.745098%,61.568627%,30.980392%);stroke-opacity:1;stroke-miterlimit:4;" d="M 522.980579 332.291979 C 522.980579 332.291979 501.555652 331.766675 499.998499 330.209522 " transform="matrix(0.208212,0,0,0.208212,-58.11375,-29.16)"/>
<path style="fill:none;stroke-width:1.3333;stroke-linecap:round;stroke-linejoin:miter;stroke:rgb(22.745098%,61.568627%,30.980392%);stroke-opacity:1;stroke-miterlimit:4;" d="M 512.268116 304.450831 C 512.268116 304.63844 501.368043 322.611365 501.030348 328.48352 " transform="matrix(0.208212,0,0,0.208212,-58.11375,-29.16)"/>
<path style="fill-rule:evenodd;fill:rgb(39.607843%,78.039216%,100%);fill-opacity:1;stroke-width:1.333375;stroke-linecap:butt;stroke-linejoin:miter;stroke:rgb(49.019608%,42.352941%,0%);stroke-opacity:1;stroke-miterlimit:4;" d="M 469.343219 340.227832 C 446.661314 318.840427 423.435342 278.710902 446.548748 258.411629 C 450.657381 260.756739 455.497689 258.674281 462.176562 256.028997 C 464.183977 258.242781 466.772978 258.786846 469.343219 257.135889 C 472.213634 258.355346 474.371135 257.37978 475.778201 255.841388 C 482.325749 259.649847 490.730624 261.600979 492.681755 257.867563 C 515.419944 279.442577 492.381581 319.759711 469.343219 340.227832 Z M 469.343219 340.227832 " transform="matrix(0.208212,0,0,0.208212,-58.11375,-29.16)"/>
<path style=" stroke:none;fill-rule:evenodd;fill:rgb(56.078431%,78.039216%,32.54902%);fill-opacity:1;" d="M 39.636719 41.550781 C 37.609375 39.511719 35.757812 37.253906 34.34375 34.34375 C 34.585938 34.140625 34.699219 34.078125 34.824219 33.71875 C 35.550781 33.820312 35.933594 33.847656 36.890625 33.679688 C 37.082031 34.394531 37.121094 34.996094 37.582031 35.59375 C 37.898438 34.96875 38.21875 34.34375 38.539062 33.71875 C 39.1875 33.871094 39.992188 33.910156 40.605469 33.71875 C 41 34.253906 40.859375 35.058594 41.5625 35.671875 C 41.984375 34.433594 42.402344 34.34375 42.824219 33.679688 C 43.449219 33.898438 43.847656 33.808594 44.355469 33.640625 C 44.625 33.949219 44.492188 33.945312 44.976562 34.394531 C 43.699219 36.933594 41.945312 39.484375 39.636719 41.550781 Z M 39.636719 41.550781 "/>
<path style="fill-rule:evenodd;fill:rgb(100%,100%,100%);fill-opacity:1;stroke-width:0.66667;stroke-linecap:butt;stroke-linejoin:miter;stroke:rgb(0%,0%,0%);stroke-opacity:1;stroke-miterlimit:4;" d="M 442.88389 239.305282 C 442.88389 240.412174 441.983368 241.312697 440.876476 241.312697 C 439.769584 241.312697 438.869061 240.412174 438.869061 239.305282 C 438.869061 238.19839 439.769584 237.297868 440.876476 237.297868 C 441.983368 237.297868 442.88389 238.19839 442.88389 239.305282 Z M 442.88389 239.305282 " transform="matrix(0.208212,0,0,0.208212,-58.131931,-29.287289)"/>
<path style="fill-rule:evenodd;fill:rgb(100%,100%,100%);fill-opacity:1;stroke-width:0.66667;stroke-linecap:butt;stroke-linejoin:miter;stroke:rgb(0%,0%,0%);stroke-opacity:1;stroke-miterlimit:4;" d="M 442.878753 239.300105 C 442.878753 240.406997 441.978231 241.307519 440.871339 241.307519 C 439.764447 241.307519 438.863925 240.406997 438.863925 239.300105 C 438.863925 238.193213 439.764447 237.292691 440.871339 237.292691 C 441.978231 237.292691 442.878753 238.193213 442.878753 239.300105 Z M 442.878753 239.300105 " transform="matrix(0.208212,0,0,0.208212,-58.568361,-30.251054)"/>
<path style="fill-rule:evenodd;fill:rgb(100%,100%,100%);fill-opacity:1;stroke-width:0.66667;stroke-linecap:butt;stroke-linejoin:miter;stroke:rgb(0%,0%,0%);stroke-opacity:1;stroke-miterlimit:4;" d="M 442.885239 239.302124 C 442.885239 240.409016 441.984716 241.309538 440.877824 241.309538 C 439.770932 241.309538 438.87041 240.409016 438.87041 239.302124 C 438.87041 238.195232 439.770932 237.29471 440.877824 237.29471 C 441.984716 237.29471 442.885239 238.195232 442.885239 239.302124 Z M 442.885239 239.302124 " transform="matrix(0.208212,0,0,0.208212,-59.077524,-31.1421)"/>
<path style="fill-rule:evenodd;fill:rgb(100%,100%,100%);fill-opacity:1;stroke-width:0.66667;stroke-linecap:butt;stroke-linejoin:miter;stroke:rgb(0%,0%,0%);stroke-opacity:1;stroke-miterlimit:4;" d="M 442.87482 239.292086 C 442.87482 240.417739 441.974298 241.299501 440.867406 241.299501 C 439.760514 241.299501 438.859992 240.417739 438.859992 239.292086 C 438.859992 238.185194 439.760514 237.284672 440.867406 237.284672 C 441.974298 237.284672 442.87482 238.185194 442.87482 239.292086 Z M 442.87482 239.292086 " transform="matrix(0.208212,0,0,0.208212,-59.423011,-32.01501)"/>
<path style="fill-rule:evenodd;fill:rgb(100%,100%,100%);fill-opacity:1;stroke-width:0.66667;stroke-linecap:butt;stroke-linejoin:miter;stroke:rgb(0%,0%,0%);stroke-opacity:1;stroke-miterlimit:4;" d="M 442.875573 239.292953 C 442.875573 240.418606 441.97505 241.300367 440.868158 241.300367 C 439.761266 241.300367 438.860744 240.418606 438.860744 239.292953 C 438.860744 238.186061 439.761266 237.285539 440.868158 237.285539 C 441.97505 237.285539 442.875573 238.186061 442.875573 239.292953 Z M 442.875573 239.292953 " transform="matrix(0.208212,0,0,0.208212,-59.36848,-32.960503)"/>
<path style="fill-rule:evenodd;fill:rgb(100%,100%,100%);fill-opacity:1;stroke-width:0.66667;stroke-linecap:butt;stroke-linejoin:miter;stroke:rgb(0%,0%,0%);stroke-opacity:1;stroke-miterlimit:4;" d="M 442.871971 239.299601 C 442.871971 240.406493 441.971448 241.307015 440.864556 241.307015 C 439.757664 241.307015 438.857142 240.406493 438.857142 239.299601 C 438.857142 238.192709 439.757664 237.292186 440.864556 237.292186 C 441.971448 237.292186 442.871971 238.192709 442.871971 239.299601 Z M 442.871971 239.299601 " transform="matrix(0.208212,0,0,0.208212,-57.160699,-34.524387)"/>
<path style="fill-rule:evenodd;fill:rgb(100%,100%,100%);fill-opacity:1;stroke-width:0.66667;stroke-linecap:butt;stroke-linejoin:miter;stroke:rgb(0%,0%,0%);stroke-opacity:1;stroke-miterlimit:4;" d="M 442.879345 239.294753 C 442.879345 240.401645 441.978822 241.302168 440.87193 241.302168 C 439.765038 241.302168 438.864516 240.401645 438.864516 239.294753 C 438.864516 238.187861 439.765038 237.287339 440.87193 237.287339 C 441.978822 237.287339 442.879345 238.187861 442.879345 239.294753 Z M 442.879345 239.294753 " transform="matrix(0.208212,0,0,0.208212,-57.986453,-34.378846)"/>
<path style="fill-rule:evenodd;fill:rgb(100%,100%,100%);fill-opacity:1;stroke-width:0.66667;stroke-linecap:butt;stroke-linejoin:miter;stroke:rgb(0%,0%,0%);stroke-opacity:1;stroke-miterlimit:4;" d="M 442.874839 239.301277 C 442.874839 240.408169 441.974317 241.308691 440.867425 241.308691 C 439.760533 241.308691 438.860011 240.408169 438.860011 239.301277 C 438.860011 238.194385 439.760533 237.293862 440.867425 237.293862 C 441.974317 237.293862 442.874839 238.194385 442.874839 239.301277 Z M 442.874839 239.301277 " transform="matrix(0.208212,0,0,0.208212,-58.895671,-33.83333)"/>
<path style="fill-rule:evenodd;fill:rgb(100%,100%,100%);fill-opacity:1;stroke-width:0.66667;stroke-linecap:butt;stroke-linejoin:miter;stroke:rgb(0%,0%,0%);stroke-opacity:1;stroke-miterlimit:4;" d="M 442.876691 239.306405 C 442.876691 240.413297 441.976169 241.313819 440.869277 241.313819 C 439.762385 241.313819 438.861863 240.413297 438.861863 239.306405 C 438.861863 238.199513 439.762385 237.298991 440.869277 237.298991 C 441.976169 237.298991 442.876691 238.199513 442.876691 239.306405 Z M 442.876691 239.306405 " transform="matrix(0.208212,0,0,0.208212,-56.095276,-34.506272)"/>
<path style="fill-rule:evenodd;fill:rgb(100%,100%,100%);fill-opacity:1;stroke-width:0.66667;stroke-linecap:butt;stroke-linejoin:miter;stroke:rgb(0%,0%,0%);stroke-opacity:1;stroke-miterlimit:4;" d="M 442.877734 239.300905 C 442.877734 240.407797 441.977212 241.30832 440.87032 241.30832 C 439.763428 241.30832 438.862905 240.407797 438.862905 239.300905 C 438.862905 238.194013 439.763428 237.293491 440.87032 237.293491 C 441.977212 237.293491 442.877734 238.194013 442.877734 239.300905 Z M 442.877734 239.300905 " transform="matrix(0.208212,0,0,0.208212,-54.93143,-34.415284)"/>
<path style="fill-rule:evenodd;fill:rgb(100%,100%,100%);fill-opacity:1;stroke-width:0.66667;stroke-linecap:butt;stroke-linejoin:miter;stroke:rgb(0%,0%,0%);stroke-opacity:1;stroke-miterlimit:4;" d="M 442.871367 239.300253 C 442.871367 240.407145 441.989606 241.307667 440.863953 241.307667 C 439.757061 241.307667 438.856539 240.407145 438.856539 239.300253 C 438.856539 238.193361 439.757061 237.292839 440.863953 237.292839 C 441.989606 237.292839 442.871367 238.193361 442.871367 239.300253 Z M 442.871367 239.300253 " transform="matrix(0.208212,0,0,0.208212,-53.894948,-34.469835)"/>
<path style="fill-rule:evenodd;fill:rgb(100%,86.666667%,0%);fill-opacity:1;stroke-width:0.25989;stroke-linecap:butt;stroke-linejoin:miter;stroke:rgb(49.019608%,42.352941%,0%);stroke-opacity:1;stroke-miterlimit:4;" d="M 442.880225 239.299135 C 442.880225 240.410805 441.98065 241.310379 440.868981 241.310379 C 439.764626 241.310379 438.865051 240.410805 438.865051 239.299135 C 438.865051 238.187466 439.764626 237.287892 440.868981 237.287892 C 441.98065 237.287892 442.880225 238.187466 442.880225 239.299135 Z M 442.880225 239.299135 " transform="matrix(0.534107,0,0,0.534107,-195.810923,-113.123773)"/>
<path style="fill-rule:evenodd;fill:rgb(100%,100%,100%);fill-opacity:1;stroke-width:0.66667;stroke-linecap:butt;stroke-linejoin:miter;stroke:rgb(0%,0%,0%);stroke-opacity:1;stroke-miterlimit:4;" d="M 442.876248 239.293449 C 442.876248 240.400341 441.975725 241.300863 440.868833 241.300863 C 439.761941 241.300863 438.861419 240.400341 438.861419 239.293449 C 438.861419 238.186557 439.761941 237.286034 440.868833 237.286034 C 441.975725 237.286034 442.876248 238.186557 442.876248 239.293449 Z M 442.876248 239.293449 " transform="matrix(0.208212,0,0,0.208212,-50.349089,-34.48795)"/>
<path style="fill-rule:evenodd;fill:rgb(100%,100%,100%);fill-opacity:1;stroke-width:0.66667;stroke-linecap:butt;stroke-linejoin:miter;stroke:rgb(0%,0%,0%);stroke-opacity:1;stroke-miterlimit:4;" d="M 442.888294 239.30771 C 442.888294 240.414602 441.987772 241.315124 440.862119 241.315124 C 439.755227 241.315124 438.854705 240.414602 438.854705 239.30771 C 438.854705 238.182057 439.755227 237.300295 440.862119 237.300295 C 441.987772 237.300295 442.888294 238.182057 442.888294 239.30771 Z M 442.888294 239.30771 " transform="matrix(0.208212,0,0,0.208212,-49.257848,-34.397169)"/>
<path style="fill-rule:evenodd;fill:rgb(100%,100%,100%);fill-opacity:1;stroke-width:0.66667;stroke-linecap:butt;stroke-linejoin:miter;stroke:rgb(0%,0%,0%);stroke-opacity:1;stroke-miterlimit:4;" d="M 442.888732 239.307057 C 442.888732 240.413949 441.98821 241.314472 440.862557 241.314472 C 439.755665 241.314472 438.855143 240.413949 438.855143 239.307057 C 438.855143 238.181405 439.755665 237.299643 440.862557 237.299643 C 441.98821 237.299643 442.888732 238.181405 442.888732 239.307057 Z M 442.888732 239.307057 " transform="matrix(0.208212,0,0,0.208212,-48.203251,-34.451721)"/>
<path style="fill-rule:evenodd;fill:rgb(100%,100%,100%);fill-opacity:1;stroke-width:0.66667;stroke-linecap:butt;stroke-linejoin:miter;stroke:rgb(0%,0%,0%);stroke-opacity:1;stroke-miterlimit:4;" d="M 442.887213 239.293449 C 442.887213 240.400341 441.986691 241.300863 440.879799 241.300863 C 439.754146 241.300863 438.853624 240.400341 438.853624 239.293449 C 438.853624 238.186557 439.754146 237.286034 440.879799 237.286034 C 441.986691 237.286034 442.887213 238.186557 442.887213 239.293449 Z M 442.887213 239.293449 " transform="matrix(0.208212,0,0,0.208212,-47.31231,-34.48795)"/>
<path style="fill-rule:evenodd;fill:rgb(100%,100%,100%);fill-opacity:1;stroke-width:0.66667;stroke-linecap:butt;stroke-linejoin:miter;stroke:rgb(0%,0%,0%);stroke-opacity:1;stroke-miterlimit:4;" d="M 442.887304 239.301558 C 442.887304 240.40845 441.986781 241.308972 440.879889 241.308972 C 439.754236 241.308972 438.853714 240.40845 438.853714 239.301558 C 438.853714 238.194666 439.754236 237.294143 440.879889 237.294143 C 441.986781 237.294143 442.887304 238.194666 442.887304 239.301558 Z M 442.887304 239.301558 " transform="matrix(0.208212,0,0,0.208212,-46.202954,-34.360732)"/>
<path style="fill-rule:evenodd;fill:rgb(100%,100%,100%);fill-opacity:1;stroke-width:0.66667;stroke-linecap:butt;stroke-linejoin:miter;stroke:rgb(0%,0%,0%);stroke-opacity:1;stroke-miterlimit:4;" d="M 442.87898 239.308081 C 442.87898 240.414973 441.978458 241.315495 440.871566 241.315495 C 439.764674 241.315495 438.864151 240.414973 438.864151 239.308081 C 438.864151 238.182428 439.764674 237.300667 440.871566 237.300667 C 441.978458 237.300667 442.87898 238.182428 442.87898 239.308081 Z M 442.87898 239.308081 " transform="matrix(0.208212,0,0,0.208212,-45.330127,-33.815215)"/>
<path style="fill-rule:evenodd;fill:rgb(89.411765%,0%,0%);fill-opacity:1;stroke-width:1.333375;stroke-linecap:butt;stroke-linejoin:miter;stroke:rgb(67.45098%,0%,0%);stroke-opacity:1;stroke-miterlimit:4;" d="M 440.84544 231.114546 C 442.552681 234.37894 444.278682 237.755898 445.985922 241.001531 L 493.544756 241.001531 C 495.383322 237.830942 497.221889 234.660353 499.060455 231.489764 C 495.833583 229.27598 493.63856 227.56874 489.042144 228.619349 C 486.453143 224.904695 483.62025 224.191781 479.399051 224.604521 C 478.142072 223.31002 477.01642 222.522063 474.89644 222.24065 C 471.557003 222.315693 468.217566 222.390737 464.878129 222.484541 C 462.251606 222.728432 460.244192 224.735847 460.131626 224.735847 C 455.872906 224.229303 451.989404 224.360629 450.995077 228.488023 C 447.111575 227.531218 444.353725 228.581827 440.84544 231.114546 Z M 440.84544 231.114546 " transform="matrix(0.208212,0,0,0.208212,-58.11375,-29.16)"/>
<path style="fill-rule:evenodd;fill:rgb(100%,100%,100%);fill-opacity:1;stroke-width:0.66667;stroke-linecap:butt;stroke-linejoin:miter;stroke:rgb(0%,0%,0%);stroke-opacity:1;stroke-miterlimit:4;" d="M 442.876742 239.293606 C 442.876742 240.400498 441.97622 241.30102 440.869328 241.30102 C 439.762436 241.30102 438.861913 240.400498 438.861913 239.293606 C 438.861913 238.186714 439.762436 237.286191 440.869328 237.286191 C 441.97622 237.286191 442.876742 238.186714 442.876742 239.293606 Z M 442.876742 239.293606 " transform="matrix(0.208212,0,0,0.208212,-44.96638,-32.905951)"/>
<path style="fill-rule:evenodd;fill:rgb(100%,100%,100%);fill-opacity:1;stroke-width:0.66667;stroke-linecap:butt;stroke-linejoin:miter;stroke:rgb(0%,0%,0%);stroke-opacity:1;stroke-miterlimit:4;" d="M 442.884199 239.305348 C 442.884199 240.41224 441.983676 241.312762 440.876784 241.312762 C 439.769892 241.312762 438.86937 240.41224 438.86937 239.305348 C 438.86937 238.198456 439.769892 237.297933 440.876784 237.297933 C 441.983676 237.297933 442.884199 238.198456 442.884199 239.305348 Z M 442.884199 239.305348 " transform="matrix(0.208212,0,0,0.208212,-44.893714,-31.924021)"/>
<path style="fill-rule:evenodd;fill:rgb(100%,100%,100%);fill-opacity:1;stroke-width:0.66667;stroke-linecap:butt;stroke-linejoin:miter;stroke:rgb(0%,0%,0%);stroke-opacity:1;stroke-miterlimit:4;" d="M 442.887089 239.291072 C 442.887089 240.416725 441.986567 241.317247 440.879675 241.317247 C 439.754022 241.317247 438.8535 240.416725 438.8535 239.291072 C 438.8535 238.18418 439.754022 237.283658 440.879675 237.283658 C 441.986567 237.283658 442.887089 238.18418 442.887089 239.291072 Z M 442.887089 239.291072 " transform="matrix(0.208212,0,0,0.208212,-45.202909,-31.014799)"/>
<path style="fill-rule:evenodd;fill:rgb(100%,100%,100%);fill-opacity:1;stroke-width:0.66667;stroke-linecap:butt;stroke-linejoin:miter;stroke:rgb(0%,0%,0%);stroke-opacity:1;stroke-miterlimit:4;" d="M 442.882523 239.2937 C 442.882523 240.400592 441.982 241.301115 440.875108 241.301115 C 439.768216 241.301115 438.867694 240.400592 438.867694 239.2937 C 438.867694 238.186808 439.768216 237.286286 440.875108 237.286286 C 441.982 237.286286 442.882523 238.186808 442.882523 239.2937 Z M 442.882523 239.2937 " transform="matrix(0.208212,0,0,0.208212,-45.584771,-30.269252)"/>
<path style="fill-rule:evenodd;fill:rgb(100%,100%,100%);fill-opacity:1;stroke-width:0.66667;stroke-linecap:butt;stroke-linejoin:miter;stroke:rgb(0%,0%,0%);stroke-opacity:1;stroke-miterlimit:4;" d="M 442.889261 239.292354 C 442.889261 240.418007 441.988738 241.299768 440.863085 241.299768 C 439.756193 241.299768 438.855671 240.418007 438.855671 239.292354 C 438.855671 238.185462 439.756193 237.284939 440.863085 237.284939 C 441.988738 237.284939 442.889261 238.185462 442.889261 239.292354 Z M 442.889261 239.292354 " transform="matrix(0.208212,0,0,0.208212,-46.039299,-29.323659)"/>
<path style="fill-rule:evenodd;fill:rgb(100%,100%,100%);fill-opacity:1;stroke-width:0.45098;stroke-linecap:butt;stroke-linejoin:miter;stroke:rgb(0%,0%,0%);stroke-opacity:1;stroke-miterlimit:4;" d="M 442.878779 239.305624 C 442.878779 240.409728 441.977729 241.310778 440.873625 241.310778 C 439.756831 241.310778 438.868471 240.409728 438.868471 239.305624 C 438.868471 238.188829 439.756831 237.287779 440.873625 237.287779 C 441.977729 237.287779 442.878779 238.188829 442.878779 239.305624 Z M 442.878779 239.305624 " transform="matrix(0.307801,0,0,0.307801,-95.998014,-54.353713)"/>
<path style="fill-rule:evenodd;fill:rgb(100%,100%,100%);fill-opacity:1;stroke-width:0.37398;stroke-linecap:butt;stroke-linejoin:miter;stroke:rgb(0%,0%,0%);stroke-opacity:1;stroke-miterlimit:4;" d="M 442.875175 239.295289 C 442.875175 240.410881 441.980597 241.305459 440.87553 241.305459 C 439.759938 241.305459 438.86536 240.410881 438.86536 239.295289 C 438.86536 238.190222 439.759938 237.295644 440.87553 237.295644 C 441.980597 237.295644 442.875175 238.190222 442.875175 239.295289 Z M 442.875175 239.295289 " transform="matrix(0.37116,0,0,0.37116,-123.935968,-70.937838)"/>
<path style="fill-rule:evenodd;fill:rgb(100%,100%,100%);fill-opacity:1;stroke-width:0.41441;stroke-linecap:butt;stroke-linejoin:miter;stroke:rgb(0%,0%,0%);stroke-opacity:1;stroke-miterlimit:4;" d="M 442.881049 239.30204 C 442.881049 240.409943 441.983064 241.307927 440.875161 241.307927 C 439.767258 241.307927 438.857611 240.409943 438.857611 239.30204 C 438.857611 238.194137 439.767258 237.296152 440.875161 237.296152 C 441.983064 237.296152 442.881049 238.194137 442.881049 239.30204 Z M 442.881049 239.30204 " transform="matrix(0.334951,0,0,0.334951,-108.007711,-63.654565)"/>
<path style="fill-rule:evenodd;fill:rgb(100%,86.666667%,0%);fill-opacity:1;stroke-width:0.66667;stroke-linecap:butt;stroke-linejoin:miter;stroke:rgb(49.019608%,42.352941%,0%);stroke-opacity:1;stroke-miterlimit:4;" d="M 468.51774 205.524704 C 468.51774 204.961878 468.498979 203.010746 468.536501 202.935703 L 466.379 202.898181 L 466.454043 201.003332 L 468.311371 200.96581 L 468.330131 199.314853 L 470.975416 199.314853 L 470.975416 200.834484 L 473.057874 200.834484 L 473.020352 202.860659 L 470.84409 202.841898 L 470.825329 205.562226 Z M 468.51774 205.524704 " transform="matrix(0.208212,0,0,0.208212,-58.11375,-29.16)"/>
<path style="fill:none;stroke-width:2;stroke-linecap:butt;stroke-linejoin:miter;stroke:rgb(100%,86.666667%,0%);stroke-opacity:1;stroke-miterlimit:4;" d="M 445.74203 241.001531 C 441.48331 233.797352 435.235937 223.985412 439.100678 219.726691 C 444.485051 213.648166 457.092364 219.145104 465.140782 215.599298 C 465.722369 222.484541 463.808759 233.872396 466.885544 236.255028 C 465.928739 237.080507 464.971934 237.924746 464.015129 238.750225 C 462.270367 236.498919 458.968452 233.478417 454.87858 238.881551 C 452.533469 236.836615 449.888185 237.193072 448.631206 239.9134 C 447.449271 240.082248 447.505553 240.55127 445.74203 241.001531 Z M 445.74203 241.001531 " transform="matrix(0.208212,0,0,0.208212,-58.11375,-29.16)"/>
<path style="fill:none;stroke-width:2;stroke-linecap:butt;stroke-linejoin:miter;stroke:rgb(100%,86.666667%,0%);stroke-opacity:1;stroke-miterlimit:4;" d="M 493.84493 240.757639 C 498.10365 233.5347 504.351024 223.722759 500.467521 219.4828 C 495.101909 213.385514 482.494597 218.901213 474.446179 215.355406 C 473.864591 222.24065 475.778201 233.628505 472.682656 236.011136 C 473.639461 236.836615 474.615027 237.680855 475.571832 238.506334 C 478.329681 234.60407 481.800444 234.491505 484.708381 238.63766 C 487.03473 236.592724 489.454884 236.874137 490.955754 239.669508 C 492.13769 239.819595 492.062646 240.307378 493.84493 240.757639 Z M 493.84493 240.757639 " transform="matrix(0.208212,0,0,0.208212,-58.11375,-29.16)"/>
<path style="fill-rule:evenodd;fill:rgb(100%,86.666667%,0%);fill-opacity:1;stroke-width:1.333375;stroke-linecap:butt;stroke-linejoin:miter;stroke:rgb(49.019608%,42.352941%,0%);stroke-opacity:1;stroke-miterlimit:4;" d="M 445.610704 246.385904 C 462.720628 244.641142 478.573573 245.260251 493.169538 246.385904 C 493.807408 244.60362 494.426517 242.802575 495.045626 241.001531 C 478.442247 237.99979 466.979348 237.624572 445.235487 240.626313 C 445.366813 242.558684 445.479378 244.472294 445.610704 246.385904 Z M 445.610704 246.385904 " transform="matrix(0.208212,0,0,0.208212,-58.11375,-29.16)"/>
<path style=" stroke:none;fill-rule:evenodd;fill:rgb(78.039216%,43.137255%,18.039216%);fill-opacity:1;" d="M 39.265625 41.171875 C 39.289062 40.992188 39.316406 40.828125 39.339844 40.648438 C 39.695312 40.742188 39.964844 40.707031 40.261719 40.597656 C 40.363281 40.445312 40.464844 40.292969 40.566406 40.136719 C 40.488281 40.050781 40.414062 39.960938 40.335938 39.871094 C 40.136719 39.914062 39.96875 40.101562 39.839844 40.265625 C 39.636719 40.273438 39.457031 40.175781 39.265625 40.136719 C 39.203125 39.871094 39.136719 39.601562 39.074219 39.335938 C 38.882812 39.109375 38.488281 39.125 38.578125 39.527344 C 38.589844 39.628906 38.601562 39.730469 38.613281 39.832031 C 38.691406 40.023438 38.71875 40.289062 38.84375 40.429688 L 38.84375 40.746094 C 38.984375 40.886719 39.125 41.03125 39.265625 41.171875 Z M 39.265625 41.171875 "/>
<path style=" stroke:none;fill-rule:evenodd;fill:rgb(78.039216%,43.137255%,18.039216%);fill-opacity:1;" d="M 39.417969 38.886719 C 39.152344 39.019531 38.835938 38.789062 38.5 38.65625 C 38.191406 38.636719 37.945312 38.890625 37.578125 38.808594 C 37.648438 38.609375 37.808594 38.578125 37.925781 38.464844 C 37.839844 37.949219 38.117188 37.777344 38.191406 37.777344 C 38.269531 37.777344 38.574219 37.851562 38.574219 37.851562 C 38.675781 37.863281 38.78125 37.878906 38.882812 37.890625 C 39.058594 38.222656 39.308594 38.519531 39.417969 38.886719 Z M 39.417969 38.886719 "/>
<path style="fill-rule:evenodd;fill:rgb(100%,88.235294%,0%);fill-opacity:1;stroke-width:1.333375;stroke-linecap:butt;stroke-linejoin:miter;stroke:rgb(91.372549%,74.901961%,0%);stroke-opacity:1;stroke-miterlimit:4;" d="M 459.681365 359.832953 C 463.921324 352.94771 493.450952 339.12094 521.160773 309.253617 C 492.963169 336.419373 475.32794 343.079486 452.233295 359.664105 C 454.728493 359.720388 457.204929 359.77667 459.681365 359.832953 Z M 459.681365 359.832953 " transform="matrix(0.208212,0,0,0.208212,-58.11375,-29.16)"/>
<path style="fill-rule:evenodd;fill:rgb(61.568627%,28.627451%,8.627451%);fill-opacity:1;stroke-width:0.66667;stroke-linecap:butt;stroke-linejoin:miter;stroke:rgb(40.784314%,18.823529%,5.490196%);stroke-opacity:1;stroke-miterlimit:4;" d="M 500.279912 328.070781 C 500.279912 329.252717 499.323107 330.228282 498.122411 330.228282 C 496.940475 330.228282 495.983671 329.252717 495.983671 328.070781 C 495.983671 326.888846 496.940475 325.91328 498.122411 325.91328 C 499.323107 325.91328 500.279912 326.888846 500.279912 328.070781 Z M 500.279912 328.070781 " transform="matrix(0.208212,0,0,0.208212,-58.11375,-29.16)"/>
<path style="fill-rule:evenodd;fill:rgb(61.568627%,28.627451%,8.627451%);fill-opacity:1;stroke-width:0.66667;stroke-linecap:butt;stroke-linejoin:miter;stroke:rgb(40.784314%,18.823529%,5.490196%);stroke-opacity:1;stroke-miterlimit:4;" d="M 520.916882 306.703648 C 520.916882 308.054431 519.828751 309.142562 518.477968 309.142562 C 517.145945 309.142562 516.039053 308.054431 516.039053 306.703648 C 516.039053 305.371625 517.145945 304.264733 518.477968 304.264733 C 519.828751 304.264733 520.916882 305.371625 520.916882 306.703648 Z M 520.916882 306.703648 " transform="matrix(0.208212,0,0,0.208212,-58.11375,-29.070471)"/>
<path style="fill-rule:evenodd;fill:rgb(61.568627%,28.627451%,8.627451%);fill-opacity:1;stroke-width:0.66667;stroke-linecap:butt;stroke-linejoin:miter;stroke:rgb(40.784314%,18.823529%,5.490196%);stroke-opacity:1;stroke-miterlimit:4;" d="M 527.228735 289.223723 C 527.228735 290.405658 526.27193 291.362463 525.071234 291.362463 C 523.889298 291.362463 522.932493 290.405658 522.932493 289.223723 C 522.932493 288.041787 523.889298 287.066222 525.071234 287.066222 C 526.27193 287.066222 527.228735 288.041787 527.228735 289.223723 Z M 527.228735 289.223723 " transform="matrix(0.208212,0,0,0.208212,-57.994363,-29.130151)"/>
<path style="fill-rule:evenodd;fill:rgb(61.568627%,28.627451%,8.627451%);fill-opacity:1;stroke-width:0.66667;stroke-linecap:butt;stroke-linejoin:miter;stroke:rgb(40.784314%,18.823529%,5.490196%);stroke-opacity:1;stroke-miterlimit:4;" d="M 521.066969 266.291199 C 521.066969 267.473134 520.091403 268.4487 518.909467 268.4487 C 517.727532 268.4487 516.751966 267.473134 516.751966 266.291199 C 516.751966 265.109263 517.727532 264.133698 518.909467 264.133698 C 520.091403 264.133698 521.066969 265.109263 521.066969 266.291199 Z M 521.066969 266.291199 " transform="matrix(0.208212,0,0,0.208212,-58.11375,-29.16)"/>
<path style="fill-rule:evenodd;fill:rgb(100%,100%,100%);fill-opacity:1;stroke-width:0.66667;stroke-linecap:butt;stroke-linejoin:miter;stroke:rgb(66.27451%,66.27451%,66.27451%);stroke-opacity:1;stroke-miterlimit:4;" d="M 446.680074 301.899352 L 446.680074 292.800324 L 445.760791 292.031128 L 445.760791 289.873627 L 447.449271 289.72354 L 447.768206 279.555142 L 446.680074 278.936033 L 446.529987 277.247554 C 446.529987 277.247554 447.768206 277.697815 447.768206 277.397641 C 447.768206 277.078706 448.06838 275.390226 448.06838 275.390226 C 448.06838 275.390226 447.299184 275.240139 447.299184 274.921204 C 447.299184 274.62103 448.218467 273.851834 448.218467 273.851834 C 448.218467 273.851834 447.768206 273.382812 447.599358 273.082638 C 447.449271 272.763703 447.149096 271.375398 447.149096 271.375398 L 447.599358 269.686918 L 447.299184 268.767635 L 446.529987 267.37933 L 447.599358 266.291199 C 447.599358 266.291199 447.299184 264.902894 447.299184 264.60272 C 447.299184 264.283785 448.06838 263.064327 448.218467 262.895479 C 448.368554 262.745392 449.606772 261.056913 449.606772 261.056913 L 452.233295 260.437804 L 455.31008 260.906826 L 456.998559 261.976196 L 457.317494 264.752807 C 457.317494 264.752807 456.998559 266.441286 456.848472 266.441286 C 456.698385 266.441286 455.460167 267.060395 455.460167 267.060395 C 455.460167 267.060395 453.921775 267.229243 453.771688 267.060395 C 453.621601 266.910308 454.24071 268.917722 454.24071 268.917722 L 454.24071 270.756289 L 454.071862 273.082638 C 454.071862 273.082638 454.071862 274.152008 453.921775 274.302095 C 453.771688 274.470943 453.452753 274.921204 453.452753 274.921204 L 453.302666 277.247554 L 455.779102 277.847902 L 455.629015 279.236207 L 453.921775 279.405055 L 454.24071 288.804256 L 456.698385 289.254518 L 456.698385 291.881041 L 455.629015 292.50015 L 455.31008 301.899352 Z M 446.680074 301.899352 " transform="matrix(0.208212,0,0,0.208212,-58.11375,-29.16)"/>
<path style="fill-rule:evenodd;fill:rgb(100%,100%,100%);fill-opacity:1;stroke-width:0.66667;stroke-linecap:butt;stroke-linejoin:miter;stroke:rgb(66.27451%,66.27451%,66.27451%);stroke-opacity:1;stroke-miterlimit:4;" d="M 484.145554 302.0682 L 484.145554 292.969172 L 483.20751 292.199976 L 483.20751 290.042475 L 484.914751 289.892388 L 485.214925 279.705229 L 484.145554 279.08612 L 483.976706 277.397641 C 483.976706 277.397641 485.214925 277.866663 485.214925 277.547728 C 485.214925 277.247554 485.53386 275.540313 485.53386 275.540313 C 485.53386 275.540313 484.764664 275.390226 484.764664 275.090052 C 484.764664 274.771117 485.683947 274.001921 485.683947 274.001921 C 485.683947 274.001921 485.214925 273.55166 485.064838 273.232725 C 484.914751 272.932551 484.595816 271.544246 484.595816 271.544246 L 485.064838 269.837005 L 484.764664 268.917722 L 483.976706 267.529417 L 485.064838 266.460047 C 485.064838 266.460047 484.764664 265.071742 484.764664 264.752807 C 484.764664 264.452633 485.53386 263.214414 485.683947 263.064327 C 485.834034 262.91424 487.072252 261.207 487.072252 261.207 L 489.680014 260.606652 L 492.77556 261.056913 L 494.464039 262.145044 L 494.782974 264.921655 C 494.782974 264.921655 494.464039 266.610134 494.313952 266.610134 C 494.163865 266.610134 492.925647 267.229243 492.925647 267.229243 C 492.925647 267.229243 491.387255 267.37933 491.237168 267.229243 C 491.06832 267.079156 491.687429 269.067809 491.687429 269.067809 L 491.687429 270.925137 L 491.537342 273.232725 C 491.537342 273.232725 491.537342 274.320856 491.387255 274.470943 C 491.237168 274.62103 490.918233 275.090052 490.918233 275.090052 L 490.768146 277.397641 L 493.225821 278.01675 L 493.075734 279.405055 L 491.387255 279.555142 L 491.687429 288.954344 L 494.163865 289.423366 L 494.163865 292.049889 L 493.075734 292.650237 L 492.77556 302.0682 Z M 484.145554 302.0682 " transform="matrix(0.208212,0,0,0.208212,-58.11375,-29.16)"/>
<path style="fill-rule:evenodd;fill:rgb(100%,100%,100%);fill-opacity:1;stroke-width:0.66667;stroke-linecap:butt;stroke-linejoin:miter;stroke:rgb(66.27451%,66.27451%,66.27451%);stroke-opacity:1;stroke-miterlimit:4;" d="M 465.178303 302.368374 L 465.178303 293.269346 L 464.25902 292.50015 L 464.25902 290.342649 L 465.9475 290.192562 L 466.266435 280.024164 L 465.178303 279.405055 L 465.028216 277.716576 C 465.028216 277.716576 466.266435 278.166837 466.266435 277.866663 C 466.266435 277.547728 466.566609 275.859248 466.566609 275.859248 C 466.566609 275.859248 465.797412 275.709161 465.797412 275.390226 C 465.797412 275.090052 466.716696 274.320856 466.716696 274.320856 C 466.716696 274.320856 466.266435 273.851834 466.097587 273.55166 C 465.9475 273.232725 465.647325 271.84442 465.647325 271.84442 L 466.097587 270.15594 L 465.797412 269.236657 L 465.028216 267.848352 L 466.097587 266.760221 C 466.097587 266.760221 465.797412 265.371916 465.797412 265.071742 C 465.797412 264.752807 466.566609 263.533349 466.716696 263.383262 C 466.866783 263.214414 468.105001 261.525935 468.105001 261.525935 L 470.731524 260.906826 L 473.808309 261.375848 L 475.515549 262.445218 L 475.815723 265.221829 C 475.815723 265.221829 475.515549 266.910308 475.346701 266.910308 C 475.196614 266.910308 473.958396 267.529417 473.958396 267.529417 C 473.958396 267.529417 472.420004 267.698265 472.269917 267.529417 C 472.11983 267.37933 472.738939 269.386744 472.738939 269.386744 L 472.738939 271.244072 L 472.570091 273.55166 C 472.570091 273.55166 472.570091 274.62103 472.420004 274.771117 C 472.269917 274.939965 471.969742 275.390226 471.969742 275.390226 L 471.800895 277.716576 L 474.277331 278.316924 L 474.127244 279.705229 L 472.420004 279.874077 L 472.738939 289.273279 L 475.196614 289.72354 L 475.196614 292.350063 L 474.127244 292.969172 L 473.808309 302.368374 Z M 465.178303 302.368374 " transform="matrix(0.208212,0,0,0.208212,-58.11375,-29.16)"/>
<path style=" stroke:none;fill-rule:evenodd;fill:rgb(0%,0%,0%);fill-opacity:1;" d="M 35.367188 33.6875 L 35.367188 32.195312 L 36.199219 32.195312 L 36.199219 33.746094 Z M 35.367188 33.6875 "/>
<path style=" stroke:none;fill-rule:evenodd;fill:rgb(0%,0%,0%);fill-opacity:1;" d="M 39.304688 33.804688 L 39.335938 32.285156 L 40.082031 32.285156 L 40.082031 33.777344 Z M 39.304688 33.804688 "/>
<path style=" stroke:none;fill-rule:evenodd;fill:rgb(0%,0%,0%);fill-opacity:1;" d="M 43.1875 33.777344 L 43.125 32.34375 L 43.933594 32.3125 L 43.933594 33.804688 Z M 43.1875 33.777344 "/>
<path style=" stroke:none;fill-rule:evenodd;fill:rgb(0%,0%,0%);fill-opacity:1;" d="M 35.574219 29.269531 L 36.050781 29.269531 L 36.050781 30.042969 L 35.574219 30.042969 Z M 35.574219 29.269531 "/>
<path style=" stroke:none;fill-rule:evenodd;fill:rgb(0%,0%,0%);fill-opacity:1;" d="M 39.363281 29.300781 L 40.023438 29.300781 L 40.023438 30.046875 L 39.363281 30.046875 Z M 39.363281 29.300781 "/>
<path style=" stroke:none;fill-rule:evenodd;fill:rgb(0%,0%,0%);fill-opacity:1;" d="M 43.242188 29.359375 L 43.8125 29.359375 L 43.8125 30.074219 L 43.242188 30.074219 Z M 43.242188 29.359375 "/>
<path style="fill:none;stroke-width:0.66667;stroke-linecap:butt;stroke-linejoin:miter;stroke:rgb(65.882353%,65.882353%,65.882353%);stroke-opacity:1;stroke-miterlimit:4;" d="M 451.145164 264.302545 C 453.621601 267.079156 453.771688 267.079156 453.771688 267.079156 " transform="matrix(0.208212,0,0,0.208212,-58.11375,-29.16)"/>
<path style="fill:none;stroke-width:0.66667;stroke-linecap:butt;stroke-linejoin:miter;stroke:rgb(65.882353%,65.882353%,65.882353%);stroke-opacity:1;stroke-miterlimit:4;" d="M 469.493306 264.302545 C 469.943567 265.221829 470.731524 267.229243 471.650807 267.37933 " transform="matrix(0.208212,0,0,0.208212,-58.11375,-29.16)"/>
<path style="fill:none;stroke-width:0.66667;stroke-linecap:butt;stroke-linejoin:miter;stroke:rgb(65.882353%,65.882353%,65.882353%);stroke-opacity:1;stroke-miterlimit:4;" d="M 489.210992 264.752807 C 489.210992 264.752807 489.998949 266.910308 491.06832 267.229243 " transform="matrix(0.208212,0,0,0.208212,-58.11375,-29.16)"/>
<path style=" stroke:none;fill-rule:evenodd;fill:rgb(72.54902%,46.666667%,0%);fill-opacity:1;" d="M 35.277344 24.253906 C 36.777344 23.765625 34.925781 22.796875 34.617188 24.253906 C 34.132812 24.332031 34.070312 24.691406 33.019531 24.535156 C 30.480469 28.671875 32.359375 35.351562 39.789062 42.261719 C 26.484375 30.9375 31.890625 22.5625 35.574219 22.878906 C 37.578125 23.015625 36.570312 25.515625 35.277344 24.253906 Z M 35.277344 24.253906 "/>
<path style="fill:none;stroke-width:1.333375;stroke-linecap:butt;stroke-linejoin:miter;stroke:rgb(49.019608%,42.352941%,0%);stroke-opacity:1;stroke-miterlimit:4;" d="M 450.544816 246.348382 C 450.544816 246.348382 456.416972 247.924296 456.416972 250.400732 " transform="matrix(0.208212,0,0,0.208212,-58.11375,-29.16)"/>
<path style="fill:none;stroke-width:1.333375;stroke-linecap:butt;stroke-linejoin:miter;stroke:rgb(49.019608%,42.352941%,0%);stroke-opacity:1;stroke-miterlimit:4;" d="M 456.416972 245.898121 C 456.416972 245.898121 460.469322 247.699166 461.369845 249.27508 " transform="matrix(0.208212,0,0,0.208212,-58.11375,-29.16)"/>
<path style="fill:none;stroke-width:1.333375;stroke-linecap:butt;stroke-linejoin:miter;stroke:rgb(49.019608%,42.352941%,0%);stroke-opacity:1;stroke-miterlimit:4;" d="M 488.479318 246.573513 C 488.479318 246.573513 483.282554 247.248904 482.156901 248.824818 " transform="matrix(0.208212,0,0,0.208212,-58.11375,-29.16)"/>
<path style="fill:none;stroke-width:1.333375;stroke-linecap:butt;stroke-linejoin:miter;stroke:rgb(49.019608%,42.352941%,0%);stroke-opacity:1;stroke-miterlimit:4;" d="M 480.562226 247.023774 C 480.562226 247.023774 477.635529 249.50021 477.860659 250.175602 " transform="matrix(0.208212,0,0,0.208212,-58.11375,-29.16)"/>
<path style="fill:none;stroke-width:1.333375;stroke-linecap:butt;stroke-linejoin:miter;stroke:rgb(49.019608%,42.352941%,0%);stroke-opacity:1;stroke-miterlimit:4;" d="M 479.905595 257.867563 C 479.455334 257.642433 477.410398 254.922105 477.860659 251.545146 " transform="matrix(0.208212,0,0,0.208212,-58.11375,-29.16)"/>
<path style="fill:none;stroke-width:1.333375;stroke-linecap:butt;stroke-linejoin:miter;stroke:rgb(49.019608%,42.352941%,0%);stroke-opacity:1;stroke-miterlimit:4;" d="M 460.019061 256.066519 C 460.019061 256.066519 461.369845 254.471844 461.369845 251.545146 " transform="matrix(0.208212,0,0,0.208212,-58.11375,-29.16)"/>
<path style="fill:none;stroke-width:1.333375;stroke-linecap:butt;stroke-linejoin:miter;stroke:rgb(49.019608%,42.352941%,0%);stroke-opacity:1;stroke-miterlimit:4;" d="M 469.512067 250.400732 L 469.737198 256.967041 " transform="matrix(0.208212,0,0,0.208212,-58.11375,-29.16)"/>
<path style="fill:none;stroke-width:1.333375;stroke-linecap:butt;stroke-linejoin:miter;stroke:rgb(49.019608%,42.352941%,0%);stroke-opacity:1;stroke-miterlimit:4;" d="M 475.384223 256.066519 C 475.384223 255.616257 477.185267 251.320016 475.159092 249.29384 " transform="matrix(0.208212,0,0,0.208212,-58.11375,-29.16)"/>
<path style="fill:none;stroke-width:1.333375;stroke-linecap:butt;stroke-linejoin:miter;stroke:rgb(49.019608%,42.352941%,0%);stroke-opacity:1;stroke-miterlimit:4;" d="M 462.964519 248.374557 C 462.964519 248.374557 461.369845 252.670799 462.514258 256.291649 " transform="matrix(0.208212,0,0,0.208212,-58.11375,-29.16)"/>
<path style="fill:none;stroke-width:1.333375;stroke-linecap:butt;stroke-linejoin:miter;stroke:rgb(49.019608%,42.352941%,0%);stroke-opacity:1;stroke-miterlimit:4;" d="M 474.483701 252.220538 C 474.483701 252.220538 471.988503 252.89593 470.86285 254.021583 " transform="matrix(0.208212,0,0,0.208212,-58.11375,-29.16)"/>
<path style="fill:none;stroke-width:1.333375;stroke-linecap:butt;stroke-linejoin:miter;stroke:rgb(49.019608%,42.352941%,0%);stroke-opacity:1;stroke-miterlimit:4;" d="M 463.865042 252.89593 C 463.865042 252.670799 466.566609 252.220538 467.467131 253.796452 " transform="matrix(0.208212,0,0,0.208212,-58.11375,-29.16)"/>
<path style=" stroke:none;fill-rule:evenodd;fill:rgb(78.039216%,43.137255%,18.039216%);fill-opacity:1;" d="M 37.578125 37.734375 C 37.601562 37.746094 38.046875 37.648438 38.046875 37.433594 C 38.273438 37.289062 38.105469 36.878906 38.105469 36.878906 C 37.964844 36.851562 37.828125 36.824219 37.6875 36.796875 L 37.109375 36.148438 C 37.082031 35.945312 37.148438 35.757812 37.027344 35.546875 C 36.628906 35.652344 36.402344 35.984375 36.269531 36.363281 C 36.367188 36.484375 36.378906 36.617188 36.558594 36.722656 C 36.746094 36.753906 36.875 36.644531 37.050781 36.675781 C 37.140625 36.835938 37.113281 36.972656 37.144531 37.121094 C 37.386719 37.289062 37.433594 37.527344 37.578125 37.734375 Z M 37.578125 37.734375 "/>
<path style=" stroke:none;fill-rule:evenodd;fill:rgb(78.039216%,43.137255%,18.039216%);fill-opacity:1;" d="M 37.0625 34.960938 L 37.0625 34.191406 C 36.878906 34.183594 36.695312 34.175781 36.511719 34.167969 C 36.441406 34.28125 36.3125 34.339844 36.234375 34.441406 C 36.105469 34.507812 35.976562 34.570312 35.847656 34.636719 C 36.007812 34.828125 36.207031 34.933594 36.328125 35.03125 C 36.609375 35.113281 36.84375 35.113281 37.0625 34.960938 Z M 37.0625 34.960938 "/>
<path style=" stroke:none;fill-rule:evenodd;fill:rgb(78.039216%,43.137255%,18.039216%);fill-opacity:1;" d="M 35.332031 36.101562 C 35.230469 35.933594 35.132812 35.765625 35.03125 35.59375 C 35.214844 35.535156 35.449219 35.558594 35.621094 35.632812 C 35.621094 35.632812 35.753906 35.945312 35.65625 36.0625 C 35.609375 36.171875 35.320312 36.125 35.332031 36.101562 Z M 35.332031 36.101562 "/>
<path style=" stroke:none;fill-rule:evenodd;fill:rgb(78.039216%,43.137255%,18.039216%);fill-opacity:1;" d="M 39.894531 36.617188 C 40.054688 36.535156 40.203125 36.394531 40.230469 36.195312 C 40.046875 35.984375 39.863281 35.773438 39.679688 35.558594 C 39.511719 35.554688 39.34375 35.550781 39.175781 35.546875 C 39.058594 35.425781 38.871094 35.402344 38.71875 35.402344 C 38.71875 35.402344 38.875 35.644531 39.078125 35.691406 C 39.222656 36.015625 39.847656 36.617188 39.894531 36.617188 Z M 39.894531 36.617188 "/>
<path style=" stroke:none;fill-rule:evenodd;fill:rgb(78.039216%,43.137255%,18.039216%);fill-opacity:1;" d="M 40.4375 36.6875 C 40.4375 36.675781 40.929688 36.507812 41.195312 36.53125 C 41.167969 36.328125 41.566406 35.859375 41.566406 35.859375 L 42.261719 36.769531 C 42.132812 36.878906 41.910156 36.84375 41.734375 36.878906 C 41.734375 36.878906 41.398438 37.203125 41.363281 37.214844 C 41.324219 37.226562 40.714844 37.371094 40.414062 37.191406 C 40.28125 36.941406 40.449219 36.652344 40.4375 36.6875 Z M 40.4375 36.6875 "/>
<path style=" stroke:none;fill-rule:evenodd;fill:rgb(78.039216%,43.137255%,18.039216%);fill-opacity:1;" d="M 40.832031 35.089844 C 40.917969 34.796875 40.941406 34.503906 40.832031 34.140625 C 40.832031 34.140625 40.039062 34.128906 40.039062 34.140625 C 40.039062 34.152344 39.511719 34.382812 39.511719 34.394531 C 39.511719 34.40625 39.679688 34.910156 39.882812 34.863281 C 39.976562 35.128906 40.25 35.0625 40.375 35.164062 C 40.527344 35.136719 40.679688 35.113281 40.832031 35.089844 Z M 40.832031 35.089844 "/>
<path style=" stroke:none;fill-rule:evenodd;fill:rgb(78.039216%,43.137255%,18.039216%);fill-opacity:1;" d="M 43.945312 34.285156 C 43.835938 34.617188 43.777344 34.976562 43.929688 35.296875 C 44.074219 35.320312 44.242188 35.414062 44.375 35.390625 C 44.589844 35.007812 44.800781 34.621094 45.011719 34.238281 C 44.570312 34.097656 44.214844 34.113281 43.945312 34.285156 Z M 43.945312 34.285156 "/>
<path style=" stroke:none;fill-rule:evenodd;fill:rgb(72.54902%,46.666667%,0%);fill-opacity:1;" d="M 44.140625 24.148438 C 42.636719 23.664062 44.492188 22.691406 44.796875 24.148438 C 45.285156 24.226562 45.347656 24.585938 46.394531 24.429688 C 48.9375 28.570312 47.054688 35.246094 39.625 42.15625 C 52.933594 30.832031 47.523438 22.457031 43.839844 22.773438 C 41.835938 22.910156 42.847656 25.410156 44.140625 24.148438 Z M 44.140625 24.148438 "/>
<path style=" stroke:none;fill-rule:evenodd;fill:rgb(78.039216%,43.137255%,18.039216%);fill-opacity:1;" d="M 44.292969 35.582031 C 44.265625 35.582031 43.90625 35.847656 43.90625 35.847656 C 43.734375 35.914062 43.5625 35.984375 43.390625 36.050781 C 43.207031 36.054688 43.023438 36.058594 42.839844 36.0625 C 42.796875 35.9375 42.757812 35.808594 42.71875 35.679688 L 43.140625 35.308594 C 42.78125 35.253906 42.425781 35.394531 42.140625 35.65625 C 42.140625 35.65625 42.140625 36.074219 42.382812 36.28125 C 42.527344 36.460938 42.945312 36.785156 42.945312 36.785156 C 43.210938 36.835938 43.464844 36.792969 43.632812 36.652344 C 43.851562 36.296875 44.070312 35.941406 44.292969 35.582031 Z M 44.292969 35.582031 "/>
<path style=" stroke:none;fill-rule:evenodd;fill:rgb(78.039216%,43.137255%,18.039216%);fill-opacity:1;" d="M 41.382812 39.355469 C 41.566406 39.402344 42.800781 37.757812 42.800781 37.757812 C 42.695312 37.449219 42.453125 37.226562 42.1875 37.085938 C 42.1875 37.085938 41.589844 37.792969 41.578125 38.035156 C 41.480469 38.25 41.203125 39.078125 41.324219 39.1875 C 41.3125 39.210938 41.265625 39.546875 41.382812 39.355469 Z M 41.382812 39.355469 "/>
<path style="fill-rule:evenodd;fill:rgb(0%,40.784314%,0%);fill-opacity:1;stroke-width:1.333375;stroke-linecap:butt;stroke-linejoin:round;stroke:rgb(0%,25.490196%,0%);stroke-opacity:1;stroke-miterlimit:4;" d="M 439.025635 330.6035 C 430.132977 322.855256 418.126013 318.596536 401.372546 324.393648 C 405.875158 326.34478 410.752987 327.001411 414.899142 329.140151 C 422.928799 329.627934 430.977217 330.115717 439.025635 330.6035 Z M 439.025635 330.6035 " transform="matrix(0.208212,0,0,0.208212,-58.11375,-29.16)"/>
<path style="fill:none;stroke-width:1.3333;stroke-linecap:round;stroke-linejoin:miter;stroke:rgb(0%,64.313725%,0%);stroke-opacity:1;stroke-miterlimit:4;" d="M 413.248184 325.106562 C 430.789608 325.481779 435.911329 329.853065 434.992045 329.12139 " transform="matrix(0.208212,0,0,0.208212,-58.11375,-29.16)"/>
<path style="fill-rule:evenodd;fill:rgb(0%,40.784314%,0%);fill-opacity:1;stroke-width:1.3333;stroke-linecap:butt;stroke-linejoin:round;stroke:rgb(0%,25.490196%,0%);stroke-opacity:1;stroke-miterlimit:4;" d="M 439.382092 331.504022 C 434.147806 332.535871 426.887345 337.601309 424.767365 337.357417 C 419.026535 336.700786 413.679684 334.374437 408.126463 332.610914 C 405.818875 331.87924 403.492526 332.610914 401.184937 332.610914 C 420.865102 323.286756 427.562736 324.562496 439.382092 331.504022 Z M 439.382092 331.504022 " transform="matrix(0.208212,0,0,0.208212,-58.11375,-29.16)"/>
<path style="fill-rule:evenodd;fill:rgb(0%,40.784314%,0%);fill-opacity:1;stroke-width:1.333375;stroke-linecap:butt;stroke-linejoin:round;stroke:rgb(0%,25.490196%,0%);stroke-opacity:1;stroke-miterlimit:4;" d="M 426.418323 317.808579 C 426.418323 317.808579 419.833253 318.709101 416.906556 318.89671 C 413.979858 318.709101 409.721138 315.988773 405.030918 311.035901 C 402.573242 308.353095 396.9825 308.653269 396.9825 308.653269 C 409.345921 306.045506 418.970253 308.540704 426.418323 317.808579 Z M 426.418323 317.808579 " transform="matrix(0.208212,0,0,0.208212,-58.11375,-29.16)"/>
<path style="fill-rule:evenodd;fill:rgb(0%,40.784314%,0%);fill-opacity:1;stroke-width:1.333375;stroke-linecap:butt;stroke-linejoin:round;stroke:rgb(0%,25.490196%,0%);stroke-opacity:1;stroke-miterlimit:4;" d="M 417.450621 305.013658 C 408.501681 304.469592 397.338957 296.421174 394.787477 286.909407 C 394.787477 287.040734 398.070631 288.991865 397.526565 289.479648 C 412.216335 293.194303 413.191901 296.177283 417.450621 305.013658 Z M 417.450621 305.013658 " transform="matrix(0.208212,0,0,0.208212,-58.11375,-29.16)"/>
<path style="fill-rule:evenodd;fill:rgb(0%,40.784314%,0%);fill-opacity:1;stroke-width:1.333375;stroke-linecap:butt;stroke-linejoin:round;stroke:rgb(0%,25.490196%,0%);stroke-opacity:1;stroke-miterlimit:4;" d="M 432.440566 320.360059 C 433.716305 312.255358 434.091523 306.889746 430.245542 302.08696 C 427.074953 298.428589 426.286996 296.233565 424.035691 291.111845 C 423.360299 301.786786 421.052711 310.604401 432.440566 320.360059 Z M 432.440566 320.360059 " transform="matrix(0.208212,0,0,0.208212,-58.11375,-29.16)"/>
<path style="fill-rule:evenodd;fill:rgb(0%,40.784314%,0%);fill-opacity:1;stroke-width:1.333375;stroke-linecap:butt;stroke-linejoin:round;stroke:rgb(0%,25.490196%,0%);stroke-opacity:1;stroke-miterlimit:4;" d="M 418.351144 297.884523 C 424.992496 288.185147 426.15567 280.887165 425.123822 269.367983 C 424.936213 270.287267 422.74119 275.953053 422.572342 275.953053 C 412.685358 282.162904 417.075404 291.843519 418.351144 297.884523 Z M 418.351144 297.884523 " transform="matrix(0.208212,0,0,0.208212,-58.11375,-29.16)"/>
<path style="fill-rule:evenodd;fill:rgb(0%,40.784314%,0%);fill-opacity:1;stroke-width:1.333375;stroke-linecap:butt;stroke-linejoin:round;stroke:rgb(0%,25.490196%,0%);stroke-opacity:1;stroke-miterlimit:4;" d="M 412.51651 251.094885 C 419.157862 260.7755 418.126013 269.912049 417.094165 281.43123 C 416.906556 280.511947 414.711533 274.846161 414.523924 274.846161 C 404.6557 268.636309 411.24077 257.117128 412.51651 251.094885 Z M 412.51651 251.094885 " transform="matrix(0.208212,0,0,0.208212,-58.11375,-29.16)"/>
<path style="fill-rule:evenodd;fill:rgb(0%,40.784314%,0%);fill-opacity:1;stroke-width:1.333375;stroke-linecap:butt;stroke-linejoin:round;stroke:rgb(0%,25.490196%,0%);stroke-opacity:1;stroke-miterlimit:4;" d="M 417.994687 266.084829 C 434.091523 257.980128 427.86291 247.680405 430.789608 239.763313 C 419.645644 248.055622 418.182296 256.873236 417.994687 266.084829 Z M 417.994687 266.084829 " transform="matrix(0.208212,0,0,0.208212,-58.11375,-29.16)"/>
<path style="fill:none;stroke-width:1.3333;stroke-linecap:round;stroke-linejoin:miter;stroke:rgb(0%,64.313725%,0%);stroke-opacity:1;stroke-miterlimit:4;" d="M 420.18971 264.077415 C 422.197124 258.411629 426.230714 248.712253 426.587171 248.712253 " transform="matrix(0.208212,0,0,0.208212,-58.11375,-29.16)"/>
<path style="fill:none;stroke-width:1.3333;stroke-linecap:round;stroke-linejoin:miter;stroke:rgb(0%,64.313725%,0%);stroke-opacity:1;stroke-miterlimit:4;" d="M 415.443207 275.953053 C 415.067989 271.919463 413.060575 261.150717 412.872966 260.043825 " transform="matrix(0.208212,0,0,0.208212,-58.11375,-29.16)"/>
<path style="fill-rule:evenodd;fill:rgb(0%,40.784314%,0%);fill-opacity:1;stroke-width:1.333375;stroke-linecap:butt;stroke-linejoin:round;stroke:rgb(0%,25.490196%,0%);stroke-opacity:1;stroke-miterlimit:4;" d="M 416.174881 294.038542 C 407.20718 293.494477 397.526565 281.243621 394.975086 271.750615 C 394.975086 271.863181 398.25824 273.814312 397.714174 274.302095 C 410.565378 280.024164 411.8974 285.202167 416.174881 294.038542 Z M 416.174881 294.038542 " transform="matrix(0.208212,0,0,0.208212,-58.11375,-29.16)"/>
<path style="fill-rule:evenodd;fill:rgb(0%,40.784314%,0%);fill-opacity:1;stroke-width:1.333375;stroke-linecap:butt;stroke-linejoin:round;stroke:rgb(0%,25.490196%,0%);stroke-opacity:1;stroke-miterlimit:4;" d="M 413.510836 285.633668 C 406.869484 275.934292 405.70631 268.636309 406.756919 257.117128 C 406.925767 258.036411 409.12079 263.702197 409.308399 263.702197 C 419.176622 269.912049 414.786576 279.592664 413.510836 285.633668 Z M 413.510836 285.633668 " transform="matrix(0.208212,0,0,0.208212,-58.11375,-29.16)"/>
<path style="fill-rule:evenodd;fill:rgb(0%,40.784314%,0%);fill-opacity:1;stroke-width:1.333375;stroke-linecap:butt;stroke-linejoin:round;stroke:rgb(0%,25.490196%,0%);stroke-opacity:1;stroke-miterlimit:4;" d="M 419.458036 268.636309 C 436.098937 261.263283 430.977217 253.5338 435.911329 245.429099 C 424.767365 253.721408 419.645644 259.443477 419.458036 268.636309 Z M 419.458036 268.636309 " transform="matrix(0.208212,0,0,0.208212,-58.11375,-29.16)"/>
<path style="fill:none;stroke-width:1.3333;stroke-linecap:round;stroke-linejoin:miter;stroke:rgb(0%,64.313725%,0%);stroke-opacity:1;stroke-miterlimit:4;" d="M 420.18971 266.985352 C 426.943627 260.231434 429.326259 254.565648 429.326259 254.565648 " transform="matrix(0.208212,0,0,0.208212,-58.11375,-29.16)"/>
<path style="fill-rule:evenodd;fill:rgb(100%,88.235294%,0%);fill-opacity:1;stroke-width:1.333375;stroke-linecap:butt;stroke-linejoin:miter;stroke:rgb(91.372549%,74.901961%,0%);stroke-opacity:1;stroke-miterlimit:4;" d="M 479.36153 359.98304 C 482.063097 360.039323 484.764664 360.095605 487.46623 360.151888 C 460.563127 334.974785 409.045747 324.018431 416.212403 277.679054 C 408.839377 327.920694 458.311821 332.554632 479.36153 359.98304 Z M 479.36153 359.98304 " transform="matrix(0.208212,0,0,0.208212,-58.11375,-29.16)"/>
<path style="fill-rule:evenodd;fill:rgb(61.568627%,28.627451%,8.627451%);fill-opacity:1;stroke-width:0.66667;stroke-linecap:butt;stroke-linejoin:miter;stroke:rgb(40.784314%,18.823529%,5.490196%);stroke-opacity:1;stroke-miterlimit:4;" d="M 420.433601 267.717026 C 420.433601 269.142853 419.289188 270.306027 417.863361 270.306027 C 416.437534 270.306027 415.274359 269.142853 415.274359 267.717026 C 415.274359 266.291199 416.437534 265.146785 417.863361 265.146785 C 419.289188 265.146785 420.433601 266.291199 420.433601 267.717026 Z M 420.433601 267.717026 " transform="matrix(0.208212,0,0,0.208212,-58.11375,-29.16)"/>
<path style="fill-rule:evenodd;fill:rgb(61.568627%,28.627451%,8.627451%);fill-opacity:1;stroke-width:0.66667;stroke-linecap:butt;stroke-linejoin:miter;stroke:rgb(40.784314%,18.823529%,5.490196%);stroke-opacity:1;stroke-miterlimit:4;" d="M 418.857687 281.919013 C 418.857687 283.251036 417.769556 284.339167 416.418773 284.339167 C 415.067989 284.339167 413.979858 283.251036 413.979858 281.919013 C 413.979858 280.56823 415.067989 279.480098 416.418773 279.480098 C 417.769556 279.480098 418.857687 280.56823 418.857687 281.919013 Z M 418.857687 281.919013 " transform="matrix(0.208212,0,0,0.208212,-58.11375,-29.16)"/>
<path style="fill-rule:evenodd;fill:rgb(61.568627%,28.627451%,8.627451%);fill-opacity:1;stroke-width:0.66667;stroke-linecap:butt;stroke-linejoin:miter;stroke:rgb(40.784314%,18.823529%,5.490196%);stroke-opacity:1;stroke-miterlimit:4;" d="M 421.146515 302.124482 C 421.146515 303.325179 420.18971 304.281984 419.007775 304.281984 C 417.807078 304.281984 416.850273 303.325179 416.850273 302.124482 C 416.850273 300.942547 417.807078 299.985742 419.007775 299.985742 C 420.18971 299.985742 421.146515 300.942547 421.146515 302.124482 Z M 421.146515 302.124482 " transform="matrix(0.208212,0,0,0.208212,-58.11375,-29.16)"/>
<path style="fill-rule:evenodd;fill:rgb(61.568627%,28.627451%,8.627451%);fill-opacity:1;stroke-width:0.66667;stroke-linecap:butt;stroke-linejoin:miter;stroke:rgb(40.784314%,18.823529%,5.490196%);stroke-opacity:1;stroke-miterlimit:4;" d="M 440.069517 324.487453 C 440.069517 325.669388 439.112712 326.644954 437.912016 326.644954 C 436.73008 326.644954 435.773275 325.669388 435.773275 324.487453 C 435.773275 323.305517 436.73008 322.348712 437.912016 322.348712 C 439.112712 322.348712 440.069517 323.305517 440.069517 324.487453 Z M 440.069517 324.487453 " transform="matrix(0.208212,0,0,0.208212,-58.143599,-29.16)"/>
<path style="fill-rule:evenodd;fill:rgb(61.568627%,28.627451%,8.627451%);fill-opacity:1;stroke-width:0.66667;stroke-linecap:butt;stroke-linejoin:miter;stroke:rgb(40.784314%,18.823529%,5.490196%);stroke-opacity:1;stroke-miterlimit:4;" d="M 442.646485 331.229794 C 442.646485 332.41173 441.68968 333.387295 440.507744 333.387295 C 439.307048 333.387295 438.350243 332.41173 438.350243 331.229794 C 438.350243 330.047859 439.307048 329.072293 440.507744 329.072293 C 441.68968 329.072293 442.646485 330.047859 442.646485 331.229794 Z M 442.646485 331.229794 " transform="matrix(0.208212,0,0,0.208212,-58.11375,-29.227902)"/>
<path style="fill-rule:evenodd;fill:rgb(100%,100%,100%);fill-opacity:1;stroke-width:0.66667;stroke-linecap:butt;stroke-linejoin:miter;stroke:rgb(0%,0%,0%);stroke-opacity:1;stroke-miterlimit:4;" d="M 452.12073 349.589512 C 450.713664 348.313772 449.813142 347.488293 449.269076 346.099988 C 446.454944 345.781053 443.640812 345.480879 440.826679 345.180705 C 440.789158 346.77538 440.751636 348.388816 440.714114 349.98349 C 444.522573 349.852164 448.331032 349.720838 452.12073 349.589512 Z M 452.12073 349.589512 " transform="matrix(0.208212,0,0,0.208212,-58.11375,-29.16)"/>
<path style="fill-rule:evenodd;fill:rgb(100%,100%,100%);fill-opacity:1;stroke-width:0.66667;stroke-linecap:butt;stroke-linejoin:round;stroke:rgb(0%,0%,0%);stroke-opacity:1;stroke-miterlimit:4;" d="M 390.359909 343.904965 C 395.256499 344.805487 402.648286 343.454704 405.049679 346.625293 C 407.938855 349.908447 395.988173 354.955124 397.695413 357.788017 C 401.410068 361.709041 405.199766 360.095605 409.345921 357.919343 C 410.321486 355.818125 411.071922 352.047187 411.615987 350.921534 C 410.096356 347.450771 406.044006 345.762292 407.094615 340.528006 C 413.904815 337.976526 427.037432 338.182896 428.444498 339.158462 C 429.55139 341.334724 428.557063 342.329051 428.782194 344.055052 C 427.656541 346.250075 424.748604 349.945969 424.748604 351.915861 C 431.8965 354.429819 433.791349 351.521883 440.226331 351.690731 C 447.786966 351.784535 452.383382 353.81071 454.015579 350.808969 C 452.889926 348.219968 445.967161 350.321186 443.340638 348.670229 C 442.027376 348.219968 441.183136 347.169358 440.038722 346.006184 C 438.91307 344.843009 435.704959 344.767965 435.235937 341.916311 C 436.567959 335.781503 445.423095 336.719547 446.867683 335.781503 C 454.559645 336.306808 462.232845 336.832113 469.924806 337.357417 C 474.108483 337.244852 476.453593 344.749205 470.825329 347.019271 C 465.178303 349.270577 448.49988 343.661073 441.25818 347.525815 C 440.882962 345.949901 435.686198 343.567269 435.31098 343.492225 C 433.097196 344.148856 428.782194 343.904965 428.782194 343.904965 C 427.731584 345.874857 426.530888 347.300684 425.480279 349.270577 C 420.677493 347.169358 416.156121 350.884013 410.921835 349.795882 C 410.921835 349.795882 403.023504 350.696404 402.798373 350.696404 C 402.573242 350.696404 397.601609 350.246143 397.601609 350.246143 C 394.956325 350.996578 392.31104 351.747013 389.684517 352.497449 C 391.560605 350.846491 393.455454 349.176773 395.331542 347.525815 C 393.680585 346.325119 392.010866 345.105661 390.359909 343.904965 Z M 390.359909 343.904965 " transform="matrix(0.208212,0,0,0.208212,-58.11375,-29.16)"/>
<path style="fill-rule:evenodd;fill:rgb(100%,100%,100%);fill-opacity:1;stroke-width:0.66667;stroke-linecap:butt;stroke-linejoin:miter;stroke:rgb(0%,0%,0%);stroke-opacity:1;stroke-miterlimit:4;" d="M 389.601952 342.71874 C 389.601952 343.919436 388.626386 344.895002 387.42569 344.895002 C 386.224993 344.895002 385.249428 343.919436 385.249428 342.71874 C 385.249428 341.499283 386.224993 340.523717 387.42569 340.523717 C 388.626386 340.523717 389.601952 341.499283 389.601952 342.71874 Z M 389.601952 342.71874 " transform="matrix(0.208212,0,0,0.208212,-58.030153,-29.112232)"/>
<path style="fill-rule:evenodd;fill:rgb(100%,100%,100%);fill-opacity:1;stroke-width:0.66667;stroke-linecap:butt;stroke-linejoin:miter;stroke:rgb(0%,0%,0%);stroke-opacity:1;stroke-miterlimit:4;" d="M 389.440626 353.716906 C 389.440626 354.917602 388.46506 355.893168 387.264363 355.893168 C 386.063667 355.893168 385.088101 354.917602 385.088101 353.716906 C 385.088101 352.516209 386.063667 351.540644 387.264363 351.540644 C 388.46506 351.540644 389.440626 352.516209 389.440626 353.716906 Z M 389.440626 353.716906 " transform="matrix(0.208212,0,0,0.208212,-58.11375,-29.16)"/>
<path style="fill-rule:evenodd;fill:rgb(100%,100%,100%);fill-opacity:1;stroke-width:0.66667;stroke-linecap:butt;stroke-linejoin:miter;stroke:rgb(0%,0%,0%);stroke-opacity:1;stroke-miterlimit:4;" d="M 452.131553 349.587972 C 450.724486 348.312232 449.823964 347.486753 449.261138 346.098448 C 446.447005 345.779513 443.632873 345.479339 440.837502 345.179165 C 440.79998 346.773839 440.762458 348.387275 440.724937 349.98195 C 444.514635 349.850624 448.323094 349.719298 452.131553 349.587972 Z M 452.131553 349.587972 " transform="matrix(-0.208212,0,0,0.208212,137.420691,-29.151867)"/>
<path style="fill-rule:evenodd;fill:rgb(100%,100%,100%);fill-opacity:1;stroke-width:0.66667;stroke-linecap:butt;stroke-linejoin:round;stroke:rgb(0%,0%,0%);stroke-opacity:1;stroke-miterlimit:4;" d="M 390.35197 343.903425 C 395.24856 344.822708 402.640348 343.453163 405.060501 346.623752 C 407.949677 349.906907 395.998996 354.953584 397.706236 357.786477 C 401.402129 361.707501 405.210588 360.094065 409.337982 357.917803 C 410.313548 355.816584 411.082744 352.045647 411.608049 350.919994 C 410.107178 347.449231 406.054828 345.760752 407.086676 340.526466 C 413.915637 337.974986 427.029493 338.181356 428.45532 339.156922 C 429.562212 341.333184 428.567886 342.327511 428.793016 344.053512 C 427.648602 346.248535 424.740666 349.944428 424.740666 351.914321 C 431.907322 354.428279 433.783411 351.520342 440.237154 351.68919 C 447.779028 351.782995 452.375444 353.80917 454.007641 350.807429 C 452.900749 348.218427 445.977983 350.319646 443.332699 348.668688 C 442.019437 348.218427 441.175198 347.167818 440.049545 346.004643 C 438.905131 344.841469 435.715781 344.766425 435.227998 341.914771 C 436.578782 335.779963 445.415157 336.718007 446.859745 335.779963 C 454.551706 336.305268 462.243668 336.830572 469.916868 337.355877 C 474.100545 337.243312 476.464416 344.747664 470.81739 347.017731 C 465.189126 349.269037 448.491942 343.659533 441.269002 347.524275 C 440.893785 345.948361 435.69702 343.565729 435.321803 343.490685 C 433.108019 344.147316 428.793016 343.903425 428.793016 343.903425 C 427.723646 345.873317 426.52295 347.299144 425.47234 349.269037 C 420.688315 347.167818 416.148182 350.901233 410.932657 349.794341 C 410.932657 349.794341 403.015565 350.694864 402.790435 350.694864 C 402.565304 350.694864 397.593671 350.244603 397.593671 350.244603 C 394.948386 350.995038 392.321863 351.745473 389.676579 352.495908 C 391.571428 350.844951 393.447516 349.175232 395.323604 347.524275 C 393.672646 346.323578 392.021689 345.122882 390.35197 343.903425 Z M 390.35197 343.903425 " transform="matrix(-0.208212,0,0,0.208212,137.420691,-29.151867)"/>
<path style="fill-rule:evenodd;fill:rgb(100%,100%,100%);fill-opacity:1;stroke-width:0.66667;stroke-linecap:butt;stroke-linejoin:miter;stroke:rgb(0%,0%,0%);stroke-opacity:1;stroke-miterlimit:4;" d="M 389.612774 342.7172 C 389.612774 343.917896 388.637209 344.893462 387.436512 344.893462 C 386.235816 344.893462 385.26025 343.917896 385.26025 342.7172 C 385.26025 341.497742 386.235816 340.522177 387.436512 340.522177 C 388.637209 340.522177 389.612774 341.497742 389.612774 342.7172 Z M 389.612774 342.7172 " transform="matrix(-0.208212,0,0,0.208212,137.337094,-29.104099)"/>
<path style="fill-rule:evenodd;fill:rgb(100%,100%,100%);fill-opacity:1;stroke-width:0.66667;stroke-linecap:butt;stroke-linejoin:miter;stroke:rgb(0%,0%,0%);stroke-opacity:1;stroke-miterlimit:4;" d="M 389.432687 353.715366 C 389.432687 354.916062 388.457121 355.891628 387.256425 355.891628 C 386.055729 355.891628 385.080163 354.916062 385.080163 353.715366 C 385.080163 352.514669 386.055729 351.539103 387.256425 351.539103 C 388.457121 351.539103 389.432687 352.514669 389.432687 353.715366 Z M 389.432687 353.715366 " transform="matrix(-0.208212,0,0,0.208212,137.420691,-29.151867)"/>
<path style=" stroke:none;fill-rule:evenodd;fill:rgb(100%,100%,100%);fill-opacity:1;" d="M 39.625 41.167969 C 39.21875 41.09375 39.074219 41.113281 38.800781 41.085938 C 38.585938 41.746094 38.375 42.40625 38.160156 43.0625 C 39.152344 43.152344 40.070312 43.152344 40.070312 43.144531 C 39.46875 43.023438 39.613281 41.175781 39.625 41.167969 Z M 39.625 41.167969 "/>
<g style="fill:rgb(0%,0%,0%);fill-opacity:1;">
  <use xlink:href="#glyph0-1" x="35.292969" y="42.615108"/>
</g>
<g style="fill:rgb(0%,0%,0%);fill-opacity:1;">
  <use xlink:href="#glyph0-2" x="36.699219" y="42.615108"/>
</g>
<g style="fill:rgb(0%,0%,0%);fill-opacity:1;">
  <use xlink:href="#glyph0-3" x="36.339844" y="42.689327"/>
</g>
<g style="fill:rgb(0%,0%,0%);fill-opacity:1;">
  <use xlink:href="#glyph0-2" x="37.273437" y="42.689327"/>
</g>
<g style="fill:rgb(0%,0%,0%);fill-opacity:1;">
  <use xlink:href="#glyph0-4" x="36.972656" y="42.779171"/>
</g>
<g style="fill:rgb(0%,0%,0%);fill-opacity:1;">
  <use xlink:href="#glyph0-2" x="38.664062" y="42.779171"/>
</g>
<g style="fill:rgb(0%,0%,0%);fill-opacity:1;">
  <use xlink:href="#glyph0-5" x="38.203125" y="42.869015"/>
</g>
<g style="fill:rgb(0%,0%,0%);fill-opacity:1;">
  <use xlink:href="#glyph0-2" x="39.726563" y="42.869015"/>
</g>
<g style="fill:rgb(0%,0%,0%);fill-opacity:1;">
  <use xlink:href="#glyph0-6" x="39.394531" y="42.888546"/>
</g>
<g style="fill:rgb(0%,0%,0%);fill-opacity:1;">
  <use xlink:href="#glyph0-2" x="41.054687" y="42.888546"/>
</g>
<g style="fill:rgb(0%,0%,0%);fill-opacity:1;">
  <use xlink:href="#glyph0-7" x="40.570312" y="42.849483"/>
</g>
<g style="fill:rgb(0%,0%,0%);fill-opacity:1;">
  <use xlink:href="#glyph0-2" x="42.058594" y="42.849483"/>
</g>
<g style="fill:rgb(0%,0%,0%);fill-opacity:1;">
  <use xlink:href="#glyph0-8" x="41.671875" y="42.669796"/>
</g>
<g style="fill:rgb(0%,0%,0%);fill-opacity:1;">
  <use xlink:href="#glyph0-2" x="43.222656" y="42.669796"/>
</g>
<g style="fill:rgb(0%,0%,0%);fill-opacity:1;">
  <use xlink:href="#glyph0-9" x="42.972656" y="42.615108"/>
</g>
<g style="fill:rgb(0%,0%,0%);fill-opacity:1;">
  <use xlink:href="#glyph0-2" x="44.417969" y="42.615108"/>
</g>
<path style="fill:none;stroke-width:1.3333;stroke-linecap:round;stroke-linejoin:miter;stroke:rgb(0%,64.313725%,0%);stroke-opacity:1;stroke-miterlimit:4;" d="M 417.994687 331.335174 C 424.035691 332.066849 432.440566 331.504022 436.098937 331.335174 " transform="matrix(0.208212,0,0,0.208212,-58.11375,-29.16)"/>
<path style="fill:none;stroke-width:1.3333;stroke-linecap:round;stroke-linejoin:miter;stroke:rgb(0%,64.313725%,0%);stroke-opacity:1;stroke-miterlimit:4;" d="M 408.858138 310.660683 C 413.979858 314.694273 425.123822 317.058144 424.936213 317.058144 " transform="matrix(0.208212,0,0,0.208212,-58.11375,-29.16)"/>
<path style="fill:none;stroke-width:1.3333;stroke-linecap:round;stroke-linejoin:miter;stroke:rgb(0%,64.313725%,0%);stroke-opacity:1;stroke-miterlimit:4;" d="M 431.333674 318.165036 C 429.701477 309.760161 427.86291 307.752747 426.399562 302.443417 " transform="matrix(0.208212,0,0,0.208212,-58.11375,-29.16)"/>
<path style="fill:none;stroke-width:1.3333;stroke-linecap:round;stroke-linejoin:miter;stroke:rgb(0%,64.313725%,0%);stroke-opacity:1;stroke-miterlimit:4;" d="M 400.265654 292.93165 C 408.858138 296.777631 410.133878 299.329111 415.630816 303.175092 " transform="matrix(0.208212,0,0,0.208212,-58.11375,-29.16)"/>
<path style="fill:none;stroke-width:1.3333;stroke-linecap:round;stroke-linejoin:miter;stroke:rgb(0%,64.313725%,0%);stroke-opacity:1;stroke-miterlimit:4;" d="M 418.726361 294.770217 C 419.458036 284.357928 420.921384 281.600078 423.491625 279.236207 " transform="matrix(0.208212,0,0,0.208212,-58.11375,-29.16)"/>
<path style="fill:none;stroke-width:1.3333;stroke-linecap:round;stroke-linejoin:miter;stroke:rgb(0%,64.313725%,0%);stroke-opacity:1;stroke-miterlimit:4;" d="M 400.265654 277.960467 C 403.37996 281.43123 413.604641 292.218737 413.604641 292.218737 " transform="matrix(0.208212,0,0,0.208212,-58.11375,-29.16)"/>
<path style="fill:none;stroke-width:1.3333;stroke-linecap:round;stroke-linejoin:miter;stroke:rgb(0%,64.313725%,0%);stroke-opacity:1;stroke-miterlimit:4;" d="M 409.402203 268.4487 C 413.248184 271.187789 413.248184 281.056012 413.248184 281.056012 " transform="matrix(0.208212,0,0,0.208212,-58.11375,-29.16)"/>
</g>
</svg>
