<?xml version="1.0" encoding="UTF-8"?>
<svg xmlns="http://www.w3.org/2000/svg" xmlns:xlink="http://www.w3.org/1999/xlink" width="80pt" height="60pt" viewBox="0 0 80 60" version="1.1">
<g id="surface1">
<path style=" stroke:none;fill-rule:evenodd;fill:rgb(0%,0%,40.392157%);fill-opacity:1;" d="M 0 0 L 26.746094 0 L 26.746094 60 L 0 60 Z M 0 0 "/>
<path style=" stroke:none;fill-rule:evenodd;fill:rgb(100%,0%,0%);fill-opacity:1;" d="M 53.253906 0 L 80 0 L 80 60 L 53.253906 60 Z M 53.253906 0 "/>
<path style=" stroke:none;fill-rule:evenodd;fill:rgb(100%,100%,0%);fill-opacity:1;" d="M 26.746094 0 L 53.253906 0 L 53.253906 60 L 26.746094 60 Z M 26.746094 0 "/>
</g>
</svg>
