<?xml version="1.0" encoding="UTF-8"?>
<svg xmlns="http://www.w3.org/2000/svg" xmlns:xlink="http://www.w3.org/1999/xlink" width="80pt" height="60pt" viewBox="0 0 80 60" version="1.1">
<g id="surface1">
<rect x="0" y="0" width="80" height="60" style="fill:rgb(81.176471%,7.843137%,16.862745%);fill-opacity:1;stroke:none;"/>
<path style=" stroke:none;fill-rule:nonzero;fill:rgb(0%,14.117647%,49.019608%);fill-opacity:1;" d="M 0 0 L 80 0 L 80 40 L 0 40 Z M 0 0 "/>
<path style=" stroke:none;fill-rule:nonzero;fill:rgb(100%,80%,0%);fill-opacity:1;" d="M 0 0 L 80 0 L 80 20 L 0 20 Z M 0 0 "/>
<path style=" stroke:none;fill-rule:nonzero;fill:rgb(100%,100%,100%);fill-opacity:1;" d="M 43.558594 21.8125 L 42.386719 24.019531 L 43.710938 24.722656 Z M 43.558594 21.8125 "/>
<path style=" stroke:none;fill-rule:nonzero;fill:rgb(100%,100%,100%);fill-opacity:1;" d="M 43.558594 21.8125 L 43.90625 24.285156 L 42.421875 24.496094 Z M 43.558594 21.8125 "/>
<path style=" stroke:none;fill-rule:nonzero;fill:rgb(100%,100%,100%);fill-opacity:1;" d="M 45.601562 23.925781 L 43.140625 23.492188 L 42.878906 24.96875 Z M 45.601562 23.925781 "/>
<path style=" stroke:none;fill-rule:nonzero;fill:rgb(100%,100%,100%);fill-opacity:1;" d="M 45.601562 23.925781 L 43.355469 25.019531 L 42.695312 23.671875 Z M 45.601562 23.925781 "/>
<path style=" stroke:none;fill-rule:nonzero;fill:rgb(100%,100%,100%);fill-opacity:1;" d="M 40.917969 23.101562 L 42.65625 24.898438 L 43.734375 23.855469 Z M 40.917969 23.101562 "/>
<path style=" stroke:none;fill-rule:nonzero;fill:rgb(100%,100%,100%);fill-opacity:1;" d="M 40.917969 23.101562 L 43.378906 23.535156 L 43.121094 25.011719 Z M 40.917969 23.101562 "/>
<path style=" stroke:none;fill-rule:nonzero;fill:rgb(100%,100%,100%);fill-opacity:1;" d="M 44.222656 26.519531 L 43.875 24.042969 L 42.386719 24.253906 Z M 44.222656 26.519531 "/>
<path style=" stroke:none;fill-rule:nonzero;fill:rgb(100%,100%,100%);fill-opacity:1;" d="M 44.222656 26.519531 L 42.484375 24.722656 L 43.5625 23.679688 Z M 44.222656 26.519531 "/>
<path style=" stroke:none;fill-rule:nonzero;fill:rgb(100%,100%,100%);fill-opacity:1;" d="M 41.328125 26.011719 L 43.574219 24.914062 L 42.917969 23.566406 Z M 41.328125 26.011719 "/>
<path style=" stroke:none;fill-rule:nonzero;fill:rgb(100%,100%,100%);fill-opacity:1;" d="M 41.328125 26.011719 L 42.5 23.804688 L 43.824219 24.507812 Z M 41.328125 26.011719 "/>
<path style=" stroke:none;fill-rule:nonzero;fill:rgb(100%,100%,100%);fill-opacity:1;" d="M 50.25 24.246094 L 48.390625 25.917969 L 49.394531 27.035156 Z M 50.25 24.246094 "/>
<path style=" stroke:none;fill-rule:nonzero;fill:rgb(100%,100%,100%);fill-opacity:1;" d="M 50.25 24.246094 L 49.730469 26.691406 L 48.261719 26.378906 Z M 50.25 24.246094 "/>
<path style=" stroke:none;fill-rule:nonzero;fill:rgb(100%,100%,100%);fill-opacity:1;" d="M 51.445312 26.929688 L 49.28125 25.679688 L 48.53125 26.980469 Z M 51.445312 26.929688 "/>
<path style=" stroke:none;fill-rule:nonzero;fill:rgb(100%,100%,100%);fill-opacity:1;" d="M 51.445312 26.929688 L 48.960938 27.191406 L 48.800781 25.699219 Z M 51.445312 26.929688 "/>
<path style=" stroke:none;fill-rule:nonzero;fill:rgb(100%,100%,100%);fill-opacity:1;" d="M 47.328125 24.554688 L 48.34375 26.835938 L 49.714844 26.226562 Z M 47.328125 24.554688 "/>
<path style=" stroke:none;fill-rule:nonzero;fill:rgb(100%,100%,100%);fill-opacity:1;" d="M 47.328125 24.554688 L 49.492188 25.804688 L 48.742188 27.101562 Z M 47.328125 24.554688 "/>
<path style=" stroke:none;fill-rule:nonzero;fill:rgb(100%,100%,100%);fill-opacity:1;" d="M 49.261719 28.898438 L 49.78125 26.453125 L 48.3125 26.140625 Z M 49.261719 28.898438 "/>
<path style=" stroke:none;fill-rule:nonzero;fill:rgb(100%,100%,100%);fill-opacity:1;" d="M 49.261719 28.898438 L 48.246094 26.613281 L 49.613281 26.003906 Z M 49.261719 28.898438 "/>
<path style=" stroke:none;fill-rule:nonzero;fill:rgb(100%,100%,100%);fill-opacity:1;" d="M 46.714844 27.429688 L 49.203125 27.167969 L 49.046875 25.675781 Z M 46.714844 27.429688 "/>
<path style=" stroke:none;fill-rule:nonzero;fill:rgb(100%,100%,100%);fill-opacity:1;" d="M 46.714844 27.429688 L 48.574219 25.753906 L 49.578125 26.871094 Z M 46.714844 27.429688 "/>
<path style=" stroke:none;fill-rule:nonzero;fill:rgb(100%,100%,100%);fill-opacity:1;" d="M 55.703125 28.824219 L 53.386719 29.757812 L 53.949219 31.148438 Z M 55.703125 28.824219 "/>
<path style=" stroke:none;fill-rule:nonzero;fill:rgb(100%,100%,100%);fill-opacity:1;" d="M 55.703125 28.824219 L 54.378906 30.941406 L 53.105469 30.148438 Z M 55.703125 28.824219 "/>
<path style=" stroke:none;fill-rule:nonzero;fill:rgb(100%,100%,100%);fill-opacity:1;" d="M 55.910156 31.753906 L 54.300781 29.839844 L 53.152344 30.804688 Z M 55.910156 31.753906 "/>
<path style=" stroke:none;fill-rule:nonzero;fill:rgb(100%,100%,100%);fill-opacity:1;" d="M 55.910156 31.753906 L 53.484375 31.148438 L 53.847656 29.695312 Z M 55.910156 31.753906 "/>
<path style=" stroke:none;fill-rule:nonzero;fill:rgb(100%,100%,100%);fill-opacity:1;" d="M 52.851562 28.113281 L 53.027344 30.605469 L 54.523438 30.5 Z M 52.851562 28.113281 "/>
<path style=" stroke:none;fill-rule:nonzero;fill:rgb(100%,100%,100%);fill-opacity:1;" d="M 52.851562 28.113281 L 54.460938 30.027344 L 53.308594 30.992188 Z M 52.851562 28.113281 "/>
<path style=" stroke:none;fill-rule:nonzero;fill:rgb(100%,100%,100%);fill-opacity:1;" d="M 53.183594 32.855469 L 54.507812 30.734375 L 53.238281 29.941406 Z M 53.183594 32.855469 "/>
<path style=" stroke:none;fill-rule:nonzero;fill:rgb(100%,100%,100%);fill-opacity:1;" d="M 53.183594 32.855469 L 53.007812 30.363281 L 54.507812 30.257812 Z M 53.183594 32.855469 "/>
<path style=" stroke:none;fill-rule:nonzero;fill:rgb(100%,100%,100%);fill-opacity:1;" d="M 51.292969 30.605469 L 53.71875 31.210938 L 54.082031 29.753906 Z M 51.292969 30.605469 "/>
<path style=" stroke:none;fill-rule:nonzero;fill:rgb(100%,100%,100%);fill-opacity:1;" d="M 51.292969 30.605469 L 53.613281 29.667969 L 54.175781 31.058594 Z M 51.292969 30.605469 "/>
<path style=" stroke:none;fill-rule:nonzero;fill:rgb(100%,100%,100%);fill-opacity:1;" d="M 59.265625 34.988281 L 56.765625 35.074219 L 56.816406 36.574219 Z M 59.265625 34.988281 "/>
<path style=" stroke:none;fill-rule:nonzero;fill:rgb(100%,100%,100%);fill-opacity:1;" d="M 59.265625 34.988281 L 57.292969 36.527344 L 56.371094 35.347656 Z M 59.265625 34.988281 "/>
<path style=" stroke:none;fill-rule:nonzero;fill:rgb(100%,100%,100%);fill-opacity:1;" d="M 58.453125 37.8125 L 57.597656 35.464844 L 56.1875 35.976562 Z M 58.453125 37.8125 "/>
<path style=" stroke:none;fill-rule:nonzero;fill:rgb(100%,100%,100%);fill-opacity:1;" d="M 58.453125 37.8125 L 56.382812 36.414062 L 57.21875 35.171875 Z M 58.453125 37.8125 "/>
<path style=" stroke:none;fill-rule:nonzero;fill:rgb(100%,100%,100%);fill-opacity:1;" d="M 56.828125 33.34375 L 56.136719 35.75 L 57.578125 36.160156 Z M 56.828125 33.34375 "/>
<path style=" stroke:none;fill-rule:nonzero;fill:rgb(100%,100%,100%);fill-opacity:1;" d="M 56.828125 33.34375 L 57.683594 35.695312 L 56.273438 36.207031 Z M 56.828125 33.34375 "/>
<path style=" stroke:none;fill-rule:nonzero;fill:rgb(100%,100%,100%);fill-opacity:1;" d="M 55.515625 37.917969 L 57.488281 36.378906 L 56.5625 35.195312 Z M 55.515625 37.917969 "/>
<path style=" stroke:none;fill-rule:nonzero;fill:rgb(100%,100%,100%);fill-opacity:1;" d="M 55.515625 37.917969 L 56.207031 35.511719 L 57.648438 35.925781 Z M 55.515625 37.917969 "/>
<path style=" stroke:none;fill-rule:nonzero;fill:rgb(100%,100%,100%);fill-opacity:1;" d="M 54.511719 35.15625 L 56.582031 36.550781 L 57.421875 35.308594 Z M 54.511719 35.15625 "/>
<path style=" stroke:none;fill-rule:nonzero;fill:rgb(100%,100%,100%);fill-opacity:1;" d="M 54.511719 35.15625 L 57.007812 35.066406 L 57.0625 36.566406 Z M 54.511719 35.15625 "/>
<path style=" stroke:none;fill-rule:nonzero;fill:rgb(100%,100%,100%);fill-opacity:1;" d="M 20.734375 34.988281 L 22.707031 36.527344 L 23.628906 35.347656 Z M 20.734375 34.988281 "/>
<path style=" stroke:none;fill-rule:nonzero;fill:rgb(100%,100%,100%);fill-opacity:1;" d="M 20.734375 34.988281 L 23.234375 35.074219 L 23.183594 36.574219 Z M 20.734375 34.988281 "/>
<path style=" stroke:none;fill-rule:nonzero;fill:rgb(100%,100%,100%);fill-opacity:1;" d="M 23.171875 33.34375 L 22.316406 35.695312 L 23.726562 36.207031 Z M 23.171875 33.34375 "/>
<path style=" stroke:none;fill-rule:nonzero;fill:rgb(100%,100%,100%);fill-opacity:1;" d="M 23.171875 33.34375 L 23.863281 35.75 L 22.421875 36.160156 Z M 23.171875 33.34375 "/>
<path style=" stroke:none;fill-rule:nonzero;fill:rgb(100%,100%,100%);fill-opacity:1;" d="M 21.546875 37.8125 L 23.617188 36.414062 L 22.78125 35.171875 Z M 21.546875 37.8125 "/>
<path style=" stroke:none;fill-rule:nonzero;fill:rgb(100%,100%,100%);fill-opacity:1;" d="M 21.546875 37.8125 L 22.402344 35.464844 L 23.8125 35.976562 Z M 21.546875 37.8125 "/>
<path style=" stroke:none;fill-rule:nonzero;fill:rgb(100%,100%,100%);fill-opacity:1;" d="M 25.488281 35.152344 L 22.988281 35.066406 L 22.9375 36.566406 Z M 25.488281 35.152344 "/>
<path style=" stroke:none;fill-rule:nonzero;fill:rgb(100%,100%,100%);fill-opacity:1;" d="M 25.488281 35.152344 L 23.417969 36.550781 L 22.578125 35.308594 Z M 25.488281 35.152344 "/>
<path style=" stroke:none;fill-rule:nonzero;fill:rgb(100%,100%,100%);fill-opacity:1;" d="M 24.484375 37.917969 L 23.792969 35.511719 L 22.351562 35.925781 Z M 24.484375 37.917969 "/>
<path style=" stroke:none;fill-rule:nonzero;fill:rgb(100%,100%,100%);fill-opacity:1;" d="M 24.484375 37.917969 L 22.511719 36.378906 L 23.4375 35.195312 Z M 24.484375 37.917969 "/>
<path style=" stroke:none;fill-rule:nonzero;fill:rgb(100%,100%,100%);fill-opacity:1;" d="M 24.296875 28.824219 L 25.621094 30.941406 L 26.894531 30.148438 Z M 24.296875 28.824219 "/>
<path style=" stroke:none;fill-rule:nonzero;fill:rgb(100%,100%,100%);fill-opacity:1;" d="M 24.296875 28.824219 L 26.613281 29.757812 L 26.050781 31.148438 Z M 24.296875 28.824219 "/>
<path style=" stroke:none;fill-rule:nonzero;fill:rgb(100%,100%,100%);fill-opacity:1;" d="M 27.148438 28.113281 L 25.539062 30.027344 L 26.691406 30.992188 Z M 27.148438 28.113281 "/>
<path style=" stroke:none;fill-rule:nonzero;fill:rgb(100%,100%,100%);fill-opacity:1;" d="M 27.148438 28.113281 L 26.972656 30.605469 L 25.476562 30.5 Z M 27.148438 28.113281 "/>
<path style=" stroke:none;fill-rule:nonzero;fill:rgb(100%,100%,100%);fill-opacity:1;" d="M 24.089844 31.753906 L 26.515625 31.148438 L 26.152344 29.695312 Z M 24.089844 31.753906 "/>
<path style=" stroke:none;fill-rule:nonzero;fill:rgb(100%,100%,100%);fill-opacity:1;" d="M 24.089844 31.753906 L 25.699219 29.839844 L 26.847656 30.804688 Z M 24.089844 31.753906 "/>
<path style=" stroke:none;fill-rule:nonzero;fill:rgb(100%,100%,100%);fill-opacity:1;" d="M 28.707031 30.605469 L 26.386719 29.667969 L 25.824219 31.058594 Z M 28.707031 30.605469 "/>
<path style=" stroke:none;fill-rule:nonzero;fill:rgb(100%,100%,100%);fill-opacity:1;" d="M 28.707031 30.605469 L 26.28125 31.210938 L 25.917969 29.753906 Z M 28.707031 30.605469 "/>
<path style=" stroke:none;fill-rule:nonzero;fill:rgb(100%,100%,100%);fill-opacity:1;" d="M 26.816406 32.855469 L 26.992188 30.363281 L 25.492188 30.257812 Z M 26.816406 32.855469 "/>
<path style=" stroke:none;fill-rule:nonzero;fill:rgb(100%,100%,100%);fill-opacity:1;" d="M 26.816406 32.855469 L 25.492188 30.734375 L 26.761719 29.941406 Z M 26.816406 32.855469 "/>
<path style=" stroke:none;fill-rule:nonzero;fill:rgb(100%,100%,100%);fill-opacity:1;" d="M 29.75 24.246094 L 30.269531 26.691406 L 31.738281 26.378906 Z M 29.75 24.246094 "/>
<path style=" stroke:none;fill-rule:nonzero;fill:rgb(100%,100%,100%);fill-opacity:1;" d="M 29.75 24.246094 L 31.609375 25.917969 L 30.605469 27.035156 Z M 29.75 24.246094 "/>
<path style=" stroke:none;fill-rule:nonzero;fill:rgb(100%,100%,100%);fill-opacity:1;" d="M 32.671875 24.554688 L 30.507812 25.804688 L 31.257812 27.101562 Z M 32.671875 24.554688 "/>
<path style=" stroke:none;fill-rule:nonzero;fill:rgb(100%,100%,100%);fill-opacity:1;" d="M 32.671875 24.554688 L 31.65625 26.835938 L 30.285156 26.226562 Z M 32.671875 24.554688 "/>
<path style=" stroke:none;fill-rule:nonzero;fill:rgb(100%,100%,100%);fill-opacity:1;" d="M 28.554688 26.929688 L 31.039062 27.191406 L 31.199219 25.699219 Z M 28.554688 26.929688 "/>
<path style=" stroke:none;fill-rule:nonzero;fill:rgb(100%,100%,100%);fill-opacity:1;" d="M 28.554688 26.929688 L 30.71875 25.679688 L 31.46875 26.980469 Z M 28.554688 26.929688 "/>
<path style=" stroke:none;fill-rule:nonzero;fill:rgb(100%,100%,100%);fill-opacity:1;" d="M 33.285156 27.429688 L 31.425781 25.753906 L 30.421875 26.871094 Z M 33.285156 27.429688 "/>
<path style=" stroke:none;fill-rule:nonzero;fill:rgb(100%,100%,100%);fill-opacity:1;" d="M 33.285156 27.429688 L 30.796875 27.167969 L 30.953125 25.675781 Z M 33.285156 27.429688 "/>
<path style=" stroke:none;fill-rule:nonzero;fill:rgb(100%,100%,100%);fill-opacity:1;" d="M 30.738281 28.898438 L 31.753906 26.613281 L 30.386719 26.003906 Z M 30.738281 28.898438 "/>
<path style=" stroke:none;fill-rule:nonzero;fill:rgb(100%,100%,100%);fill-opacity:1;" d="M 30.738281 28.898438 L 30.21875 26.453125 L 31.6875 26.140625 Z M 30.738281 28.898438 "/>
<path style=" stroke:none;fill-rule:nonzero;fill:rgb(100%,100%,100%);fill-opacity:1;" d="M 36.441406 21.8125 L 36.09375 24.285156 L 37.578125 24.496094 Z M 36.441406 21.8125 "/>
<path style=" stroke:none;fill-rule:nonzero;fill:rgb(100%,100%,100%);fill-opacity:1;" d="M 36.441406 21.8125 L 37.613281 24.019531 L 36.289062 24.722656 Z M 36.441406 21.8125 "/>
<path style=" stroke:none;fill-rule:nonzero;fill:rgb(100%,100%,100%);fill-opacity:1;" d="M 39.082031 23.101562 L 36.621094 23.535156 L 36.878906 25.011719 Z M 39.082031 23.101562 "/>
<path style=" stroke:none;fill-rule:nonzero;fill:rgb(100%,100%,100%);fill-opacity:1;" d="M 39.082031 23.101562 L 37.34375 24.898438 L 36.265625 23.855469 Z M 39.082031 23.101562 "/>
<path style=" stroke:none;fill-rule:nonzero;fill:rgb(100%,100%,100%);fill-opacity:1;" d="M 34.398438 23.925781 L 36.644531 25.019531 L 37.304688 23.671875 Z M 34.398438 23.925781 "/>
<path style=" stroke:none;fill-rule:nonzero;fill:rgb(100%,100%,100%);fill-opacity:1;" d="M 34.398438 23.925781 L 36.859375 23.492188 L 37.121094 24.96875 Z M 34.398438 23.925781 "/>
<path style=" stroke:none;fill-rule:nonzero;fill:rgb(100%,100%,100%);fill-opacity:1;" d="M 38.671875 26.011719 L 37.5 23.800781 L 36.175781 24.507812 Z M 38.671875 26.011719 "/>
<path style=" stroke:none;fill-rule:nonzero;fill:rgb(100%,100%,100%);fill-opacity:1;" d="M 38.671875 26.011719 L 36.425781 24.914062 L 37.082031 23.566406 Z M 38.671875 26.011719 "/>
<path style=" stroke:none;fill-rule:nonzero;fill:rgb(100%,100%,100%);fill-opacity:1;" d="M 35.777344 26.519531 L 37.515625 24.722656 L 36.4375 23.679688 Z M 35.777344 26.519531 "/>
<path style=" stroke:none;fill-rule:nonzero;fill:rgb(100%,100%,100%);fill-opacity:1;" d="M 35.777344 26.519531 L 36.125 24.046875 L 37.613281 24.253906 Z M 35.777344 26.519531 "/>
</g>
</svg>
