<?xml version="1.0" encoding="UTF-8"?>
<svg xmlns="http://www.w3.org/2000/svg" xmlns:xlink="http://www.w3.org/1999/xlink" width="80pt" height="60pt" viewBox="0 0 80 60" version="1.1">
<defs>
<linearGradient id="linear0" gradientUnits="userSpaceOnUse" x1="103.08" y1="111.28" x2="92.551" y2="107.76" gradientTransform="matrix(0.64274,0,0,1.4534,-94.683,29.21)">
<stop offset="0" style="stop-color:rgb(100%,0%,0%);stop-opacity:1;"/>
<stop offset="1" style="stop-color:rgb(100%,100%,0%);stop-opacity:1;"/>
</linearGradient>
<linearGradient id="linear1" gradientUnits="userSpaceOnUse" x1="103.08" y1="111.28" x2="92.551" y2="107.76" gradientTransform="matrix(0.64274,0,0,1.4534,-94.666,30.155)">
<stop offset="0" style="stop-color:rgb(100%,0%,0%);stop-opacity:1;"/>
<stop offset="1" style="stop-color:rgb(100%,100%,0%);stop-opacity:1;"/>
</linearGradient>
<linearGradient id="linear2" gradientUnits="userSpaceOnUse" x1="103.08" y1="111.28" x2="92.551" y2="107.76" gradientTransform="matrix(0.64274,0,0,1.4534,-97.986,31.014)">
<stop offset="0" style="stop-color:rgb(100%,0%,0%);stop-opacity:1;"/>
<stop offset="1" style="stop-color:rgb(100%,100%,0%);stop-opacity:1;"/>
</linearGradient>
<linearGradient id="linear3" gradientUnits="userSpaceOnUse" x1="103.08" y1="111.28" x2="92.551" y2="107.76" gradientTransform="matrix(0.64274,0,0,1.4534,-94.743,31.932)">
<stop offset="0" style="stop-color:rgb(100%,0%,0%);stop-opacity:1;"/>
<stop offset="1" style="stop-color:rgb(100%,100%,0%);stop-opacity:1;"/>
</linearGradient>
<linearGradient id="linear4" gradientUnits="userSpaceOnUse" x1="103.08" y1="111.28" x2="92.551" y2="107.76" gradientTransform="matrix(0.64274,0,0,1.4534,-94.75,32.835)">
<stop offset="0" style="stop-color:rgb(100%,0%,0%);stop-opacity:1;"/>
<stop offset="1" style="stop-color:rgb(100%,100%,0%);stop-opacity:1;"/>
</linearGradient>
<linearGradient id="linear5" gradientUnits="userSpaceOnUse" x1="103.08" y1="111.28" x2="92.551" y2="107.76" gradientTransform="matrix(0.64274,0,0,1.4534,-94.767,33.751)">
<stop offset="0" style="stop-color:rgb(100%,0%,0%);stop-opacity:1;"/>
<stop offset="1" style="stop-color:rgb(100%,100%,0%);stop-opacity:1;"/>
</linearGradient>
<linearGradient id="linear6" gradientUnits="userSpaceOnUse" x1="103.08" y1="111.28" x2="92.551" y2="107.76" gradientTransform="matrix(0.64274,0,0,1.4534,-98.011,33.736)">
<stop offset="0" style="stop-color:rgb(100%,0%,0%);stop-opacity:1;"/>
<stop offset="1" style="stop-color:rgb(100%,100%,0%);stop-opacity:1;"/>
</linearGradient>
<linearGradient id="linear7" gradientUnits="userSpaceOnUse" x1="103.08" y1="111.28" x2="92.551" y2="107.76" gradientTransform="matrix(0.64274,0,0,1.4534,-97.981,32.837)">
<stop offset="0" style="stop-color:rgb(100%,0%,0%);stop-opacity:1;"/>
<stop offset="1" style="stop-color:rgb(100%,100%,0%);stop-opacity:1;"/>
</linearGradient>
<linearGradient id="linear8" gradientUnits="userSpaceOnUse" x1="103.08" y1="111.28" x2="92.551" y2="107.76" gradientTransform="matrix(0.64274,0,0,1.4534,-97.942,31.918)">
<stop offset="0" style="stop-color:rgb(100%,0%,0%);stop-opacity:1;"/>
<stop offset="1" style="stop-color:rgb(100%,100%,0%);stop-opacity:1;"/>
</linearGradient>
<linearGradient id="linear9" gradientUnits="userSpaceOnUse" x1="103.08" y1="111.28" x2="92.551" y2="107.76" gradientTransform="matrix(0.8281,0,0,1.8726,602.82,148.17)">
<stop offset="0" style="stop-color:rgb(100%,0%,0%);stop-opacity:1;"/>
<stop offset="1" style="stop-color:rgb(100%,100%,0%);stop-opacity:1;"/>
</linearGradient>
<linearGradient id="linear10" gradientUnits="userSpaceOnUse" x1="103.08" y1="111.28" x2="92.551" y2="107.76" gradientTransform="matrix(0.64274,0,0,1.4534,-97.976,30.11)">
<stop offset="0" style="stop-color:rgb(100%,0%,0%);stop-opacity:1;"/>
<stop offset="1" style="stop-color:rgb(100%,100%,0%);stop-opacity:1;"/>
</linearGradient>
<linearGradient id="linear11" gradientUnits="userSpaceOnUse" x1="103.08" y1="111.28" x2="92.551" y2="107.76" gradientTransform="matrix(0.64274,0,0,1.4534,-95.336,30.955)">
<stop offset="0" style="stop-color:rgb(100%,0%,0%);stop-opacity:1;"/>
<stop offset="1" style="stop-color:rgb(100%,100%,0%);stop-opacity:1;"/>
</linearGradient>
</defs>
<g id="surface1">
<rect x="0" y="0" width="80" height="60" style="fill:rgb(0%,0%,40%);fill-opacity:1;stroke:none;"/>
<path style=" stroke:none;fill-rule:evenodd;fill:rgb(0%,0%,40%);fill-opacity:1;" d="M 0 0 L 43.75 0 L 43.75 21.875 L 0 21.875 Z M 0 0 "/>
<path style=" stroke:none;fill-rule:nonzero;fill:rgb(100%,100%,100%);fill-opacity:1;" d="M 0 0 L 0 2.445312 L 38.859375 21.875 L 43.75 21.875 L 43.75 19.429688 L 4.890625 0 Z M 43.75 0 L 43.75 2.445312 L 4.890625 21.875 L 0 21.875 L 0 19.429688 L 38.859375 0 Z M 43.75 0 "/>
<path style=" stroke:none;fill-rule:nonzero;fill:rgb(100%,100%,100%);fill-opacity:1;" d="M 18.230469 0 L 18.230469 21.875 L 25.519531 21.875 L 25.519531 0 Z M 0 7.292969 L 0 14.582031 L 43.75 14.582031 L 43.75 7.292969 Z M 0 7.292969 "/>
<path style=" stroke:none;fill-rule:nonzero;fill:rgb(80%,0%,0%);fill-opacity:1;" d="M 0 8.75 L 0 13.125 L 43.75 13.125 L 43.75 8.75 Z M 19.6875 0 L 19.6875 21.875 L 24.0625 21.875 L 24.0625 0 Z M 19.6875 0 "/>
<path style=" stroke:none;fill-rule:nonzero;fill:rgb(80%,0%,0%);fill-opacity:1;" d="M 0 21.875 L 14.582031 14.582031 L 17.84375 14.582031 L 3.261719 21.875 Z M 0 0 L 14.582031 7.292969 L 11.324219 7.292969 L 0 1.628906 Z M 25.90625 7.292969 L 40.488281 0 L 43.75 0 L 29.167969 7.292969 Z M 43.75 21.875 L 29.167969 14.582031 L 32.425781 14.582031 L 43.75 20.246094 Z M 43.75 21.875 "/>
<path style=" stroke:none;fill-rule:evenodd;fill:rgb(100%,100%,100%);fill-opacity:1;" d="M 47.308594 19.308594 L 74.726562 19.207031 L 74.675781 43.621094 C 74.675781 43.621094 75.644531 47.335938 63.179688 52.980469 C 67.65625 52.523438 72.539062 47.742188 72.539062 47.742188 C 72.539062 47.742188 74.523438 45.199219 75.488281 46.625 C 76.457031 48.046875 77.371094 48.757812 78.085938 49.320312 C 78.796875 49.878906 79.355469 51.40625 78.289062 52.523438 C 77.21875 53.644531 75.539062 53.796875 75.082031 52.421875 C 74.371094 52.777344 69.996094 58.066406 61.042969 58.324219 C 51.9375 58.171875 46.953125 52.371094 46.953125 52.371094 C 46.953125 52.371094 45.734375 54.304688 44.003906 52.777344 C 42.324219 50.792969 43.597656 49.523438 43.597656 49.523438 C 43.597656 49.523438 45.023438 48.707031 45.429688 48.148438 C 46.089844 47.386719 46.292969 46.367188 47.414062 46.367188 C 48.734375 46.46875 49.242188 47.539062 49.242188 47.539062 C 49.242188 47.539062 53.820312 52.371094 58.753906 52.980469 C 47.617188 47.640625 47.207031 44.335938 47.257812 43.519531 Z M 47.308594 19.308594 "/>
<path style="fill-rule:evenodd;fill:rgb(0%,38.039216%,16.078431%);fill-opacity:1;stroke-width:1.568875;stroke-linecap:butt;stroke-linejoin:miter;stroke:rgb(0%,0%,0%);stroke-opacity:1;stroke-miterlimit:4;" d="M 667.549927 128.096444 L 871.306624 126.909157 L 871.306624 310.055772 C 871.702387 333.831953 831.669508 358.003897 769.047735 388.934243 C 704.416707 355.629323 667.184608 335.415002 666.758402 309.66001 Z M 667.549927 128.096444 " transform="matrix(0.128312,0,0,0.128312,-37.68625,3.532375)"/>
<path style="fill:none;stroke-width:1.217737;stroke-linecap:butt;stroke-linejoin:miter;stroke:rgb(96.862745%,77.647059%,0%);stroke-opacity:1;stroke-miterlimit:4;" d="M 69.781703 170.533044 L 79.115051 156.828381 L 88.495656 170.556672 " transform="matrix(0.165318,0,0,0.165318,39.577122,17.671129)"/>
<path style="fill-rule:evenodd;fill:rgb(96.862745%,77.647059%,0%);fill-opacity:1;stroke-width:0.56016;stroke-linecap:butt;stroke-linejoin:miter;stroke:rgb(0%,0%,0%);stroke-opacity:1;stroke-miterlimit:4;" d="M 80.92976 156.726688 C 80.92976 157.661403 80.168945 158.422218 79.212493 158.422218 C 78.277778 158.422218 77.516963 157.661403 77.516963 156.726688 C 77.516963 155.770235 78.277778 155.00942 79.212493 155.00942 C 80.168945 155.00942 80.92976 155.770235 80.92976 156.726688 Z M 80.92976 156.726688 " transform="matrix(0.1797,0,0,0.1797,38.425634,16.851765)"/>
<path style="fill-rule:evenodd;fill:rgb(96.862745%,77.647059%,0%);fill-opacity:1;stroke-width:0.60887;stroke-linecap:butt;stroke-linejoin:miter;stroke:rgb(0%,0%,0%);stroke-opacity:1;stroke-miterlimit:4;" d="M 71.530229 180.669768 L 86.01464 180.693397 C 86.01464 180.693397 86.250927 178.826727 84.502401 177.692548 C 92.087223 176.629256 90.10241 169.942325 96.458538 169.564266 C 97.687231 169.753296 93.150516 172.423342 93.150516 172.423342 C 93.150516 172.423342 89.322662 175.117017 91.071187 176.487483 C 92.441654 177.574405 93.056001 175.825879 93.24503 174.50267 C 93.43406 173.179461 99.3885 172.328827 98.537866 168.524602 C 97.120142 165.40561 88.779201 170.60393 88.779201 170.60393 L 82.84839 170.580301 C 82.47033 169.918697 80.816319 167.24865 79.13868 167.225022 C 77.130238 167.295908 75.712514 170.60393 75.712514 170.60393 L 62.244139 170.60393 C 62.244139 170.60393 61.795193 174.077353 68.623895 174.738957 C 70.159763 176.747399 71.341199 177.29086 72.688037 177.810692 C 71.790145 178.566811 71.530229 179.464703 71.530229 180.669768 Z M 71.530229 180.669768 " transform="matrix(0.165318,0,0,0.165318,39.577122,17.671129)"/>
<path style="fill:none;stroke-width:0.60887;stroke-linecap:butt;stroke-linejoin:miter;stroke:rgb(0%,0%,0%);stroke-opacity:1;stroke-miterlimit:4;" d="M 72.593522 177.716177 L 84.644173 177.66892 " transform="matrix(0.165318,0,0,0.165318,39.577122,17.671129)"/>
<path style="fill:none;stroke-width:0.60887;stroke-linecap:butt;stroke-linejoin:miter;stroke:rgb(0%,0%,0%);stroke-opacity:1;stroke-miterlimit:4;" d="M 67.064399 170.60393 C 67.064399 170.60393 68.033177 176.251196 72.475378 177.574405 " transform="matrix(0.165318,0,0,0.165318,39.577122,17.671129)"/>
<path style="fill-rule:evenodd;fill:url(#linear0);stroke-width:0.60887;stroke-linecap:butt;stroke-linejoin:miter;stroke:rgb(0%,0%,0%);stroke-opacity:1;stroke-miterlimit:4;" d="M 66.30828 170.533044 C 66.757226 168.382829 67.584231 168.028398 68.482123 165.263837 C 68.623895 162.593791 66.30828 162.900964 66.993513 161.199696 C 68.17495 159.333026 67.584231 157.560872 65.363131 156.143148 C 65.812077 158.600536 62.456797 160.892522 62.456797 162.900964 C 62.456797 164.909406 64.158066 164.46046 63.945407 167.508566 C 64.087179 169.280721 63.496461 168.831775 63.354689 170.533044 Z M 66.30828 170.533044 " transform="matrix(0.165318,0,0,0.165318,39.577122,17.671129)"/>
<path style="fill-rule:evenodd;fill:rgb(96.862745%,77.647059%,0%);fill-opacity:1;stroke-width:0.60887;stroke-linecap:butt;stroke-linejoin:miter;stroke:rgb(0%,0%,0%);stroke-opacity:1;stroke-miterlimit:4;" d="M 80.914134 156.714113 C 80.914134 157.659263 80.158015 158.415382 79.212866 158.415382 C 78.267716 158.415382 77.511597 157.659263 77.511597 156.714113 C 77.511597 155.768964 78.267716 155.012845 79.212866 155.012845 C 80.158015 155.012845 80.914134 155.768964 80.914134 156.714113 Z M 80.914134 156.714113 " transform="matrix(0.165318,0,0,0.165318,39.564858,17.744707)"/>
<path style="fill:none;stroke-width:1.217737;stroke-linecap:butt;stroke-linejoin:miter;stroke:rgb(96.862745%,77.647059%,0%);stroke-opacity:1;stroke-miterlimit:4;" d="M 69.789657 170.540615 L 79.123005 156.812324 L 88.50361 170.564244 " transform="matrix(0.165318,0,0,0.165318,39.489869,13.005815)"/>
<path style="fill-rule:evenodd;fill:rgb(96.862745%,77.647059%,0%);fill-opacity:1;stroke-width:0.56016;stroke-linecap:butt;stroke-linejoin:miter;stroke:rgb(0%,0%,0%);stroke-opacity:1;stroke-miterlimit:4;" d="M 80.91534 156.711916 C 80.91534 157.668368 80.154526 158.429183 79.21981 158.429183 C 78.263358 158.429183 77.502543 157.668368 77.502543 156.711916 C 77.502543 155.777201 78.263358 155.016386 79.21981 155.016386 C 80.154526 155.016386 80.91534 155.777201 80.91534 156.711916 Z M 80.91534 156.711916 " transform="matrix(0.1797,0,0,0.1797,38.338381,12.18645)"/>
<path style="fill-rule:evenodd;fill:rgb(96.862745%,77.647059%,0%);fill-opacity:1;stroke-width:0.60887;stroke-linecap:butt;stroke-linejoin:miter;stroke:rgb(0%,0%,0%);stroke-opacity:1;stroke-miterlimit:4;" d="M 71.538183 180.653711 L 86.022594 180.700968 C 86.022594 180.700968 86.235252 178.834299 84.510355 177.676491 C 92.071548 176.636827 90.110364 169.949897 96.466492 169.571837 C 97.695186 169.760867 93.134841 172.407285 93.134841 172.407285 C 93.134841 172.407285 89.306987 175.124588 91.055513 176.495055 C 92.449608 177.581976 93.040326 175.83345 93.229356 174.510241 C 93.418386 173.163404 99.396454 172.31277 98.54582 168.532173 C 97.128096 165.413181 88.787155 170.611501 88.787155 170.611501 L 82.832716 170.587873 C 82.478285 169.926268 80.824274 167.232593 79.123005 167.232593 C 77.114563 167.303479 75.720468 170.611501 75.720468 170.611501 L 62.252093 170.611501 C 62.252093 170.611501 61.803147 174.061296 68.608221 174.7229 C 70.144088 176.731342 71.349154 177.298431 72.672362 177.818263 C 71.798099 178.550754 71.538183 179.448646 71.538183 180.653711 Z M 71.538183 180.653711 " transform="matrix(0.165318,0,0,0.165318,39.489869,13.005815)"/>
<path style="fill:none;stroke-width:0.60887;stroke-linecap:butt;stroke-linejoin:miter;stroke:rgb(0%,0%,0%);stroke-opacity:1;stroke-miterlimit:4;" d="M 72.577847 177.723749 L 84.628499 177.676491 " transform="matrix(0.165318,0,0,0.165318,39.489869,13.005815)"/>
<path style="fill:none;stroke-width:0.60887;stroke-linecap:butt;stroke-linejoin:miter;stroke:rgb(0%,0%,0%);stroke-opacity:1;stroke-miterlimit:4;" d="M 67.072354 170.611501 C 67.072354 170.611501 68.017503 176.258767 72.483332 177.581976 " transform="matrix(0.165318,0,0,0.165318,39.489869,13.005815)"/>
<path style="fill-rule:evenodd;fill:url(#linear1);stroke-width:0.60887;stroke-linecap:butt;stroke-linejoin:miter;stroke:rgb(0%,0%,0%);stroke-opacity:1;stroke-miterlimit:4;" d="M 66.316234 170.540615 C 66.76518 168.390401 67.592186 168.012341 68.466449 165.271409 C 68.608221 162.601362 66.316234 162.908536 66.977839 161.183639 C 68.182904 159.340598 67.592186 157.568443 65.347456 156.150719 C 65.796402 158.608107 62.464752 160.900094 62.464752 162.908536 C 62.464752 164.893349 64.16602 164.468032 63.953362 167.492509 C 64.095134 169.288292 63.504416 168.839347 63.362643 170.540615 Z M 66.316234 170.540615 " transform="matrix(0.165318,0,0,0.165318,39.489869,13.005815)"/>
<path style="fill-rule:evenodd;fill:rgb(96.862745%,77.647059%,0%);fill-opacity:1;stroke-width:0.60887;stroke-linecap:butt;stroke-linejoin:miter;stroke:rgb(0%,0%,0%);stroke-opacity:1;stroke-miterlimit:4;" d="M 80.922088 156.721685 C 80.922088 157.666834 80.165969 158.422953 79.22082 158.422953 C 78.275671 158.422953 77.519551 157.666834 77.519551 156.721685 C 77.519551 155.776536 78.275671 155.020416 79.22082 155.020416 C 80.165969 155.020416 80.922088 155.776536 80.922088 156.721685 Z M 80.922088 156.721685 " transform="matrix(0.165318,0,0,0.165318,39.477605,13.079393)"/>
<path style="fill:none;stroke-width:1.217737;stroke-linecap:butt;stroke-linejoin:miter;stroke:rgb(96.862745%,77.647059%,0%);stroke-opacity:1;stroke-miterlimit:4;" d="M 69.782157 170.53334 L 79.115504 156.828677 L 88.49611 170.556968 " transform="matrix(0.165318,0,0,0.165318,55.885641,8.76483)"/>
<path style="fill-rule:evenodd;fill:rgb(96.862745%,77.647059%,0%);fill-opacity:1;stroke-width:0.56016;stroke-linecap:butt;stroke-linejoin:miter;stroke:rgb(0%,0%,0%);stroke-opacity:1;stroke-miterlimit:4;" d="M 80.930177 156.72696 C 80.930177 157.661675 80.169363 158.42249 79.21291 158.42249 C 78.278195 158.42249 77.51738 157.661675 77.51738 156.72696 C 77.51738 155.770507 78.278195 155.009693 79.21291 155.009693 C 80.169363 155.009693 80.930177 155.770507 80.930177 156.72696 Z M 80.930177 156.72696 " transform="matrix(0.1797,0,0,0.1797,54.734152,7.945466)"/>
<path style="fill-rule:evenodd;fill:rgb(96.862745%,77.647059%,0%);fill-opacity:1;stroke-width:0.60887;stroke-linecap:butt;stroke-linejoin:miter;stroke:rgb(0%,0%,0%);stroke-opacity:1;stroke-miterlimit:4;" d="M 71.530683 180.670064 L 86.015093 180.693693 C 86.015093 180.693693 86.25138 178.827023 84.502855 177.692844 C 92.087676 176.629552 90.102863 169.942622 96.458991 169.564562 C 97.687685 169.753592 93.150969 172.423638 93.150969 172.423638 C 93.150969 172.423638 89.323115 175.117313 91.071641 176.487779 C 92.442107 177.574701 93.056454 175.826175 93.245484 174.502966 C 93.434514 173.179757 99.388954 172.329123 98.538319 168.524898 C 97.120596 165.405906 88.779654 170.604226 88.779654 170.604226 L 82.848844 170.580597 C 82.470784 169.918993 80.816773 167.248946 79.139133 167.225318 C 77.130691 167.296204 75.712968 170.604226 75.712968 170.604226 L 62.244592 170.604226 C 62.244592 170.604226 61.795647 174.077649 68.624349 174.739253 C 70.160216 176.747695 71.341653 177.291156 72.68849 177.810988 C 71.790599 178.567107 71.530683 179.464999 71.530683 180.670064 Z M 71.530683 180.670064 " transform="matrix(0.165318,0,0,0.165318,55.885641,8.76483)"/>
<path style="fill:none;stroke-width:0.60887;stroke-linecap:butt;stroke-linejoin:miter;stroke:rgb(0%,0%,0%);stroke-opacity:1;stroke-miterlimit:4;" d="M 72.593975 177.716473 L 84.644627 177.669216 " transform="matrix(0.165318,0,0,0.165318,55.885641,8.76483)"/>
<path style="fill:none;stroke-width:0.60887;stroke-linecap:butt;stroke-linejoin:miter;stroke:rgb(0%,0%,0%);stroke-opacity:1;stroke-miterlimit:4;" d="M 67.064853 170.604226 C 67.064853 170.604226 68.033631 176.251492 72.475832 177.574701 " transform="matrix(0.165318,0,0,0.165318,55.885641,8.76483)"/>
<path style="fill-rule:evenodd;fill:url(#linear2);stroke-width:0.60887;stroke-linecap:butt;stroke-linejoin:miter;stroke:rgb(0%,0%,0%);stroke-opacity:1;stroke-miterlimit:4;" d="M 66.308734 170.53334 C 66.757679 168.383125 67.584685 168.028695 68.482577 165.264133 C 68.624349 162.594087 66.308734 162.90126 66.993967 161.199992 C 68.175403 159.333322 67.584685 157.561168 65.363585 156.143444 C 65.788902 158.600832 62.457251 160.892818 62.457251 162.90126 C 62.457251 164.909702 64.158519 164.460757 63.945861 167.508862 C 64.087633 169.281017 63.496915 168.832071 63.355143 170.53334 Z M 66.308734 170.53334 " transform="matrix(0.165318,0,0,0.165318,55.885641,8.76483)"/>
<path style="fill-rule:evenodd;fill:rgb(96.862745%,77.647059%,0%);fill-opacity:1;stroke-width:0.60887;stroke-linecap:butt;stroke-linejoin:miter;stroke:rgb(0%,0%,0%);stroke-opacity:1;stroke-miterlimit:4;" d="M 80.914588 156.714409 C 80.914588 157.659559 80.158468 158.415678 79.213319 158.415678 C 78.26817 158.415678 77.512051 157.659559 77.512051 156.714409 C 77.512051 155.76926 78.26817 155.013141 79.213319 155.013141 C 80.158468 155.013141 80.914588 155.76926 80.914588 156.714409 Z M 80.914588 156.714409 " transform="matrix(0.165318,0,0,0.165318,55.873376,8.838408)"/>
<path style="fill:none;stroke-width:1.217737;stroke-linecap:butt;stroke-linejoin:miter;stroke:rgb(96.862745%,77.647059%,0%);stroke-opacity:1;stroke-miterlimit:4;" d="M 69.792327 170.532627 L 79.125674 156.827965 L 88.506279 170.556256 " transform="matrix(0.165318,0,0,0.165318,39.872241,4.229792)"/>
<path style="fill-rule:evenodd;fill:rgb(96.862745%,77.647059%,0%);fill-opacity:1;stroke-width:0.56016;stroke-linecap:butt;stroke-linejoin:miter;stroke:rgb(0%,0%,0%);stroke-opacity:1;stroke-miterlimit:4;" d="M 80.917796 156.726305 C 80.917796 157.66102 80.156981 158.421835 79.222266 158.421835 C 78.265813 158.421835 77.504999 157.66102 77.504999 156.726305 C 77.504999 155.769852 78.265813 155.009038 79.222266 155.009038 C 80.156981 155.009038 80.917796 155.769852 80.917796 156.726305 Z M 80.917796 156.726305 " transform="matrix(0.1797,0,0,0.1797,38.720752,3.410427)"/>
<path style="fill-rule:evenodd;fill:rgb(96.862745%,77.647059%,0%);fill-opacity:1;stroke-width:0.60887;stroke-linecap:butt;stroke-linejoin:miter;stroke:rgb(0%,0%,0%);stroke-opacity:1;stroke-miterlimit:4;" d="M 71.540852 180.669352 L 86.025263 180.692981 C 86.025263 180.692981 86.237922 178.826311 84.513024 177.692132 C 92.074217 176.628839 90.113033 169.941909 96.469161 169.56385 C 97.697855 169.752879 93.13751 172.422926 93.13751 172.422926 C 93.13751 172.422926 89.309656 175.116601 91.058182 176.487067 C 92.452277 177.573989 93.042995 175.825463 93.232025 174.502254 C 93.421055 173.179045 99.399123 172.328411 98.548489 168.524186 C 97.130765 165.405193 88.789824 170.627142 88.789824 170.627142 L 82.835385 170.579885 C 82.457325 169.918281 80.826943 167.248234 79.125674 167.224606 C 77.117232 167.295492 75.699509 170.627142 75.699509 170.627142 L 62.254762 170.627142 C 62.254762 170.627142 61.782188 174.076937 68.61089 174.738541 C 70.146757 176.746983 71.351823 177.290444 72.675031 177.810276 C 71.77714 178.566395 71.540852 179.464287 71.540852 180.669352 Z M 71.540852 180.669352 " transform="matrix(0.165318,0,0,0.165318,39.872241,4.229792)"/>
<path style="fill:none;stroke-width:0.60887;stroke-linecap:butt;stroke-linejoin:miter;stroke:rgb(0%,0%,0%);stroke-opacity:1;stroke-miterlimit:4;" d="M 72.580516 177.715761 L 84.631168 177.668503 " transform="matrix(0.165318,0,0,0.165318,39.872241,4.229792)"/>
<path style="fill:none;stroke-width:0.60887;stroke-linecap:butt;stroke-linejoin:miter;stroke:rgb(0%,0%,0%);stroke-opacity:1;stroke-miterlimit:4;" d="M 67.051394 170.603514 C 67.051394 170.603514 68.020172 176.25078 72.486002 177.573989 " transform="matrix(0.165318,0,0,0.165318,39.872241,4.229792)"/>
<path style="fill-rule:evenodd;fill:url(#linear3);stroke-width:0.60887;stroke-linecap:butt;stroke-linejoin:miter;stroke:rgb(0%,0%,0%);stroke-opacity:1;stroke-miterlimit:4;" d="M 66.318903 170.532627 C 66.767849 168.382413 67.571226 168.027982 68.469118 165.263421 C 68.61089 162.593375 66.318903 162.900548 66.980508 161.19928 C 68.185573 159.33261 67.571226 157.560456 65.350126 156.142732 C 65.799071 158.60012 62.467421 160.892106 62.467421 162.900548 C 62.467421 164.90899 64.168689 164.460044 63.956031 167.50815 C 64.097803 169.280305 63.507085 168.831359 63.341684 170.532627 Z M 66.318903 170.532627 " transform="matrix(0.165318,0,0,0.165318,39.872241,4.229792)"/>
<path style="fill-rule:evenodd;fill:rgb(96.862745%,77.647059%,0%);fill-opacity:1;stroke-width:0.60887;stroke-linecap:butt;stroke-linejoin:miter;stroke:rgb(0%,0%,0%);stroke-opacity:1;stroke-miterlimit:4;" d="M 80.924757 156.713697 C 80.924757 157.658846 80.168638 158.414966 79.223489 158.414966 C 78.27834 158.414966 77.522221 157.658846 77.522221 156.713697 C 77.522221 155.768548 78.27834 155.012429 79.223489 155.012429 C 80.168638 155.012429 80.924757 155.768548 80.924757 156.713697 Z M 80.924757 156.713697 " transform="matrix(0.165318,0,0,0.165318,39.859976,4.30337)"/>
<path style="fill:none;stroke-width:1.217737;stroke-linecap:butt;stroke-linejoin:miter;stroke:rgb(96.862745%,77.647059%,0%);stroke-opacity:1;stroke-miterlimit:4;" d="M 69.795423 170.534605 L 79.128771 156.829942 L 88.509376 170.558233 " transform="matrix(0.165318,0,0,0.165318,39.906885,-0.227566)"/>
<path style="fill-rule:evenodd;fill:rgb(96.862745%,77.647059%,0%);fill-opacity:1;stroke-width:0.56016;stroke-linecap:butt;stroke-linejoin:miter;stroke:rgb(0%,0%,0%);stroke-opacity:1;stroke-miterlimit:4;" d="M 80.920644 156.728124 C 80.920644 157.662839 80.159829 158.423654 79.225114 158.423654 C 78.268662 158.423654 77.507847 157.662839 77.507847 156.728124 C 77.507847 155.771671 78.268662 155.010857 79.225114 155.010857 C 80.159829 155.010857 80.920644 155.771671 80.920644 156.728124 Z M 80.920644 156.728124 " transform="matrix(0.1797,0,0,0.1797,38.755397,-1.046931)"/>
<path style="fill-rule:evenodd;fill:rgb(96.862745%,77.647059%,0%);fill-opacity:1;stroke-width:0.60887;stroke-linecap:butt;stroke-linejoin:miter;stroke:rgb(0%,0%,0%);stroke-opacity:1;stroke-miterlimit:4;" d="M 71.543949 180.671329 L 86.004731 180.694958 C 86.004731 180.694958 86.241018 178.828288 84.492492 177.670481 C 92.077314 176.630817 90.116129 169.943886 96.472257 169.565827 C 97.700951 169.754857 93.140607 172.424903 93.140607 172.424903 C 93.140607 172.424903 89.312753 175.118578 91.061278 176.489044 C 92.455373 177.575966 93.046092 175.82744 93.235122 174.504231 C 93.424151 173.181022 99.40222 172.330388 98.551585 168.526163 C 97.133862 165.407171 88.792921 170.605491 88.792921 170.605491 L 82.838481 170.581862 C 82.460421 169.920258 80.830039 167.226583 79.128771 167.226583 C 77.120329 167.297469 75.702605 170.605491 75.702605 170.605491 L 62.257858 170.605491 C 62.257858 170.605491 61.785284 174.078914 68.613986 174.740518 C 70.149854 176.74896 71.354919 177.292421 72.678128 177.812253 C 71.780236 178.568372 71.543949 179.466264 71.543949 180.671329 Z M 71.543949 180.671329 " transform="matrix(0.165318,0,0,0.165318,39.906885,-0.227566)"/>
<path style="fill:none;stroke-width:0.60887;stroke-linecap:butt;stroke-linejoin:miter;stroke:rgb(0%,0%,0%);stroke-opacity:1;stroke-miterlimit:4;" d="M 72.583613 177.717738 L 84.634264 177.670481 " transform="matrix(0.165318,0,0,0.165318,39.906885,-0.227566)"/>
<path style="fill:none;stroke-width:0.60887;stroke-linecap:butt;stroke-linejoin:miter;stroke:rgb(0%,0%,0%);stroke-opacity:1;stroke-miterlimit:4;" d="M 67.05449 170.605491 C 67.05449 170.605491 68.023268 176.252757 72.489098 177.575966 " transform="matrix(0.165318,0,0,0.165318,39.906885,-0.227566)"/>
<path style="fill-rule:evenodd;fill:url(#linear4);stroke-width:0.60887;stroke-linecap:butt;stroke-linejoin:miter;stroke:rgb(0%,0%,0%);stroke-opacity:1;stroke-miterlimit:4;" d="M 66.322 170.534605 C 66.770946 168.38439 67.574322 168.006331 68.472214 165.265398 C 68.613986 162.595352 66.322 162.902525 66.983604 161.201257 C 68.165041 159.334587 67.574322 157.562433 65.353222 156.144709 C 65.802168 158.602097 62.470517 160.894083 62.470517 162.902525 C 62.470517 164.910967 64.171785 164.462021 63.935498 167.510127 C 64.100899 169.282282 63.510181 168.833336 63.34478 170.534605 Z M 66.322 170.534605 " transform="matrix(0.165318,0,0,0.165318,39.906885,-0.227566)"/>
<path style="fill-rule:evenodd;fill:rgb(96.862745%,77.647059%,0%);fill-opacity:1;stroke-width:0.60887;stroke-linecap:butt;stroke-linejoin:miter;stroke:rgb(0%,0%,0%);stroke-opacity:1;stroke-miterlimit:4;" d="M 80.927854 156.715674 C 80.927854 157.660824 80.148106 158.416943 79.226585 158.416943 C 78.281436 158.416943 77.501688 157.660824 77.501688 156.715674 C 77.501688 155.770525 78.281436 155.014406 79.226585 155.014406 C 80.148106 155.014406 80.927854 155.770525 80.927854 156.715674 Z M 80.927854 156.715674 " transform="matrix(0.165318,0,0,0.165318,39.894621,-0.153988)"/>
<path style="fill:none;stroke-width:1.217737;stroke-linecap:butt;stroke-linejoin:miter;stroke:rgb(96.862745%,77.647059%,0%);stroke-opacity:1;stroke-miterlimit:4;" d="M 69.779363 170.528948 L 79.112711 156.824286 L 88.493316 170.552577 " transform="matrix(0.165318,0,0,0.165318,39.991571,-4.750069)"/>
<path style="fill-rule:evenodd;fill:rgb(96.862745%,77.647059%,0%);fill-opacity:1;stroke-width:0.56016;stroke-linecap:butt;stroke-linejoin:miter;stroke:rgb(0%,0%,0%);stroke-opacity:1;stroke-miterlimit:4;" d="M 80.927607 156.72292 C 80.927607 157.657635 80.166792 158.41845 79.21034 158.41845 C 78.275625 158.41845 77.51481 157.657635 77.51481 156.72292 C 77.51481 155.788205 78.275625 155.005653 79.21034 155.005653 C 80.166792 155.005653 80.927607 155.788205 80.927607 156.72292 Z M 80.927607 156.72292 " transform="matrix(0.1797,0,0,0.1797,38.840083,-5.569433)"/>
<path style="fill-rule:evenodd;fill:rgb(96.862745%,77.647059%,0%);fill-opacity:1;stroke-width:0.60887;stroke-linecap:butt;stroke-linejoin:miter;stroke:rgb(0%,0%,0%);stroke-opacity:1;stroke-miterlimit:4;" d="M 71.551518 180.665673 L 86.012299 180.71293 C 86.012299 180.71293 86.248587 178.822632 84.500061 177.688453 C 92.084883 176.648789 90.123698 169.961859 96.456197 169.583799 C 97.684891 169.772829 93.148175 172.419246 93.148175 172.419246 C 93.148175 172.419246 89.320321 175.112922 91.068847 176.483388 C 92.439313 177.570309 93.05366 175.821783 93.24269 174.498575 C 93.43172 173.175366 99.409788 172.324732 98.535525 168.520506 C 97.117802 165.401514 88.776861 170.623463 88.776861 170.623463 L 82.84605 170.576206 C 82.46799 169.914601 80.837608 167.244555 79.136339 167.220926 C 77.127897 167.291812 75.710174 170.623463 75.710174 170.623463 L 62.265427 170.623463 C 62.265427 170.623463 61.792853 174.073257 68.621555 174.734862 C 70.157423 176.743304 71.338859 177.286765 72.685696 177.806597 C 71.787805 178.562716 71.527889 179.460608 71.551518 180.665673 Z M 71.551518 180.665673 " transform="matrix(0.165318,0,0,0.165318,39.991571,-4.750069)"/>
<path style="fill:none;stroke-width:0.60887;stroke-linecap:butt;stroke-linejoin:miter;stroke:rgb(0%,0%,0%);stroke-opacity:1;stroke-miterlimit:4;" d="M 72.591182 177.712082 L 84.641833 177.688453 " transform="matrix(0.165318,0,0,0.165318,39.991571,-4.750069)"/>
<path style="fill:none;stroke-width:0.60887;stroke-linecap:butt;stroke-linejoin:miter;stroke:rgb(0%,0%,0%);stroke-opacity:1;stroke-miterlimit:4;" d="M 67.062059 170.599834 C 67.062059 170.599834 68.030837 176.2471 72.473038 177.593938 " transform="matrix(0.165318,0,0,0.165318,39.991571,-4.750069)"/>
<path style="fill-rule:evenodd;fill:url(#linear5);stroke-width:0.60887;stroke-linecap:butt;stroke-linejoin:miter;stroke:rgb(0%,0%,0%);stroke-opacity:1;stroke-miterlimit:4;" d="M 66.329569 170.528948 C 66.754886 168.378734 67.581891 168.024303 68.479783 165.28337 C 68.621555 162.613324 66.329569 162.896869 66.991173 161.1956 C 68.172609 159.328931 67.581891 157.556776 65.360791 156.139053 C 65.809736 158.59644 62.454457 160.888427 62.454457 162.896869 C 62.454457 164.905311 64.179354 164.456365 63.943067 167.504471 C 64.084839 169.276626 63.494121 168.82768 63.352349 170.528948 Z M 66.329569 170.528948 " transform="matrix(0.165318,0,0,0.165318,39.991571,-4.750069)"/>
<path style="fill-rule:evenodd;fill:rgb(96.862745%,77.647059%,0%);fill-opacity:1;stroke-width:0.60887;stroke-linecap:butt;stroke-linejoin:miter;stroke:rgb(0%,0%,0%);stroke-opacity:1;stroke-miterlimit:4;" d="M 80.911794 156.710018 C 80.911794 157.655167 80.155674 158.434915 79.210525 158.434915 C 78.265376 158.434915 77.509257 157.655167 77.509257 156.710018 C 77.509257 155.788497 78.265376 155.008749 79.210525 155.008749 C 80.155674 155.008749 80.911794 155.788497 80.911794 156.710018 Z M 80.911794 156.710018 " transform="matrix(0.165318,0,0,0.165318,39.979307,-4.676491)"/>
<path style="fill:none;stroke-width:1.217737;stroke-linecap:butt;stroke-linejoin:miter;stroke:rgb(96.862745%,77.647059%,0%);stroke-opacity:1;stroke-miterlimit:4;" d="M 69.777299 170.53238 L 79.110646 156.827718 L 88.491252 170.556009 " transform="matrix(0.165318,0,0,0.165318,56.007537,-4.676417)"/>
<path style="fill-rule:evenodd;fill:rgb(96.862745%,77.647059%,0%);fill-opacity:1;stroke-width:0.56016;stroke-linecap:butt;stroke-linejoin:miter;stroke:rgb(0%,0%,0%);stroke-opacity:1;stroke-miterlimit:4;" d="M 80.925708 156.726077 C 80.925708 157.660793 80.164893 158.421607 79.208441 158.421607 C 78.273726 158.421607 77.512911 157.660793 77.512911 156.726077 C 77.512911 155.769625 78.273726 155.00881 79.208441 155.00881 C 80.164893 155.00881 80.925708 155.769625 80.925708 156.726077 Z M 80.925708 156.726077 " transform="matrix(0.1797,0,0,0.1797,54.856049,-5.495782)"/>
<path style="fill-rule:evenodd;fill:rgb(96.862745%,77.647059%,0%);fill-opacity:1;stroke-width:0.60887;stroke-linecap:butt;stroke-linejoin:miter;stroke:rgb(0%,0%,0%);stroke-opacity:1;stroke-miterlimit:4;" d="M 71.549453 180.669105 L 86.010235 180.692733 C 86.010235 180.692733 86.246522 178.826064 84.497997 177.691885 C 92.082818 176.628592 90.121634 169.941662 96.454133 169.563602 C 97.682827 169.752632 93.146111 172.422678 93.146111 172.422678 C 93.146111 172.422678 89.318257 175.116354 91.066783 176.48682 C 92.437249 177.573741 93.051596 175.825215 93.240626 174.502007 C 93.429656 173.178798 99.407724 172.328164 98.55709 168.523938 C 97.115738 165.404946 88.798425 170.626895 88.798425 170.626895 L 82.843986 170.579638 C 82.465926 169.918033 80.835544 167.247987 79.134275 167.224358 C 77.125833 167.295244 75.70811 170.626895 75.70811 170.626895 L 62.263363 170.626895 C 62.263363 170.626895 61.790788 174.076689 68.619491 174.738294 C 70.155358 176.746736 71.336795 177.290197 72.683632 177.810029 C 71.785741 178.566148 71.549453 179.46404 71.549453 180.669105 Z M 71.549453 180.669105 " transform="matrix(0.165318,0,0,0.165318,56.007537,-4.676417)"/>
<path style="fill:none;stroke-width:0.60887;stroke-linecap:butt;stroke-linejoin:miter;stroke:rgb(0%,0%,0%);stroke-opacity:1;stroke-miterlimit:4;" d="M 72.589117 177.715514 L 84.639769 177.668256 " transform="matrix(0.165318,0,0,0.165318,56.007537,-4.676417)"/>
<path style="fill:none;stroke-width:0.60887;stroke-linecap:butt;stroke-linejoin:miter;stroke:rgb(0%,0%,0%);stroke-opacity:1;stroke-miterlimit:4;" d="M 67.059995 170.603266 C 67.059995 170.603266 68.028773 176.250532 72.470974 177.573741 " transform="matrix(0.165318,0,0,0.165318,56.007537,-4.676417)"/>
<path style="fill-rule:evenodd;fill:url(#linear6);stroke-width:0.60887;stroke-linecap:butt;stroke-linejoin:miter;stroke:rgb(0%,0%,0%);stroke-opacity:1;stroke-miterlimit:4;" d="M 66.327504 170.53238 C 66.77645 168.382166 67.579827 168.027735 68.477719 165.263174 C 68.619491 162.593127 66.327504 162.900301 66.989109 161.199032 C 68.170545 159.332363 67.579827 157.560208 65.358726 156.142485 C 65.807672 158.599872 62.452393 160.891859 62.452393 162.900301 C 62.452393 164.908743 64.17729 164.459797 63.941003 167.507903 C 64.082775 169.280058 63.492057 168.831112 63.350285 170.53238 Z M 66.327504 170.53238 " transform="matrix(0.165318,0,0,0.165318,56.007537,-4.676417)"/>
<path style="fill-rule:evenodd;fill:rgb(96.862745%,77.647059%,0%);fill-opacity:1;stroke-width:0.60887;stroke-linecap:butt;stroke-linejoin:miter;stroke:rgb(0%,0%,0%);stroke-opacity:1;stroke-miterlimit:4;" d="M 80.933358 156.71345 C 80.933358 157.658599 80.15361 158.414718 79.208461 158.414718 C 78.263312 158.414718 77.507193 157.658599 77.507193 156.71345 C 77.507193 155.768301 78.263312 155.012181 79.208461 155.012181 C 80.15361 155.012181 80.933358 155.768301 80.933358 156.71345 Z M 80.933358 156.71345 " transform="matrix(0.165318,0,0,0.165318,55.995273,-4.602839)"/>
<path style="fill:none;stroke-width:1.217737;stroke-linecap:butt;stroke-linejoin:miter;stroke:rgb(96.862745%,77.647059%,0%);stroke-opacity:1;stroke-miterlimit:4;" d="M 69.787854 170.520378 L 79.121202 156.815715 L 88.501807 170.567635 " transform="matrix(0.165318,0,0,0.165318,55.861261,-0.236933)"/>
<path style="fill-rule:evenodd;fill:rgb(96.862745%,77.647059%,0%);fill-opacity:1;stroke-width:0.56016;stroke-linecap:butt;stroke-linejoin:miter;stroke:rgb(0%,0%,0%);stroke-opacity:1;stroke-miterlimit:4;" d="M 80.913681 156.715036 C 80.913681 157.671488 80.152867 158.432303 79.218151 158.432303 C 78.283436 158.432303 77.500884 157.671488 77.500884 156.715036 C 77.500884 155.780321 78.283436 155.019506 79.218151 155.019506 C 80.152867 155.019506 80.913681 155.780321 80.913681 156.715036 Z M 80.913681 156.715036 " transform="matrix(0.1797,0,0,0.1797,54.709773,-1.056298)"/>
<path style="fill-rule:evenodd;fill:rgb(96.862745%,77.647059%,0%);fill-opacity:1;stroke-width:0.60887;stroke-linecap:butt;stroke-linejoin:miter;stroke:rgb(0%,0%,0%);stroke-opacity:1;stroke-miterlimit:4;" d="M 71.53638 180.657102 L 86.020791 180.70436 C 86.020791 180.70436 86.233449 178.814062 84.508552 177.679883 C 92.093374 176.640219 90.108561 169.953288 96.464689 169.575229 C 97.693382 169.764259 93.156667 172.410676 93.156667 172.410676 C 93.156667 172.410676 89.328813 175.12798 91.05371 176.498446 C 92.447805 177.585368 93.062152 175.836842 93.251181 174.490004 C 93.440211 173.166796 99.394651 172.316161 98.544017 168.535565 C 97.126293 165.392944 88.785352 170.614893 88.785352 170.614893 L 82.830912 170.591264 C 82.476481 169.906031 80.82247 167.235985 79.144831 167.235985 C 77.136389 167.306871 75.718665 170.614893 75.718665 170.614893 L 62.25029 170.614893 C 62.25029 170.614893 61.801344 174.064687 68.606418 174.726292 C 70.142285 176.734734 71.34735 177.301823 72.670559 177.821655 C 71.796296 178.554146 71.53638 179.452037 71.53638 180.657102 Z M 71.53638 180.657102 " transform="matrix(0.165318,0,0,0.165318,55.861261,-0.236933)"/>
<path style="fill:none;stroke-width:0.60887;stroke-linecap:butt;stroke-linejoin:miter;stroke:rgb(0%,0%,0%);stroke-opacity:1;stroke-miterlimit:4;" d="M 72.576044 177.72714 L 84.626696 177.679883 " transform="matrix(0.165318,0,0,0.165318,55.861261,-0.236933)"/>
<path style="fill:none;stroke-width:0.60887;stroke-linecap:butt;stroke-linejoin:miter;stroke:rgb(0%,0%,0%);stroke-opacity:1;stroke-miterlimit:4;" d="M 67.07055 170.614893 C 67.07055 170.614893 68.015699 176.23853 72.481529 177.585368 " transform="matrix(0.165318,0,0,0.165318,55.861261,-0.236933)"/>
<path style="fill-rule:evenodd;fill:url(#linear7);stroke-width:0.60887;stroke-linecap:butt;stroke-linejoin:miter;stroke:rgb(0%,0%,0%);stroke-opacity:1;stroke-miterlimit:4;" d="M 66.314431 170.544007 C 66.763377 168.393792 67.590382 168.015733 68.464645 165.2748 C 68.630046 162.604754 66.314431 162.888299 66.976035 161.18703 C 68.181101 159.343989 67.590382 157.548206 65.345653 156.154111 C 65.794599 158.58787 62.462948 160.903485 62.462948 162.888299 C 62.462948 164.896741 64.164217 164.447795 63.951558 167.495901 C 64.093331 169.268055 63.502612 168.842738 63.36084 170.544007 Z M 66.314431 170.544007 " transform="matrix(0.165318,0,0,0.165318,55.861261,-0.236933)"/>
<path style="fill-rule:evenodd;fill:rgb(96.862745%,77.647059%,0%);fill-opacity:1;stroke-width:0.60887;stroke-linecap:butt;stroke-linejoin:miter;stroke:rgb(0%,0%,0%);stroke-opacity:1;stroke-miterlimit:4;" d="M 80.920285 156.725076 C 80.920285 157.670225 80.164166 158.426345 79.219017 158.426345 C 78.273867 158.426345 77.517748 157.670225 77.517748 156.725076 C 77.517748 155.779927 78.273867 155.023808 79.219017 155.023808 C 80.164166 155.023808 80.920285 155.779927 80.920285 156.725076 Z M 80.920285 156.725076 " transform="matrix(0.165318,0,0,0.165318,55.848997,-0.163355)"/>
<path style="fill:none;stroke-width:1.217737;stroke-linecap:butt;stroke-linejoin:miter;stroke:rgb(96.862745%,77.647059%,0%);stroke-opacity:1;stroke-miterlimit:4;" d="M 69.793937 170.52873 L 79.127285 156.824068 L 88.50789 170.552359 " transform="matrix(0.165318,0,0,0.165318,55.664943,4.300749)"/>
<path style="fill-rule:evenodd;fill:rgb(96.862745%,77.647059%,0%);fill-opacity:1;stroke-width:0.56016;stroke-linecap:butt;stroke-linejoin:miter;stroke:rgb(0%,0%,0%);stroke-opacity:1;stroke-miterlimit:4;" d="M 80.919277 156.722719 C 80.919277 157.657435 80.158463 158.418249 79.223748 158.418249 C 78.267295 158.418249 77.50648 157.657435 77.50648 156.722719 C 77.50648 155.788004 78.267295 155.005452 79.223748 155.005452 C 80.158463 155.005452 80.919277 155.788004 80.919277 156.722719 Z M 80.919277 156.722719 " transform="matrix(0.1797,0,0,0.1797,54.513455,3.481384)"/>
<path style="fill-rule:evenodd;fill:rgb(96.862745%,77.647059%,0%);fill-opacity:1;stroke-width:0.60887;stroke-linecap:butt;stroke-linejoin:miter;stroke:rgb(0%,0%,0%);stroke-opacity:1;stroke-miterlimit:4;" d="M 71.542463 180.665455 L 86.003245 180.712712 C 86.003245 180.712712 86.239532 178.822414 84.491006 177.688235 C 92.075828 176.648571 90.114644 169.961641 96.470772 169.583581 C 97.699465 169.772611 93.139121 172.419028 93.139121 172.419028 C 93.139121 172.419028 89.311267 175.112703 91.059793 176.48317 C 92.453888 177.570091 93.044606 175.821565 93.233636 174.498356 C 93.422666 173.175148 99.400734 172.324513 98.5501 168.520288 C 97.132376 165.401296 88.791435 170.623245 88.791435 170.623245 L 82.836995 170.575988 C 82.458936 169.914383 80.828553 167.244337 79.127285 167.220708 C 77.118843 167.291594 75.701119 170.623245 75.701119 170.623245 L 62.256373 170.623245 C 62.256373 170.623245 61.783798 174.073039 68.612501 174.734644 C 70.148368 176.743086 71.353433 177.286546 72.676642 177.806378 C 71.77875 178.562498 71.542463 179.460389 71.542463 180.665455 Z M 71.542463 180.665455 " transform="matrix(0.165318,0,0,0.165318,55.664943,4.300749)"/>
<path style="fill:none;stroke-width:0.60887;stroke-linecap:butt;stroke-linejoin:miter;stroke:rgb(0%,0%,0%);stroke-opacity:1;stroke-miterlimit:4;" d="M 72.582127 177.711864 L 84.632779 177.688235 " transform="matrix(0.165318,0,0,0.165318,55.664943,4.300749)"/>
<path style="fill:none;stroke-width:0.60887;stroke-linecap:butt;stroke-linejoin:miter;stroke:rgb(0%,0%,0%);stroke-opacity:1;stroke-miterlimit:4;" d="M 67.053005 170.599616 C 67.053005 170.599616 68.021782 176.246882 72.487612 177.59372 " transform="matrix(0.165318,0,0,0.165318,55.664943,4.300749)"/>
<path style="fill-rule:evenodd;fill:url(#linear8);stroke-width:0.60887;stroke-linecap:butt;stroke-linejoin:miter;stroke:rgb(0%,0%,0%);stroke-opacity:1;stroke-miterlimit:4;" d="M 66.320514 170.52873 C 66.76946 168.378516 67.572837 168.024085 68.470728 165.283152 C 68.612501 162.613106 66.320514 162.896651 66.982118 161.195382 C 68.163555 159.328713 67.572837 157.556558 65.351736 156.138834 C 65.800682 158.596222 62.469031 160.888209 62.469031 162.896651 C 62.469031 164.905093 64.1703 164.456147 63.957641 167.504253 C 64.099414 169.276407 63.508695 168.827462 63.343294 170.52873 Z M 66.320514 170.52873 " transform="matrix(0.165318,0,0,0.165318,55.664943,4.300749)"/>
<path style="fill-rule:evenodd;fill:rgb(96.862745%,77.647059%,0%);fill-opacity:1;stroke-width:0.60887;stroke-linecap:butt;stroke-linejoin:miter;stroke:rgb(0%,0%,0%);stroke-opacity:1;stroke-miterlimit:4;" d="M 80.926368 156.7098 C 80.926368 157.654949 80.170249 158.434697 79.2251 158.434697 C 78.27995 158.434697 77.500202 157.654949 77.500202 156.7098 C 77.500202 155.788279 78.27995 155.008531 79.2251 155.008531 C 80.170249 155.008531 80.926368 155.788279 80.926368 156.7098 Z M 80.926368 156.7098 " transform="matrix(0.165318,0,0,0.165318,55.652679,4.374327)"/>
<path style="fill:none;stroke-width:1.2551;stroke-linecap:butt;stroke-linejoin:miter;stroke:rgb(96.862745%,77.647059%,0%);stroke-opacity:1;stroke-miterlimit:4;" d="M 818.974671 330.270093 L 830.999756 312.582562 L 843.085728 330.300536 " transform="matrix(0.128312,0,0,0.128312,-37.68625,3.532375)"/>
<path style="fill-rule:evenodd;fill:rgb(96.862745%,77.647059%,0%);fill-opacity:1;stroke-width:0.78449;stroke-linecap:butt;stroke-linejoin:miter;stroke:rgb(0%,0%,0%);stroke-opacity:1;stroke-miterlimit:4;" d="M 833.404774 323.663906 C 833.404774 324.972966 832.33926 326.03848 831.0302 326.03848 C 829.690697 326.03848 828.625183 324.972966 828.625183 323.663906 C 828.625183 322.354847 829.690697 321.258889 831.0302 321.258889 C 832.33926 321.258889 833.404774 322.354847 833.404774 323.663906 Z M 833.404774 323.663906 " transform="matrix(0.128312,0,0,0.128312,-37.68625,3.532375)"/>
<path style="fill-rule:evenodd;fill:rgb(96.862745%,77.647059%,0%);fill-opacity:1;stroke-width:0.78446;stroke-linecap:butt;stroke-linejoin:miter;stroke:rgb(0%,0%,0%);stroke-opacity:1;stroke-miterlimit:4;" d="M 821.227472 343.299805 L 839.889187 343.360692 C 839.889187 343.360692 840.163176 340.955675 837.940818 339.463955 C 847.68266 338.124452 845.155869 329.509011 853.345105 329.021919 C 854.928154 329.265465 849.052606 332.67511 849.052606 332.67511 C 849.052606 332.67511 844.120799 336.176084 846.3736 337.941792 C 848.169752 339.342182 848.930833 337.089381 849.174379 335.384559 C 849.417925 333.679737 857.120068 332.553337 856.024111 327.682416 C 854.197516 323.663906 843.451047 330.361422 843.451047 330.361422 L 835.779347 330.330979 C 835.292255 329.478568 833.191671 326.008037 830.999756 326.008037 C 828.41208 326.099367 826.615928 330.361422 826.615928 330.361422 L 809.263273 330.361422 C 809.263273 330.361422 808.684851 334.806137 817.452509 335.658548 C 819.43132 338.246225 820.983926 338.976863 822.688748 339.646615 C 821.562348 340.590356 821.227472 341.747199 821.227472 343.299805 Z M 821.227472 343.299805 " transform="matrix(0.128312,0,0,0.128312,-37.68625,3.532375)"/>
<path style="fill:none;stroke-width:0.78446;stroke-linecap:butt;stroke-linejoin:miter;stroke:rgb(0%,0%,0%);stroke-opacity:1;stroke-miterlimit:4;" d="M 822.566975 339.524842 L 838.093035 339.463955 " transform="matrix(0.128312,0,0,0.128312,-37.68625,3.532375)"/>
<path style="fill:none;stroke-width:0.78446;stroke-linecap:butt;stroke-linejoin:miter;stroke:rgb(0%,0%,0%);stroke-opacity:1;stroke-miterlimit:4;" d="M 815.473697 330.361422 C 815.473697 330.361422 816.691427 337.63736 822.445202 339.342182 " transform="matrix(0.128312,0,0,0.128312,-37.68625,3.532375)"/>
<path style="fill-rule:evenodd;fill:url(#linear9);stroke-width:0.78446;stroke-linecap:butt;stroke-linejoin:miter;stroke:rgb(0%,0%,0%);stroke-opacity:1;stroke-miterlimit:4;" d="M 814.499513 330.270093 C 815.077935 327.499756 816.113005 327.012664 817.269849 323.481247 C 817.452509 320.041159 814.499513 320.436922 815.351924 318.214564 C 816.90453 315.83999 816.113005 313.556746 813.25134 311.730151 C 813.829761 314.896249 809.537263 317.849245 809.537263 320.436922 C 809.537263 322.994155 811.729177 322.446176 811.455188 326.342913 C 811.637847 328.6566 810.876766 328.078178 810.663663 330.270093 Z M 814.499513 330.270093 " transform="matrix(0.128312,0,0,0.128312,-37.68625,3.532375)"/>
<path style="fill-rule:evenodd;fill:rgb(96.862745%,77.647059%,0%);fill-opacity:1;stroke-width:0.78446;stroke-linecap:butt;stroke-linejoin:miter;stroke:rgb(0%,0%,0%);stroke-opacity:1;stroke-miterlimit:4;" d="M 833.222114 313.039211 C 833.222114 314.256941 832.24793 315.261568 831.0302 315.261568 C 829.81247 315.261568 828.838285 314.256941 828.838285 313.039211 C 828.838285 311.821481 829.81247 310.847297 831.0302 310.847297 C 832.24793 310.847297 833.222114 311.821481 833.222114 313.039211 Z M 833.222114 313.039211 " transform="matrix(0.128312,0,0,0.128312,-37.68625,3.532375)"/>
<path style="fill:none;stroke-width:1.217737;stroke-linecap:butt;stroke-linejoin:miter;stroke:rgb(96.862745%,77.647059%,0%);stroke-opacity:1;stroke-miterlimit:4;" d="M 69.793551 170.538493 L 79.126899 156.810201 L 88.507504 170.562121 " transform="matrix(0.165318,0,0,0.165318,55.836882,13.228822)"/>
<path style="fill-rule:evenodd;fill:rgb(96.862745%,77.647059%,0%);fill-opacity:1;stroke-width:0.56016;stroke-linecap:butt;stroke-linejoin:miter;stroke:rgb(0%,0%,0%);stroke-opacity:1;stroke-miterlimit:4;" d="M 80.918922 156.709963 C 80.918922 157.666416 80.158108 158.42723 79.223393 158.42723 C 78.26694 158.42723 77.506125 157.666416 77.506125 156.709963 C 77.506125 155.775248 78.26694 155.014433 79.223393 155.014433 C 80.158108 155.014433 80.918922 155.775248 80.918922 156.709963 Z M 80.918922 156.709963 " transform="matrix(0.1797,0,0,0.1797,54.685394,12.409458)"/>
<path style="fill-rule:evenodd;fill:rgb(96.862745%,77.647059%,0%);fill-opacity:1;stroke-width:0.60887;stroke-linecap:butt;stroke-linejoin:miter;stroke:rgb(0%,0%,0%);stroke-opacity:1;stroke-miterlimit:4;" d="M 71.542077 180.651588 L 86.002859 180.698846 C 86.002859 180.698846 86.239146 178.832176 84.490621 177.674369 C 92.075442 176.634705 90.114258 169.947774 96.470386 169.569715 C 97.69908 169.758745 93.138735 172.405162 93.138735 172.405162 C 93.138735 172.405162 89.310881 175.122466 91.059407 176.492932 C 92.453502 177.579854 93.04422 175.831328 93.23325 174.508119 C 93.42228 173.18491 99.400348 172.310647 98.549714 168.530051 C 97.13199 165.411059 88.791049 170.609379 88.791049 170.609379 L 82.83661 170.58575 C 82.45855 169.924146 80.828168 167.230471 79.126899 167.230471 C 77.118457 167.301357 75.700734 170.609379 75.700734 170.609379 L 62.255987 170.609379 C 62.255987 170.609379 61.783412 174.059173 68.612115 174.720778 C 70.147982 176.72922 71.353048 177.296309 72.676256 177.816141 C 71.778365 178.548632 71.542077 179.446523 71.542077 180.651588 Z M 71.542077 180.651588 " transform="matrix(0.165318,0,0,0.165318,55.836882,13.228822)"/>
<path style="fill:none;stroke-width:0.60887;stroke-linecap:butt;stroke-linejoin:miter;stroke:rgb(0%,0%,0%);stroke-opacity:1;stroke-miterlimit:4;" d="M 72.581741 177.721626 L 84.632393 177.674369 " transform="matrix(0.165318,0,0,0.165318,55.836882,13.228822)"/>
<path style="fill:none;stroke-width:0.60887;stroke-linecap:butt;stroke-linejoin:miter;stroke:rgb(0%,0%,0%);stroke-opacity:1;stroke-miterlimit:4;" d="M 67.052619 170.609379 C 67.052619 170.609379 68.021397 176.256645 72.487226 177.579854 " transform="matrix(0.165318,0,0,0.165318,55.836882,13.228822)"/>
<path style="fill-rule:evenodd;fill:url(#linear10);stroke-width:0.60887;stroke-linecap:butt;stroke-linejoin:miter;stroke:rgb(0%,0%,0%);stroke-opacity:1;stroke-miterlimit:4;" d="M 66.320128 170.538493 C 66.769074 168.388278 67.572451 168.010219 68.470343 165.269286 C 68.612115 162.59924 66.320128 162.906413 66.981733 161.181516 C 68.163169 159.338475 67.572451 157.566321 65.35135 156.148597 C 65.800296 158.605985 62.468646 160.897971 62.468646 162.906413 C 62.468646 164.891227 64.169914 164.465909 63.957256 167.490387 C 64.099028 169.28617 63.50831 168.837224 63.342909 170.538493 Z M 66.320128 170.538493 " transform="matrix(0.165318,0,0,0.165318,55.836882,13.228822)"/>
<path style="fill-rule:evenodd;fill:rgb(96.862745%,77.647059%,0%);fill-opacity:1;stroke-width:0.60887;stroke-linecap:butt;stroke-linejoin:miter;stroke:rgb(0%,0%,0%);stroke-opacity:1;stroke-miterlimit:4;" d="M 80.925982 156.719562 C 80.925982 157.664711 80.169863 158.420831 79.224714 158.420831 C 78.279565 158.420831 77.499817 157.664711 77.499817 156.719562 C 77.499817 155.774413 78.279565 155.018294 79.224714 155.018294 C 80.169863 155.018294 80.925982 155.774413 80.925982 156.719562 Z M 80.925982 156.719562 " transform="matrix(0.165318,0,0,0.165318,55.824618,13.3024)"/>
<path style="fill:none;stroke-width:1.217737;stroke-linecap:butt;stroke-linejoin:miter;stroke:rgb(96.862745%,77.647059%,0%);stroke-opacity:1;stroke-miterlimit:4;" d="M 69.793877 170.538186 L 79.127224 156.809895 L 88.50783 170.561815 " transform="matrix(0.165318,0,0,0.165318,42.797766,9.056998)"/>
<path style="fill-rule:evenodd;fill:rgb(96.862745%,77.647059%,0%);fill-opacity:1;stroke-width:0.56016;stroke-linecap:butt;stroke-linejoin:miter;stroke:rgb(0%,0%,0%);stroke-opacity:1;stroke-miterlimit:4;" d="M 80.919222 156.709681 C 80.919222 157.666134 80.158407 158.426948 79.223692 158.426948 C 78.267239 158.426948 77.506425 157.666134 77.506425 156.709681 C 77.506425 155.774966 78.267239 155.014151 79.223692 155.014151 C 80.158407 155.014151 80.919222 155.774966 80.919222 156.709681 Z M 80.919222 156.709681 " transform="matrix(0.1797,0,0,0.1797,41.646277,8.237633)"/>
<path style="fill-rule:evenodd;fill:rgb(96.862745%,77.647059%,0%);fill-opacity:1;stroke-width:0.60887;stroke-linecap:butt;stroke-linejoin:miter;stroke:rgb(0%,0%,0%);stroke-opacity:1;stroke-miterlimit:4;" d="M 71.542402 180.651282 L 86.003184 180.698539 C 86.003184 180.698539 86.239472 178.83187 84.490946 177.674062 C 92.075768 176.634398 90.114583 169.947468 96.470711 169.569408 C 97.699405 169.758438 93.13906 172.404856 93.13906 172.404856 C 93.13906 172.404856 89.311206 175.122159 91.059732 176.492626 C 92.453827 177.579547 93.044545 175.831021 93.233575 174.507812 C 93.422605 173.184604 99.400673 172.310341 98.550039 168.529744 C 97.132315 165.410752 88.791374 170.609072 88.791374 170.609072 L 82.836935 170.585444 C 82.458875 169.923839 80.828493 167.230164 79.127224 167.230164 C 77.118782 167.30105 75.701059 170.609072 75.701059 170.609072 L 62.256312 170.609072 C 62.256312 170.609072 61.783738 174.058867 68.61244 174.720471 C 70.148308 176.728913 71.353373 177.296002 72.676581 177.815834 C 71.77869 178.548325 71.542402 179.446217 71.542402 180.651282 Z M 71.542402 180.651282 " transform="matrix(0.165318,0,0,0.165318,42.797766,9.056998)"/>
<path style="fill:none;stroke-width:0.60887;stroke-linecap:butt;stroke-linejoin:miter;stroke:rgb(0%,0%,0%);stroke-opacity:1;stroke-miterlimit:4;" d="M 72.582067 177.72132 L 84.632718 177.674062 " transform="matrix(0.165318,0,0,0.165318,42.797766,9.056998)"/>
<path style="fill:none;stroke-width:0.60887;stroke-linecap:butt;stroke-linejoin:miter;stroke:rgb(0%,0%,0%);stroke-opacity:1;stroke-miterlimit:4;" d="M 67.052944 170.609072 C 67.052944 170.609072 68.021722 176.256338 72.487552 177.579547 " transform="matrix(0.165318,0,0,0.165318,42.797766,9.056998)"/>
<path style="fill-rule:evenodd;fill:url(#linear11);stroke-width:0.60887;stroke-linecap:butt;stroke-linejoin:miter;stroke:rgb(0%,0%,0%);stroke-opacity:1;stroke-miterlimit:4;" d="M 66.320453 170.538186 C 66.769399 168.387972 67.572776 168.009912 68.470668 165.26898 C 68.61244 162.598933 66.320453 162.906107 66.982058 161.18121 C 68.163494 159.338169 67.572776 157.566014 65.351676 156.14829 C 65.800621 158.605678 62.468971 160.897665 62.468971 162.906107 C 62.468971 164.89092 64.170239 164.465603 63.957581 167.49008 C 64.099353 169.285863 63.508635 168.836918 63.343234 170.538186 Z M 66.320453 170.538186 " transform="matrix(0.165318,0,0,0.165318,42.797766,9.056998)"/>
<path style="fill-rule:evenodd;fill:rgb(96.862745%,77.647059%,0%);fill-opacity:1;stroke-width:0.60887;stroke-linecap:butt;stroke-linejoin:miter;stroke:rgb(0%,0%,0%);stroke-opacity:1;stroke-miterlimit:4;" d="M 80.926308 156.719256 C 80.926308 157.664405 80.170188 158.420524 79.225039 158.420524 C 78.27989 158.420524 77.500142 157.664405 77.500142 156.719256 C 77.500142 155.774107 78.27989 155.017987 79.225039 155.017987 C 80.170188 155.017987 80.926308 155.774107 80.926308 156.719256 Z M 80.926308 156.719256 " transform="matrix(0.165318,0,0,0.165318,42.785501,9.130576)"/>
<path style="fill-rule:evenodd;fill:rgb(96.862745%,77.647059%,0%);fill-opacity:1;stroke-width:0.60887;stroke-linecap:butt;stroke-linejoin:miter;stroke:rgb(0%,0%,0%);stroke-opacity:1;stroke-miterlimit:4;" d="M 139.226536 183.910193 C 139.226536 183.910193 143.007133 192.605565 147.307561 187.265473 C 151.60799 181.901751 150.024865 179.609765 150.024865 179.609765 L 140.384344 174.364187 L 137.548896 180.342255 Z M 139.226536 183.910193 " transform="matrix(0.165318,0,0,0.165318,39.577122,17.619804)"/>
<path style="fill-rule:evenodd;fill:rgb(100%,77.647059%,70.980392%);fill-opacity:1;stroke-width:0.60887;stroke-linecap:butt;stroke-linejoin:miter;stroke:rgb(0%,0%,0%);stroke-opacity:1;stroke-miterlimit:4;" d="M 147.52022 182.752385 C 147.52022 182.752385 148.134567 182.8469 148.654399 181.901751 C 149.197859 180.956602 147.52022 180.554914 146.7641 179.491621 L 145.937095 181.169261 Z M 147.52022 182.752385 " transform="matrix(0.165318,0,0,0.165318,39.577122,17.619804)"/>
<path style="fill-rule:evenodd;fill:rgb(100%,77.647059%,70.980392%);fill-opacity:1;stroke-width:0.60887;stroke-linecap:butt;stroke-linejoin:miter;stroke:rgb(0%,0%,0%);stroke-opacity:1;stroke-miterlimit:4;" d="M 125.687275 180.43677 L 117.180932 185.044372 C 117.180932 185.044372 112.975019 185.895006 112.667845 185.044372 C 112.360672 184.217367 112.785989 183.484876 114.983461 183.366732 C 117.180932 183.272217 123.159001 177.813981 123.159001 177.813981 Z M 125.687275 180.43677 " transform="matrix(0.165318,0,0,0.165318,39.577122,17.619804)"/>
<path style="fill-rule:evenodd;fill:rgb(100%,77.647059%,70.980392%);fill-opacity:1;stroke-width:0.60887;stroke-linecap:butt;stroke-linejoin:miter;stroke:rgb(0%,0%,0%);stroke-opacity:1;stroke-miterlimit:4;" d="M 125.78179 29.472824 C 125.78179 29.472824 125.994448 31.457637 126.112592 32.52093 C 126.207107 33.560594 124.434952 35.758066 124.316808 35.663551 C 124.222293 35.545407 123.371659 35.758066 123.489803 36.396041 C 123.584318 37.034017 124.83664 37.223047 124.83664 37.223047 C 124.83664 37.223047 124.316808 39.444147 124.83664 39.538662 C 125.380101 39.656806 123.489803 42.37411 124.83664 43.1066 C 126.207107 43.839091 128.522722 44.78424 129.562386 44.571581 C 130.625679 44.358923 129.562386 48.659351 129.562386 48.659351 L 126.632424 54.968222 L 142.794474 53.290582 L 139.439195 47.926861 C 139.439195 47.926861 137.85607 46.887197 138.281387 43.839091 C 138.683075 40.790985 138.068728 27.062693 138.068728 27.062693 L 126.51428 25.479569 Z M 125.78179 29.472824 " transform="matrix(0.165318,0,0,0.165318,39.577122,17.619804)"/>
<path style="fill-rule:evenodd;fill:rgb(100%,77.647059%,70.980392%);fill-opacity:1;stroke-width:0.60887;stroke-linecap:butt;stroke-linejoin:miter;stroke:rgb(0%,0%,0%);stroke-opacity:1;stroke-miterlimit:4;" d="M 122.851827 53.385097 C 122.851827 53.385097 117.60625 55.795227 117.818908 62.316756 C 116.448442 68.601998 115.715951 74.88724 115.715951 74.88724 C 115.715951 74.88724 109.525224 81.928601 107.634926 84.433246 C 105.744628 86.96152 102.90918 92.112583 101.869516 93.459421 C 100.829852 94.829887 96.718454 99.342974 96.836597 101.020614 C 96.931112 102.698253 95.891448 110.141303 99.979218 110.991937 C 101.018882 111.417254 104.374162 102.39108 104.374162 102.39108 C 104.374162 102.39108 104.58682 98.49234 103.452641 97.759849 C 102.294833 97.027359 105.957286 94.522713 105.957286 94.522713 C 105.957286 94.522713 112.998647 89.37165 114.558144 88.119328 C 116.141268 86.867005 120.441697 82.023116 120.441697 82.023116 Z M 122.851827 53.385097 " transform="matrix(0.165318,0,0,0.165318,39.577122,17.619804)"/>
<path style="fill-rule:evenodd;fill:rgb(100%,100%,100%);fill-opacity:1;stroke-width:0.60887;stroke-linecap:butt;stroke-linejoin:miter;stroke:rgb(0%,0%,0%);stroke-opacity:1;stroke-miterlimit:4;" d="M 128.829896 48.470321 C 128.829896 48.470321 130.200362 52.132774 133.224839 51.494799 C 136.272945 50.880452 139.840883 48.045004 139.840883 48.045004 C 139.840883 48.045004 142.67633 47.926861 143.101648 48.352178 C 143.526965 48.777495 150.757356 55.795227 150.544697 58.016328 C 150.332038 60.2138 147.189418 59.575824 146.03161 61.040805 C 144.873802 62.505786 142.983504 66.191868 143.526965 68.909172 C 144.046797 71.650104 145.606293 75.218042 145.417263 76.56488 C 145.204604 77.935346 144.046797 78.360663 144.046797 79.093154 C 144.046797 79.825644 144.991946 81.077967 144.991946 82.448433 C 144.991946 83.818899 143.715994 85.803712 143.928653 87.174179 C 144.141312 88.544645 144.259455 92.514271 144.259455 92.514271 L 143.928653 110.991937 C 143.928653 110.991937 144.991946 111.606284 145.086461 112.669577 C 145.204604 113.709241 152.222337 144.237558 152.222337 144.237558 C 152.222337 144.237558 151.915163 145.182707 151.182673 145.088192 C 150.450182 144.970049 154.01812 149.813938 154.112635 151.160775 C 154.20715 152.531242 157.775088 163.235056 157.680573 164.700037 C 157.586058 166.165018 157.042597 169.425783 156.735424 169.520297 C 156.42825 169.638441 159.051039 176.230856 158.625722 177.294149 C 158.200405 178.333813 153.899976 178.239298 153.899976 178.239298 L 152.742169 178.02664 C 152.742169 178.02664 152.860312 179.397106 152.009678 179.491621 C 151.182673 179.609765 144.991946 179.184447 144.991946 179.184447 C 144.991946 179.184447 143.196162 181.901751 142.156498 181.807236 C 141.093206 181.689093 139.746368 179.798794 139.415566 180.129597 C 139.108392 180.43677 140.360715 182.232553 140.053542 182.752385 C 139.746368 183.272217 134.382647 184.430025 133.342983 181.901751 C 132.303319 179.397106 133.980958 180.011453 133.650156 179.491621 C 133.342983 178.971789 130.932852 177.601323 130.200362 178.02664 C 129.467871 178.451957 132.09066 179.066304 131.972516 180.129597 C 131.878002 181.169261 129.68053 182.752385 128.829896 182.752385 C 127.979261 182.752385 125.994448 178.853645 123.064486 179.278962 C 120.110895 179.704279 118.244225 180.43677 118.244225 180.43677 C 118.244225 180.43677 114.770802 181.901751 113.305821 181.594578 C 111.84084 181.287404 111.202864 180.129597 111.202864 179.491621 C 111.202864 178.853645 112.242528 176.136341 112.148013 175.309336 C 112.053498 174.458702 111.202864 173.608068 111.202864 172.355745 C 111.202864 171.103422 113.612994 166.802994 113.612994 166.802994 L 113.518479 147.498323 C 113.518479 147.498323 111.321008 147.498323 111.202864 146.127856 C 111.108349 144.75739 114.558144 115.599539 115.077976 113.709241 C 115.621436 111.818943 116.968274 105.108384 116.968274 105.108384 C 116.968274 105.108384 115.408778 105.840874 115.290634 105.108384 C 115.196119 104.375893 120.01638 87.694011 120.01638 87.694011 C 120.01638 87.694011 120.867014 79.400327 120.867014 77.202855 C 120.867014 75.005384 120.441697 71.957278 120.441697 71.957278 C 120.441697 71.957278 116.141268 70.137866 116.023125 67.349676 C 115.645065 62.907475 120.110895 60.426458 120.654355 58.961477 C 121.174188 57.472867 122.733684 53.077924 122.733684 53.077924 C 122.733684 53.077924 125.049299 49.084668 128.829896 48.470321 Z M 128.829896 48.470321 " transform="matrix(0.165318,0,0,0.165318,39.577122,17.619804)"/>
<path style="fill-rule:evenodd;fill:rgb(96.862745%,77.647059%,0%);fill-opacity:1;stroke-width:0.60887;stroke-linecap:butt;stroke-linejoin:miter;stroke:rgb(0%,0%,0%);stroke-opacity:1;stroke-miterlimit:4;" d="M 127.270399 181.689093 C 127.270399 181.689093 117.086417 187.052814 115.621436 187.478131 C 114.156455 187.87982 113.211306 185.682348 114.676287 185.257031 C 116.141268 184.855342 118.456884 184.642684 118.456884 184.642684 C 118.456884 184.642684 114.983461 181.901751 115.101604 181.807236 C 115.196119 181.689093 119.803721 180.011453 119.921865 180.011453 C 120.01638 180.011453 121.386846 182.752385 122.331995 182.539727 C 123.277144 182.327068 125.994448 180.224111 125.994448 180.224111 C 125.994448 180.224111 127.459429 181.901751 127.270399 181.689093 Z M 127.270399 181.689093 " transform="matrix(0.165318,0,0,0.165318,39.577122,17.619804)"/>
<path style="fill-rule:evenodd;fill:rgb(100%,77.647059%,70.980392%);fill-opacity:1;stroke-width:0.60887;stroke-linecap:butt;stroke-linejoin:miter;stroke:rgb(0%,0%,0%);stroke-opacity:1;stroke-miterlimit:4;" d="M 141.589409 184.619055 C 142.558187 185.871378 142.936246 188.021592 145.133718 186.769269 C 147.354819 185.516947 144.023168 183.177703 144.023168 183.177703 Z M 141.589409 184.619055 " transform="matrix(0.165318,0,0,0.165318,39.577122,17.619804)"/>
<path style="fill-rule:evenodd;fill:rgb(100%,77.647059%,70.980392%);fill-opacity:1;stroke-width:0.60887;stroke-linecap:butt;stroke-linejoin:miter;stroke:rgb(0%,0%,0%);stroke-opacity:1;stroke-miterlimit:4;" d="M 145.629921 184.430025 C 145.629921 184.430025 146.669586 185.257031 147.614735 184.311882 C 148.559884 183.366732 145.724436 181.381919 145.724436 181.381919 L 144.35397 182.941415 Z M 145.629921 184.430025 " transform="matrix(0.165318,0,0,0.165318,39.577122,17.619804)"/>
<path style="fill:none;stroke-width:0.60887;stroke-linecap:butt;stroke-linejoin:miter;stroke:rgb(0%,0%,0%);stroke-opacity:1;stroke-miterlimit:4;" d="M 142.463672 52.558092 C 142.463672 52.558092 133.130324 58.53616 133.342983 60.639117 " transform="matrix(0.165318,0,0,0.165318,39.577122,17.619804)"/>
<path style="fill:none;stroke-width:0.60887;stroke-linecap:butt;stroke-linejoin:miter;stroke:rgb(0%,0%,0%);stroke-opacity:1;stroke-miterlimit:4;" d="M 144.566629 53.597756 C 144.566629 53.597756 142.463672 55.913371 142.369157 55.913371 " transform="matrix(0.165318,0,0,0.165318,39.577122,17.619804)"/>
<path style="fill:none;stroke-width:0.60887;stroke-linecap:butt;stroke-linejoin:miter;stroke:rgb(0%,0%,0%);stroke-opacity:1;stroke-miterlimit:4;" d="M 147.402076 56.12603 C 147.402076 56.12603 142.794474 59.882997 143.526965 62.316756 " transform="matrix(0.165318,0,0,0.165318,39.577122,17.619804)"/>
<path style="fill:none;stroke-width:0.60887;stroke-linecap:butt;stroke-linejoin:miter;stroke:rgb(0%,0%,0%);stroke-opacity:1;stroke-miterlimit:4;" d="M 125.569131 52.014631 C 125.569131 52.014631 124.222293 54.850078 124.529467 55.795227 C 124.83664 56.740376 127.152256 60.308314 127.459429 62.505786 C 127.790231 64.726887 127.459429 66.286383 127.459429 66.286383 " transform="matrix(0.165318,0,0,0.165318,39.577122,17.619804)"/>
<path style="fill:none;stroke-width:0.60887;stroke-linecap:butt;stroke-linejoin:miter;stroke:rgb(0%,0%,0%);stroke-opacity:1;stroke-miterlimit:4;" d="M 123.159001 57.260208 C 123.159001 57.260208 123.584318 60.639117 124.222293 61.253464 C 124.860269 61.891439 126.537909 64.726887 126.726939 65.884694 " transform="matrix(0.165318,0,0,0.165318,39.577122,17.619804)"/>
<path style="fill:none;stroke-width:0.60887;stroke-linecap:butt;stroke-linejoin:miter;stroke:rgb(0%,0%,0%);stroke-opacity:1;stroke-miterlimit:4;" d="M 122.331995 71.224787 C 122.331995 71.224787 125.049299 72.595253 127.577573 67.349676 " transform="matrix(0.165318,0,0,0.165318,39.577122,17.619804)"/>
<path style="fill:none;stroke-width:0.60887;stroke-linecap:butt;stroke-linejoin:miter;stroke:rgb(0%,0%,0%);stroke-opacity:1;stroke-miterlimit:4;" d="M 131.665343 63.663594 C 131.547199 63.663594 129.656901 68.814657 133.01218 70.704955 C 136.391089 72.595253 138.895734 72.382595 140.360715 71.862763 C 141.825696 71.319302 143.408821 70.374153 143.408821 70.374153 " transform="matrix(0.165318,0,0,0.165318,39.577122,17.619804)"/>
<path style="fill:none;stroke-width:0.60887;stroke-linecap:butt;stroke-linejoin:miter;stroke:rgb(0%,0%,0%);stroke-opacity:1;stroke-miterlimit:4;" d="M 130.200362 69.972464 C 130.200362 69.972464 130.41302 76.895682 140.597002 83.700756 " transform="matrix(0.165318,0,0,0.165318,39.577122,17.619804)"/>
<path style="fill:none;stroke-width:0.60887;stroke-linecap:butt;stroke-linejoin:miter;stroke:rgb(0%,0%,0%);stroke-opacity:1;stroke-miterlimit:4;" d="M 130.625679 76.470365 C 130.625679 76.470365 130.507535 82.566577 134.50079 85.28388 " transform="matrix(0.165318,0,0,0.165318,39.577122,17.619804)"/>
<path style="fill:none;stroke-width:0.60887;stroke-linecap:butt;stroke-linejoin:miter;stroke:rgb(0%,0%,0%);stroke-opacity:1;stroke-miterlimit:4;" d="M 128.522722 69.334489 C 128.522722 69.334489 125.474616 78.360663 123.064486 79.305812 " transform="matrix(0.165318,0,0,0.165318,39.577122,17.619804)"/>
<path style="fill:none;stroke-width:0.60887;stroke-linecap:butt;stroke-linejoin:miter;stroke:rgb(0%,0%,0%);stroke-opacity:1;stroke-miterlimit:4;" d="M 127.577573 75.950533 C 127.577573 75.950533 127.459429 82.448433 126.632424 84.764048 " transform="matrix(0.165318,0,0,0.165318,39.577122,17.619804)"/>
<path style="fill:none;stroke-width:0.60887;stroke-linecap:butt;stroke-linejoin:miter;stroke:rgb(0%,0%,0%);stroke-opacity:1;stroke-miterlimit:4;" d="M 125.78179 86.323545 C 125.78179 86.323545 127.884746 88.946333 130.200362 88.733675 C 132.515977 88.544645 133.437498 85.803712 135.020622 86.22903 C 136.603747 86.654347 138.068728 87.906669 141.731181 87.599496 " transform="matrix(0.165318,0,0,0.165318,39.577122,17.619804)"/>
<path style="fill:none;stroke-width:0.60887;stroke-linecap:butt;stroke-linejoin:miter;stroke:rgb(0%,0%,0%);stroke-opacity:1;stroke-miterlimit:4;" d="M 136.485604 90.3168 C 136.485604 90.3168 136.485604 95.656892 137.430753 96.200353 C 138.375902 96.720185 137.950585 101.658589 137.950585 101.658589 " transform="matrix(0.165318,0,0,0.165318,39.577122,17.619804)"/>
<path style="fill:none;stroke-width:0.60887;stroke-linecap:butt;stroke-linejoin:miter;stroke:rgb(0%,0%,0%);stroke-opacity:1;stroke-miterlimit:4;" d="M 123.678833 87.812154 C 123.678833 87.812154 123.584318 92.845074 122.946342 94.617228 C 122.331995 96.413012 121.056044 99.437489 121.268702 102.060278 " transform="matrix(0.165318,0,0,0.165318,39.577122,17.619804)"/>
<path style="fill:none;stroke-width:0.60887;stroke-linecap:butt;stroke-linejoin:miter;stroke:rgb(0%,0%,0%);stroke-opacity:1;stroke-miterlimit:4;" d="M 117.299076 105.013869 C 117.818908 104.80121 119.591063 103.218085 119.591063 103.218085 " transform="matrix(0.165318,0,0,0.165318,39.577122,17.619804)"/>
<path style="fill:none;stroke-width:0.60887;stroke-linecap:butt;stroke-linejoin:miter;stroke:rgb(0%,0%,0%);stroke-opacity:1;stroke-miterlimit:4;" d="M 120.536212 104.375893 C 120.536212 104.375893 116.023125 123.680564 117.299076 135.235012 " transform="matrix(0.165318,0,0,0.165318,39.577122,17.619804)"/>
<path style="fill:none;stroke-width:0.60887;stroke-linecap:butt;stroke-linejoin:miter;stroke:rgb(0%,0%,0%);stroke-opacity:1;stroke-miterlimit:4;" d="M 121.599505 105.321042 C 121.599505 105.321042 119.283889 119.805453 120.323553 122.522757 " transform="matrix(0.165318,0,0,0.165318,39.577122,17.619804)"/>
<path style="fill:none;stroke-width:0.60887;stroke-linecap:butt;stroke-linejoin:miter;stroke:rgb(0%,0%,0%);stroke-opacity:1;stroke-miterlimit:4;" d="M 120.441697 104.895725 C 120.536212 104.895725 129.255213 105.533701 129.255213 105.533701 " transform="matrix(0.165318,0,0,0.165318,39.577122,17.619804)"/>
<path style="fill:none;stroke-width:0.60887;stroke-linecap:butt;stroke-linejoin:miter;stroke:rgb(0%,0%,0%);stroke-opacity:1;stroke-miterlimit:4;" d="M 130.507535 104.375893 C 130.507535 104.375893 132.917666 105.628216 136.272945 105.439186 " transform="matrix(0.165318,0,0,0.165318,39.577122,17.619804)"/>
<path style="fill:none;stroke-width:0.60887;stroke-linecap:butt;stroke-linejoin:miter;stroke:rgb(0%,0%,0%);stroke-opacity:1;stroke-miterlimit:4;" d="M 129.467871 111.417254 C 129.467871 111.417254 129.042554 136.180162 128.404578 141.614769 " transform="matrix(0.165318,0,0,0.165318,39.577122,17.619804)"/>
<path style="fill:none;stroke-width:0.60887;stroke-linecap:butt;stroke-linejoin:miter;stroke:rgb(0%,0%,0%);stroke-opacity:1;stroke-miterlimit:4;" d="M 142.369157 117.06452 C 142.369157 117.06452 145.086461 138.779322 146.669586 140.787764 " transform="matrix(0.165318,0,0,0.165318,39.577122,17.619804)"/>
<path style="fill:none;stroke-width:0.60887;stroke-linecap:butt;stroke-linejoin:miter;stroke:rgb(0%,0%,0%);stroke-opacity:1;stroke-miterlimit:4;" d="M 137.123579 119.805453 C 137.123579 119.805453 138.801219 138.99198 139.746368 140.66962 " transform="matrix(0.165318,0,0,0.165318,39.577122,17.619804)"/>
<path style="fill:none;stroke-width:0.60887;stroke-linecap:butt;stroke-linejoin:miter;stroke:rgb(0%,0%,0%);stroke-opacity:1;stroke-miterlimit:4;" d="M 113.305821 147.380179 C 113.305821 147.380179 116.566585 146.340515 119.496548 143.197894 C 122.851827 147.710981 128.00289 143.410553 128.00289 143.410553 C 128.00289 143.410553 135.965772 148.868789 139.53371 142.772577 C 144.991946 146.340515 147.70925 142.252745 147.70925 142.252745 C 147.70925 142.252745 149.717692 145.300851 151.182673 144.970049 " transform="matrix(0.165318,0,0,0.165318,39.577122,17.619804)"/>
<path style="fill:none;stroke-width:0.60887;stroke-linecap:butt;stroke-linejoin:miter;stroke:rgb(0%,0%,0%);stroke-opacity:1;stroke-miterlimit:4;" d="M 142.463672 147.073005 C 142.463672 147.073005 146.551442 166.283162 152.647654 171.741398 " transform="matrix(0.165318,0,0,0.165318,39.577122,17.619804)"/>
<path style="fill:none;stroke-width:0.60887;stroke-linecap:butt;stroke-linejoin:miter;stroke:rgb(0%,0%,0%);stroke-opacity:1;stroke-miterlimit:4;" d="M 121.386846 145.088192 C 121.386846 145.088192 121.906678 161.132099 122.851827 172.45026 " transform="matrix(0.165318,0,0,0.165318,39.577122,17.619804)"/>
<path style="fill:none;stroke-width:0.60887;stroke-linecap:butt;stroke-linejoin:miter;stroke:rgb(0%,0%,0%);stroke-opacity:1;stroke-miterlimit:4;" d="M 120.654355 163.235056 C 120.654355 163.235056 120.134523 173.726211 119.496548 174.458702 " transform="matrix(0.165318,0,0,0.165318,39.577122,17.619804)"/>
<path style="fill:none;stroke-width:0.60887;stroke-linecap:butt;stroke-linejoin:miter;stroke:rgb(0%,0%,0%);stroke-opacity:1;stroke-miterlimit:4;" d="M 114.463629 175.498366 C 114.463629 175.498366 115.621436 180.011453 121.386846 175.829168 C 127.152256 171.623254 127.270399 177.388664 127.459429 178.02664 C 127.672088 178.664615 128.617237 183.177703 130.814709 179.397106 " transform="matrix(0.165318,0,0,0.165318,39.577122,17.619804)"/>
<path style="fill:none;stroke-width:0.60887;stroke-linecap:butt;stroke-linejoin:miter;stroke:rgb(0%,0%,0%);stroke-opacity:1;stroke-miterlimit:4;" d="M 135.44594 173.206379 C 135.44594 173.206379 134.50079 182.539727 142.794474 175.711024 C 151.064529 168.905951 152.434995 175.616509 152.647654 177.719466 " transform="matrix(0.165318,0,0,0.165318,39.577122,17.619804)"/>
<path style="fill-rule:evenodd;fill:rgb(61.176471%,31.764706%,0%);fill-opacity:1;stroke-width:0.60887;stroke-linecap:butt;stroke-linejoin:miter;stroke:rgb(0%,0%,0%);stroke-opacity:1;stroke-miterlimit:4;" d="M 125.474616 28.834848 C 125.474616 28.834848 127.766603 29.16565 129.042554 28.409531 C 130.294877 27.67704 131.759858 27.369867 132.823151 28.834848 C 133.862815 30.299829 134.595305 30.205314 134.595305 30.205314 C 134.595305 30.205314 133.01218 34.080426 134.595305 34.505743 C 136.17843 34.93106 136.910921 34.93106 137.005436 35.450892 C 137.123579 35.970724 135.634969 37.128532 136.060286 37.648364 C 136.485604 38.168196 137.218094 38.806172 137.336238 39.231489 C 137.430753 39.656806 136.391089 41.42896 136.698262 41.854278 C 137.005436 42.279595 137.950585 43.957234 138.58856 43.957234 C 139.202907 43.957234 138.801219 46.580023 140.691517 45.942048 C 142.581816 45.304072 142.463672 43.626432 142.463672 43.626432 C 142.463672 43.626432 144.448485 43.319259 144.991946 41.523475 C 145.511778 39.751321 146.7641 39.326004 146.7641 39.326004 C 146.7641 39.326004 149.292374 37.979166 145.937095 35.876209 C 145.937095 21.17914 136.272945 22.762265 136.272945 22.762265 C 136.272945 22.762265 135.115137 20.139476 133.224839 20.44665 C 131.334541 20.753823 131.240026 22.974923 129.86956 22.762265 C 128.522722 22.549606 128.19192 21.604457 128.097405 21.698972 C 127.979261 21.817116 126.845082 23.920073 126.845082 24.439905 C 126.845082 24.959737 123.159001 23.707414 123.466174 26.424718 C 123.796976 29.16565 125.569131 29.047507 125.474616 28.834848 Z M 125.474616 28.834848 " transform="matrix(0.165318,0,0,0.165318,39.577122,17.619804)"/>
<path style="fill:none;stroke-width:0.60887;stroke-linecap:butt;stroke-linejoin:miter;stroke:rgb(0%,0%,0%);stroke-opacity:1;stroke-miterlimit:4;" d="M 135.540454 25.26691 C 135.540454 25.26691 134.807964 29.898141 139.746368 29.472824 C 139.108392 31.977469 140.998691 32.828103 140.998691 32.828103 " transform="matrix(0.165318,0,0,0.165318,39.577122,17.619804)"/>
<path style="fill:none;stroke-width:0.60887;stroke-linecap:butt;stroke-linejoin:miter;stroke:rgb(0%,0%,0%);stroke-opacity:1;stroke-miterlimit:4;" d="M 144.661144 35.663551 C 144.779287 35.663551 146.882244 37.034017 144.566629 38.711657 " transform="matrix(0.165318,0,0,0.165318,39.577122,17.619804)"/>
<path style="fill:none;stroke-width:0.60887;stroke-linecap:butt;stroke-linejoin:miter;stroke:rgb(0%,0%,0%);stroke-opacity:1;stroke-miterlimit:4;" d="M 137.548896 39.326004 C 137.548896 39.326004 138.58856 40.578326 139.746368 40.271153 C 140.904176 39.963979 142.794474 41.42896 142.794474 41.42896 C 142.794474 41.42896 144.35397 41.948792 144.566629 41.641619 " transform="matrix(0.165318,0,0,0.165318,39.577122,17.619804)"/>
<path style="fill:none;stroke-width:0.60887;stroke-linecap:butt;stroke-linejoin:miter;stroke:rgb(0%,0%,0%);stroke-opacity:1;stroke-miterlimit:4;" d="M 131.145511 43.319259 C 131.145511 43.319259 134.713449 44.689725 137.005436 39.01883 " transform="matrix(0.165318,0,0,0.165318,39.577122,17.619804)"/>
<path style="fill:none;stroke-width:0.60887;stroke-linecap:butt;stroke-linejoin:miter;stroke:rgb(0%,0%,0%);stroke-opacity:1;stroke-miterlimit:4;" d="M 124.529467 37.34119 L 126.632424 37.435705 " transform="matrix(0.165318,0,0,0.165318,39.577122,17.619804)"/>
<path style="fill:none;stroke-width:0.60887;stroke-linecap:butt;stroke-linejoin:round;stroke:rgb(0%,0%,0%);stroke-opacity:1;stroke-miterlimit:4;" d="M 124.860269 39.444147 L 126.726939 39.444147 L 125.049299 40.176638 " transform="matrix(0.165318,0,0,0.165318,39.577122,17.619804)"/>
<path style="fill:none;stroke-width:1.096;stroke-linecap:butt;stroke-linejoin:round;stroke:rgb(0%,0%,0%);stroke-opacity:1;stroke-miterlimit:4;" d="M 127.459429 33.560594 C 127.790231 33.560594 128.948039 33.135277 129.137069 33.466079 C 129.349728 33.773252 127.884746 33.985911 127.459429 33.560594 Z M 127.459429 33.560594 " transform="matrix(0.165318,0,0,0.165318,39.577122,17.619804)"/>
<path style="fill-rule:evenodd;fill:rgb(100%,77.647059%,70.980392%);fill-opacity:1;stroke-width:0.60887;stroke-linecap:butt;stroke-linejoin:miter;stroke:rgb(0%,0%,0%);stroke-opacity:1;stroke-miterlimit:4;" d="M 150.11938 58.488902 C 150.237524 58.488902 153.592803 68.861914 154.01812 71.484703 C 154.419808 74.107492 155.790275 84.598647 155.270443 86.087257 C 154.750611 87.552238 149.386889 94.569971 148.772542 96.365754 C 148.134567 98.137909 144.35397 104.966611 144.35397 104.966611 C 144.35397 104.966611 143.408821 111.67717 143.007133 111.984344 C 142.581816 112.315146 144.070425 113.945528 143.928653 114.512618 C 143.739623 115.126965 140.904176 118.080556 139.628224 117.773382 C 138.375902 117.44258 136.391089 115.977599 136.272945 114.607133 C 136.17843 113.260295 136.391089 108.747208 137.336238 107.5894 C 138.281387 106.431592 143.196162 94.782629 143.526965 94.050139 C 143.834138 93.317648 148.040052 84.196959 148.134567 82.613834 C 148.25271 81.054338 146.834987 77.415514 145.346377 76.068676 C 142.038355 66.357269 143.337935 60.497344 150.11938 58.488902 Z M 150.11938 58.488902 " transform="matrix(0.165318,0,0,0.165318,39.577122,17.619804)"/>
<path style="fill:none;stroke-width:0.60887;stroke-linecap:butt;stroke-linejoin:miter;stroke:rgb(0%,0%,0%);stroke-opacity:1;stroke-miterlimit:4;" d="M 101.255169 103.50163 L 101.42057 108.109232 " transform="matrix(0.165318,0,0,0.165318,39.577122,17.619804)"/>
<path style="fill:none;stroke-width:0.60887;stroke-linecap:butt;stroke-linejoin:miter;stroke:rgb(0%,0%,0%);stroke-opacity:1;stroke-miterlimit:4;" d="M 96.931112 103.170828 C 96.931112 103.170828 99.884703 108.085603 99.648416 110.708392 " transform="matrix(0.165318,0,0,0.165318,39.577122,17.619804)"/>
<path style="fill:none;stroke-width:0.60887;stroke-linecap:butt;stroke-linejoin:round;stroke:rgb(0%,0%,0%);stroke-opacity:1;stroke-miterlimit:4;" d="M 136.438346 113.449325 C 136.438346 113.449325 138.659447 113.236666 138.58856 116.899119 C 139.982655 112.338775 142.86536 112.220631 142.86536 112.220631 " transform="matrix(0.165318,0,0,0.165318,39.577122,17.619804)"/>
<path style="fill-rule:evenodd;fill:rgb(96.862745%,77.647059%,0%);fill-opacity:1;stroke-width:1.568875;stroke-linecap:butt;stroke-linejoin:miter;stroke:rgb(0%,0%,0%);stroke-opacity:1;stroke-miterlimit:4;" d="M 768.25621 391.308816 C 825.337311 389.725767 862.204092 348.505602 861.808329 348.109839 C 861.412567 347.714077 869.327813 336.602289 875.690453 338.185339 C 882.02265 339.798831 891.155626 358.430102 902.23697 362.387725 C 907.808086 371.094496 900.653921 379.040185 898.279347 380.623234 C 895.904774 382.206283 885.188748 386.559669 883.605699 380.227472 C 882.02265 373.864832 878.856551 375.052119 878.856551 375.052119 C 878.856551 375.052119 828.107647 424.613736 769.443497 422.634925 C 708.800536 423.030687 658.843156 375.082562 658.843156 375.082562 L 654.489771 379.83171 C 654.489771 379.83171 649.71018 384.97662 647.335606 384.580857 C 644.961033 384.185095 634.671213 377.457136 633.879688 370.698734 C 633.088164 363.970774 640.211885 359.617389 640.211885 359.617389 C 640.211885 359.617389 657.655869 346.131028 659.634681 339.007306 C 663.592304 335.01924 671.142231 341.777642 671.142231 341.777642 C 671.142231 341.777642 717.111544 394.505358 768.25621 391.308816 Z M 768.25621 391.308816 " transform="matrix(0.128312,0,0,0.128312,-37.68625,3.532375)"/>
<path style="fill:none;stroke-width:1.568875;stroke-linecap:butt;stroke-linejoin:miter;stroke:rgb(0%,0%,0%);stroke-opacity:1;stroke-miterlimit:4;" d="M 639.024598 360.65246 C 639.024598 360.65246 643.743302 359.404286 645.478568 361.352655 C 647.18339 363.331466 659.056259 374.960789 659.056259 374.960789 " transform="matrix(0.128312,0,0,0.128312,-37.68625,3.532375)"/>
<path style="fill:none;stroke-width:1.568875;stroke-linecap:butt;stroke-linejoin:miter;stroke:rgb(0%,0%,0%);stroke-opacity:1;stroke-miterlimit:4;" d="M 649.80151 366.162689 L 645.082806 369.694106 C 645.082806 369.694106 656.955675 372.06868 654.276668 379.83171 " transform="matrix(0.128312,0,0,0.128312,-37.68625,3.532375)"/>
<path style="fill:none;stroke-width:1.568875;stroke-linecap:butt;stroke-linejoin:miter;stroke:rgb(0%,0%,0%);stroke-opacity:1;stroke-miterlimit:4;" d="M 897.974915 360.256698 C 897.974915 360.256698 895.630784 359.008524 891.947151 361.748417 C 888.233074 364.518753 878.886995 374.960789 878.886995 374.960789 " transform="matrix(0.128312,0,0,0.128312,-37.68625,3.532375)"/>
<path style="fill:none;stroke-width:1.568875;stroke-linecap:butt;stroke-linejoin:miter;stroke:rgb(0%,0%,0%);stroke-opacity:1;stroke-miterlimit:4;" d="M 887.380662 365.858256 L 892.495129 369.785436 C 892.495129 369.785436 881.809547 370.485631 884.153678 380.623234 " transform="matrix(0.128312,0,0,0.128312,-37.68625,3.532375)"/>
<path style=" stroke:none;fill-rule:nonzero;fill:rgb(0%,0%,0%);fill-opacity:1;" d="M 52.0625 51.421875 L 52.019531 51.484375 C 51.925781 51.441406 51.820312 51.433594 51.703125 51.460938 C 51.617188 51.484375 51.453125 51.5625 51.214844 51.703125 L 49.199219 52.878906 L 49.144531 52.839844 L 49.652344 50.484375 C 49.710938 50.199219 49.742188 50.027344 49.734375 49.964844 C 49.730469 49.90625 49.6875 49.839844 49.609375 49.765625 L 49.652344 49.703125 L 50.738281 50.480469 L 50.695312 50.542969 L 50.65625 50.515625 C 50.558594 50.445312 50.484375 50.410156 50.429688 50.410156 C 50.394531 50.40625 50.363281 50.421875 50.339844 50.453125 C 50.324219 50.476562 50.3125 50.503906 50.300781 50.535156 C 50.292969 50.570312 50.269531 50.664062 50.234375 50.820312 L 49.914062 52.292969 L 51.078125 51.609375 C 51.21875 51.523438 51.308594 51.464844 51.351562 51.433594 C 51.394531 51.402344 51.425781 51.371094 51.445312 51.339844 C 51.46875 51.308594 51.480469 51.273438 51.480469 51.234375 C 51.480469 51.195312 51.46875 51.15625 51.445312 51.121094 C 51.410156 51.066406 51.351562 51.011719 51.273438 50.957031 L 51.316406 50.894531 L 52.0625 51.421875 M 52.785156 54.925781 L 52.75 54.992188 L 51.472656 54.292969 L 51.507812 54.226562 L 51.589844 54.273438 C 51.660156 54.3125 51.722656 54.328125 51.78125 54.328125 C 51.820312 54.328125 51.863281 54.3125 51.902344 54.28125 C 51.929688 54.257812 51.976562 54.1875 52.042969 54.066406 L 52.921875 52.457031 C 52.992188 52.332031 53.027344 52.25 53.03125 52.210938 C 53.035156 52.175781 53.023438 52.132812 52.996094 52.085938 C 52.96875 52.042969 52.921875 52 52.851562 51.960938 L 52.769531 51.917969 L 52.808594 51.851562 L 54.085938 52.550781 L 54.046875 52.617188 L 53.96875 52.574219 C 53.898438 52.535156 53.832031 52.515625 53.777344 52.515625 C 53.734375 52.515625 53.695312 52.53125 53.65625 52.5625 C 53.625 52.585938 53.578125 52.65625 53.511719 52.777344 L 52.632812 54.386719 C 52.5625 54.511719 52.527344 54.59375 52.523438 54.628906 C 52.519531 54.667969 52.53125 54.710938 52.558594 54.757812 C 52.585938 54.804688 52.636719 54.84375 52.703125 54.882812 L 52.785156 54.925781 M 57.449219 53.832031 L 57.121094 54.757812 L 57.050781 54.730469 C 57.054688 54.445312 56.992188 54.207031 56.867188 54.015625 C 56.742188 53.824219 56.574219 53.691406 56.371094 53.617188 C 56.175781 53.546875 55.992188 53.542969 55.820312 53.609375 C 55.652344 53.671875 55.503906 53.792969 55.382812 53.96875 C 55.257812 54.148438 55.15625 54.339844 55.082031 54.550781 C 54.996094 54.800781 54.945312 55.03125 54.9375 55.242188 C 54.929688 55.453125 54.976562 55.625 55.074219 55.761719 C 55.175781 55.898438 55.316406 56 55.5 56.0625 C 55.5625 56.085938 55.628906 56.101562 55.699219 56.113281 C 55.769531 56.121094 55.847656 56.125 55.925781 56.125 L 56.121094 55.582031 C 56.15625 55.476562 56.171875 55.410156 56.167969 55.375 C 56.167969 55.335938 56.148438 55.300781 56.109375 55.257812 C 56.074219 55.21875 56.027344 55.1875 55.960938 55.164062 L 55.894531 55.140625 L 55.921875 55.070312 L 57.195312 55.523438 L 57.167969 55.59375 C 57.070312 55.566406 57 55.554688 56.953125 55.5625 C 56.90625 55.570312 56.867188 55.589844 56.828125 55.628906 C 56.808594 55.652344 56.78125 55.707031 56.75 55.804688 L 56.554688 56.351562 C 56.359375 56.363281 56.164062 56.359375 55.96875 56.332031 C 55.777344 56.304688 55.582031 56.257812 55.386719 56.1875 C 55.136719 56.101562 54.941406 55.992188 54.800781 55.867188 C 54.664062 55.742188 54.550781 55.601562 54.460938 55.445312 C 54.375 55.289062 54.324219 55.128906 54.300781 54.96875 C 54.273438 54.757812 54.300781 54.542969 54.378906 54.320312 C 54.519531 53.925781 54.777344 53.644531 55.148438 53.46875 C 55.523438 53.296875 55.921875 53.285156 56.339844 53.433594 C 56.472656 53.480469 56.585938 53.53125 56.683594 53.589844 C 56.734375 53.621094 56.816406 53.683594 56.925781 53.777344 C 57.035156 53.871094 57.101562 53.921875 57.125 53.929688 C 57.164062 53.941406 57.199219 53.941406 57.242188 53.925781 C 57.28125 53.910156 57.328125 53.871094 57.378906 53.804688 L 57.449219 53.832031 M 59.417969 56.988281 L 59.40625 57.0625 L 57.964844 56.84375 L 57.976562 56.769531 L 58.070312 56.78125 C 58.148438 56.792969 58.214844 56.789062 58.269531 56.769531 C 58.304688 56.753906 58.339844 56.726562 58.363281 56.683594 C 58.382812 56.652344 58.402344 56.570312 58.425781 56.429688 L 58.699219 54.621094 C 58.722656 54.480469 58.726562 54.390625 58.71875 54.355469 C 58.707031 54.316406 58.683594 54.28125 58.640625 54.25 C 58.597656 54.214844 58.539062 54.191406 58.464844 54.179688 L 58.371094 54.167969 L 58.382812 54.089844 L 59.820312 54.308594 L 59.8125 54.382812 L 59.71875 54.371094 C 59.640625 54.359375 59.574219 54.363281 59.519531 54.382812 C 59.480469 54.398438 59.449219 54.425781 59.421875 54.46875 C 59.402344 54.5 59.382812 54.582031 59.359375 54.722656 L 59.085938 56.53125 C 59.066406 56.671875 59.058594 56.761719 59.070312 56.800781 C 59.082031 56.835938 59.105469 56.871094 59.144531 56.90625 C 59.1875 56.9375 59.25 56.960938 59.324219 56.972656 L 59.417969 56.988281 M 63.152344 56.078125 L 63.097656 57.058594 L 60.628906 57.1875 L 60.625 57.109375 L 60.71875 57.105469 C 60.796875 57.101562 60.863281 57.082031 60.910156 57.054688 C 60.945312 57.03125 60.96875 56.996094 60.988281 56.949219 C 61 56.917969 61.003906 56.832031 60.996094 56.691406 L 60.902344 54.863281 C 60.894531 54.71875 60.882812 54.632812 60.867188 54.597656 C 60.851562 54.5625 60.816406 54.53125 60.769531 54.507812 C 60.722656 54.484375 60.660156 54.472656 60.582031 54.476562 L 60.492188 54.480469 L 60.488281 54.40625 L 61.96875 54.332031 L 61.972656 54.40625 L 61.851562 54.414062 C 61.773438 54.417969 61.707031 54.433594 61.660156 54.464844 C 61.625 54.488281 61.597656 54.519531 61.582031 54.566406 C 61.566406 54.601562 61.5625 54.6875 61.570312 54.828125 L 61.660156 56.597656 C 61.667969 56.742188 61.683594 56.832031 61.699219 56.871094 C 61.71875 56.90625 61.753906 56.933594 61.800781 56.953125 C 61.835938 56.960938 61.917969 56.964844 62.050781 56.957031 L 62.28125 56.945312 C 62.429688 56.9375 62.550781 56.90625 62.648438 56.847656 C 62.742188 56.792969 62.824219 56.707031 62.886719 56.589844 C 62.957031 56.472656 63.015625 56.304688 63.066406 56.082031 L 63.152344 56.078125 M 65.851562 55.609375 L 64.910156 55.890625 L 64.875 56.183594 C 64.863281 56.28125 64.867188 56.359375 64.886719 56.417969 C 64.90625 56.492188 64.953125 56.535156 65.023438 56.554688 C 65.066406 56.566406 65.160156 56.554688 65.300781 56.523438 L 65.320312 56.597656 L 64.433594 56.859375 L 64.414062 56.789062 C 64.503906 56.746094 64.570312 56.683594 64.613281 56.601562 C 64.65625 56.515625 64.691406 56.359375 64.722656 56.128906 L 65.039062 53.714844 L 65.078125 53.703125 L 66.691406 55.605469 C 66.847656 55.785156 66.960938 55.890625 67.035156 55.929688 C 67.09375 55.957031 67.164062 55.960938 67.246094 55.941406 L 67.265625 56.015625 L 65.976562 56.402344 L 65.957031 56.328125 L 66.007812 56.3125 C 66.113281 56.28125 66.179688 56.246094 66.214844 56.203125 C 66.238281 56.171875 66.242188 56.140625 66.230469 56.101562 C 66.222656 56.078125 66.210938 56.054688 66.195312 56.03125 C 66.191406 56.019531 66.15625 55.976562 66.09375 55.902344 L 65.851562 55.609375 M 65.742188 55.484375 L 65.070312 54.683594 L 64.9375 55.726562 L 65.742188 55.484375 M 69.300781 51.859375 L 69.65625 52.523438 L 69.589844 52.558594 C 69.46875 52.425781 69.367188 52.339844 69.285156 52.296875 C 69.203125 52.257812 69.109375 52.238281 69.007812 52.242188 C 68.949219 52.246094 68.863281 52.277344 68.75 52.339844 L 68.566406 52.4375 L 69.582031 54.328125 C 69.648438 54.453125 69.699219 54.527344 69.730469 54.550781 C 69.761719 54.574219 69.800781 54.589844 69.855469 54.589844 C 69.90625 54.59375 69.96875 54.574219 70.039062 54.535156 L 70.121094 54.492188 L 70.15625 54.558594 L 68.875 55.25 L 68.835938 55.183594 L 68.917969 55.140625 C 68.988281 55.101562 69.039062 55.058594 69.070312 55.007812 C 69.09375 54.976562 69.101562 54.933594 69.097656 54.882812 C 69.09375 54.847656 69.0625 54.765625 68.996094 54.644531 L 67.976562 52.753906 L 67.800781 52.847656 C 67.636719 52.9375 67.535156 53.035156 67.496094 53.144531 C 67.445312 53.300781 67.453125 53.476562 67.523438 53.671875 L 67.453125 53.707031 L 67.097656 53.042969 L 69.300781 51.859375 M 70.96875 50.871094 L 71.652344 51.773438 L 71.695312 51.742188 C 71.835938 51.636719 71.90625 51.511719 71.902344 51.378906 C 71.898438 51.242188 71.839844 51.078125 71.726562 50.894531 L 71.789062 50.847656 L 72.667969 52.011719 L 72.605469 52.058594 C 72.496094 51.941406 72.390625 51.859375 72.289062 51.808594 C 72.183594 51.761719 72.097656 51.742188 72.019531 51.757812 C 71.941406 51.769531 71.851562 51.816406 71.746094 51.898438 L 72.21875 52.523438 C 72.308594 52.644531 72.371094 52.71875 72.402344 52.738281 C 72.433594 52.757812 72.46875 52.761719 72.511719 52.757812 C 72.550781 52.753906 72.605469 52.730469 72.667969 52.683594 L 72.800781 52.582031 C 73.007812 52.425781 73.136719 52.25 73.191406 52.0625 C 73.242188 51.871094 73.222656 51.65625 73.128906 51.417969 L 73.191406 51.371094 L 73.625 52.15625 L 71.703125 53.605469 L 71.65625 53.542969 L 71.730469 53.488281 C 71.792969 53.4375 71.839844 53.386719 71.859375 53.335938 C 71.875 53.296875 71.878906 53.257812 71.867188 53.207031 C 71.859375 53.171875 71.8125 53.097656 71.726562 52.988281 L 70.625 51.523438 C 70.550781 51.425781 70.5 51.363281 70.476562 51.347656 C 70.4375 51.316406 70.394531 51.300781 70.351562 51.304688 C 70.285156 51.304688 70.21875 51.332031 70.144531 51.386719 L 70.070312 51.441406 L 70.027344 51.382812 L 71.886719 49.976562 L 72.382812 50.636719 L 72.320312 50.683594 C 72.167969 50.546875 72.035156 50.464844 71.925781 50.4375 C 71.816406 50.410156 71.695312 50.421875 71.566406 50.464844 C 71.488281 50.492188 71.367188 50.570312 71.199219 50.695312 L 70.96875 50.871094 "/>
</g>
</svg>
